A246/A264/Exercise 4/Saturation/0.955/tek0000CH2.csv

Model,DPO4104
Firmware Version,2.68

Waveform Type,ANALOG
Point Format,Y
Horizontal Units,s
Horizontal Scale,0.01
Horizontal Delay,-0.0001
Sample Interval,1e-06
Record Length,100000
Gating,0.0% to 100.0%
Probe Attenuation,0.2
Vertical Units,V
Vertical Offset,-0.812
Vertical Scale,0.02
Vertical Position,-5
,
,
,
Label,
TIME,CH2
-5.01000e-02,-0.719666
-5.00990e-02,-0.719234
-5.00980e-02,-0.719309
-5.00970e-02,-0.719131
-5.00960e-02,-0.719341
-5.00950e-02,-0.719269
-5.00940e-02,-0.719178
-5.00930e-02,-0.719334
-5.00920e-02,-0.719375
-5.00910e-02,-0.719291
-5.00900e-02,-0.719391
-5.00890e-02,-0.719019
-5.00880e-02,-0.719209
-5.00870e-02,-0.719431
-5.00860e-02,-0.719222
-5.00850e-02,-0.719288
-5.00840e-02,-0.7194
-5.00830e-02,-0.719191
-5.00820e-02,-0.719416
-5.00810e-02,-0.719481
-5.00800e-02,-0.71895
-5.00790e-02,-0.719338
-5.00780e-02,-0.719038
-5.00770e-02,-0.719466
-5.00760e-02,-0.719234
-5.00750e-02,-0.719334
-5.00740e-02,-0.719294
-5.00730e-02,-0.719175
-5.00720e-02,-0.719291
-5.00710e-02,-0.719253
-5.00700e-02,-0.719613
-5.00690e-02,-0.719494
-5.00680e-02,-0.719366
-5.00670e-02,-0.719409
-5.00660e-02,-0.719291
-5.00650e-02,-0.71955
-5.00640e-02,-0.719219
-5.00630e-02,-0.719616
-5.00620e-02,-0.719416
-5.00610e-02,-0.719288
-5.00600e-02,-0.7194
-5.00590e-02,-0.719372
-5.00580e-02,-0.719431
-5.00570e-02,-0.719309
-5.00560e-02,-0.719303
-5.00550e-02,-0.719484
-5.00540e-02,-0.719253
-5.00530e-02,-0.719409
-5.00520e-02,-0.719481
-5.00510e-02,-0.719603
-5.00500e-02,-0.719325
-5.00490e-02,-0.719375
-5.00480e-02,-0.719053
-5.00470e-02,-0.719428
-5.00460e-02,-0.719294
-5.00450e-02,-0.719072
-5.00440e-02,-0.719147
-5.00430e-02,-0.719297
-5.00420e-02,-0.719494
-5.00410e-02,-0.719563
-5.00400e-02,-0.719334
-5.00390e-02,-0.719206
-5.00380e-02,-0.719356
-5.00370e-02,-0.719331
-5.00360e-02,-0.719213
-5.00350e-02,-0.719228
-5.00340e-02,-0.719297
-5.00330e-02,-0.718788
-5.00320e-02,-0.719263
-5.00310e-02,-0.719369
-5.00300e-02,-0.719203
-5.00290e-02,-0.719247
-5.00280e-02,-0.719028
-5.00270e-02,-0.71925
-5.00260e-02,-0.719034
-5.00250e-02,-0.719238
-5.00240e-02,-0.719409
-5.00230e-02,-0.719241
-5.00220e-02,-0.719188
-5.00210e-02,-0.719125
-5.00200e-02,-0.719206
-5.00190e-02,-0.719447
-5.00180e-02,-0.719356
-5.00170e-02,-0.719216
-5.00160e-02,-0.719213
-5.00150e-02,-0.719266
-5.00140e-02,-0.719475
-5.00130e-02,-0.719006
-5.00120e-02,-0.719131
-5.00110e-02,-0.719244
-5.00100e-02,-0.719263
-5.00090e-02,-0.719363
-5.00080e-02,-0.718934
-5.00070e-02,-0.719334
-5.00060e-02,-0.719513
-5.00050e-02,-0.719191
-5.00040e-02,-0.719359
-5.00030e-02,-0.719372
-5.00020e-02,-0.719316
-5.00010e-02,-0.719056
-5.00000e-02,-0.719309
-4.99990e-02,-0.719244
-4.99980e-02,-0.719078
-4.99970e-02,-0.719144
-4.99960e-02,-0.719091
-4.99950e-02,-0.718888
-4.99940e-02,-0.719347
-4.99930e-02,-0.719175
-4.99920e-02,-0.719156
-4.99910e-02,-0.719031
-4.99900e-02,-0.719225
-4.99890e-02,-0.719109
-4.99880e-02,-0.719128
-4.99870e-02,-0.719169
-4.99860e-02,-0.718916
-4.99850e-02,-0.718791
-4.99840e-02,-0.719138
-4.99830e-02,-0.719206
-4.99820e-02,-0.718922
-4.99810e-02,-0.719366
-4.99800e-02,-0.718988
-4.99790e-02,-0.718878
-4.99780e-02,-0.719163
-4.99770e-02,-0.719694
-4.99760e-02,-0.719369
-4.99750e-02,-0.719297
-4.99740e-02,-0.719209
-4.99730e-02,-0.719325
-4.99720e-02,-0.71895
-4.99710e-02,-0.719019
-4.99700e-02,-0.718859
-4.99690e-02,-0.719128
-4.99680e-02,-0.719519
-4.99670e-02,-0.719066
-4.99660e-02,-0.719203
-4.99650e-02,-0.71945
-4.99640e-02,-0.719072
-4.99630e-02,-0.719394
-4.99620e-02,-0.719163
-4.99610e-02,-0.719178
-4.99600e-02,-0.719313
-4.99590e-02,-0.718775
-4.99580e-02,-0.719303
-4.99570e-02,-0.719038
-4.99560e-02,-0.719319
-4.99550e-02,-0.719263
-4.99540e-02,-0.719225
-4.99530e-02,-0.719319
-4.99520e-02,-0.719378
-4.99510e-02,-0.719222
-4.99500e-02,-0.719303
-4.99490e-02,-0.719472
-4.99480e-02,-0.719319
-4.99470e-02,-0.71935
-4.99460e-02,-0.719422
-4.99450e-02,-0.719063
-4.99440e-02,-0.719559
-4.99430e-02,-0.719422
-4.99420e-02,-0.719353
-4.99410e-02,-0.719328
-4.99400e-02,-0.719594
-4.99390e-02,-0.719566
-4.99380e-02,-0.719325
-4.99370e-02,-0.719372
-4.99360e-02,-0.719209
-4.99350e-02,-0.719397
-4.99340e-02,-0.719369
-4.99330e-02,-0.719572
-4.99320e-02,-0.719484
-4.99310e-02,-0.719791
-4.99300e-02,-0.719394
-4.99290e-02,-0.719384
-4.99280e-02,-0.719459
-4.99270e-02,-0.719391
-4.99260e-02,-0.719619
-4.99250e-02,-0.719625
-4.99240e-02,-0.719406
-4.99230e-02,-0.719791
-4.99220e-02,-0.719772
-4.99210e-02,-0.719372
-4.99200e-02,-0.719547
-4.99190e-02,-0.719875
-4.99180e-02,-0.719478
-4.99170e-02,-0.719484
-4.99160e-02,-0.719759
-4.99150e-02,-0.7196
-4.99140e-02,-0.719369
-4.99130e-02,-0.719544
-4.99120e-02,-0.719925
-4.99110e-02,-0.719681
-4.99100e-02,-0.719916
-4.99090e-02,-0.719706
-4.99080e-02,-0.719619
-4.99070e-02,-0.719541
-4.99060e-02,-0.719972
-4.99050e-02,-0.719791
-4.99040e-02,-0.719969
-4.99030e-02,-0.71985
-4.99020e-02,-0.7198
-4.99010e-02,-0.719941
-4.99000e-02,-0.719869
-4.98990e-02,-0.719978
-4.98980e-02,-0.719931
-4.98970e-02,-0.720294
-4.98960e-02,-0.719928
-4.98950e-02,-0.719844
-4.98940e-02,-0.719959
-4.98930e-02,-0.720134
-4.98920e-02,-0.719988
-4.98910e-02,-0.719838
-4.98900e-02,-0.720231
-4.98890e-02,-0.720178
-4.98880e-02,-0.720097
-4.98870e-02,-0.720166
-4.98860e-02,-0.720425
-4.98850e-02,-0.720497
-4.98840e-02,-0.72
-4.98830e-02,-0.720347
-4.98820e-02,-0.720063
-4.98810e-02,-0.720281
-4.98800e-02,-0.720466
-4.98790e-02,-0.720597
-4.98780e-02,-0.720197
-4.98770e-02,-0.720222
-4.98760e-02,-0.720475
-4.98750e-02,-0.720619
-4.98740e-02,-0.72025
-4.98730e-02,-0.720478
-4.98720e-02,-0.720384
-4.98710e-02,-0.720653
-4.98700e-02,-0.720528
-4.98690e-02,-0.720291
-4.98680e-02,-0.720613
-4.98670e-02,-0.720544
-4.98660e-02,-0.720519
-4.98650e-02,-0.72055
-4.98640e-02,-0.720503
-4.98630e-02,-0.720588
-4.98620e-02,-0.720681
-4.98610e-02,-0.720384
-4.98600e-02,-0.720694
-4.98590e-02,-0.721097
-4.98580e-02,-0.720838
-4.98570e-02,-0.720988
-4.98560e-02,-0.720609
-4.98550e-02,-0.720819
-4.98540e-02,-0.720563
-4.98530e-02,-0.721169
-4.98520e-02,-0.720691
-4.98510e-02,-0.720756
-4.98500e-02,-0.721291
-4.98490e-02,-0.720713
-4.98480e-02,-0.721294
-4.98470e-02,-0.720806
-4.98460e-02,-0.720966
-4.98450e-02,-0.720975
-4.98440e-02,-0.721278
-4.98430e-02,-0.721225
-4.98420e-02,-0.721025
-4.98410e-02,-0.720838
-4.98400e-02,-0.721084
-4.98390e-02,-0.720991
-4.98380e-02,-0.721219
-4.98370e-02,-0.721156
-4.98360e-02,-0.721019
-4.98350e-02,-0.721222
-4.98340e-02,-0.720759
-4.98330e-02,-0.721341
-4.98320e-02,-0.721069
-4.98310e-02,-0.721453
-4.98300e-02,-0.720931
-4.98290e-02,-0.7214
-4.98280e-02,-0.721
-4.98270e-02,-0.721372
-4.98260e-02,-0.721209
-4.98250e-02,-0.72115
-4.98240e-02,-0.721241
-4.98230e-02,-0.721469
-4.98220e-02,-0.721441
-4.98210e-02,-0.721231
-4.98200e-02,-0.721141
-4.98190e-02,-0.721688
-4.98180e-02,-0.721466
-4.98170e-02,-0.721381
-4.98160e-02,-0.721544
-4.98150e-02,-0.721606
-4.98140e-02,-0.721741
-4.98130e-02,-0.721622
-4.98120e-02,-0.721528
-4.98110e-02,-0.721722
-4.98100e-02,-0.721631
-4.98090e-02,-0.721719
-4.98080e-02,-0.721697
-4.98070e-02,-0.721628
-4.98060e-02,-0.721428
-4.98050e-02,-0.721528
-4.98040e-02,-0.721722
-4.98030e-02,-0.72175
-4.98020e-02,-0.721691
-4.98010e-02,-0.72165
-4.98000e-02,-0.721466
-4.97990e-02,-0.721803
-4.97980e-02,-0.721381
-4.97970e-02,-0.721516
-4.97960e-02,-0.721794
-4.97950e-02,-0.721809
-4.97940e-02,-0.721597
-4.97930e-02,-0.7218
-4.97920e-02,-0.721725
-4.97910e-02,-0.722172
-4.97900e-02,-0.721991
-4.97890e-02,-0.721972
-4.97880e-02,-0.721594
-4.97870e-02,-0.721756
-4.97860e-02,-0.721803
-4.97850e-02,-0.721778
-4.97840e-02,-0.721788
-4.97830e-02,-0.722069
-4.97820e-02,-0.721975
-4.97810e-02,-0.721813
-4.97800e-02,-0.721853
-4.97790e-02,-0.721966
-4.97780e-02,-0.721834
-4.97770e-02,-0.721969
-4.97760e-02,-0.721725
-4.97750e-02,-0.721638
-4.97740e-02,-0.721806
-4.97730e-02,-0.722169
-4.97720e-02,-0.721966
-4.97710e-02,-0.72195
-4.97700e-02,-0.721756
-4.97690e-02,-0.721884
-4.97680e-02,-0.721888
-4.97670e-02,-0.722106
-4.97660e-02,-0.722097
-4.97650e-02,-0.722322
-4.97640e-02,-0.721875
-4.97630e-02,-0.722191
-4.97620e-02,-0.722019
-4.97610e-02,-0.721959
-4.97600e-02,-0.722263
-4.97590e-02,-0.721888
-4.97580e-02,-0.721897
-4.97570e-02,-0.722222
-4.97560e-02,-0.722091
-4.97550e-02,-0.722059
-4.97540e-02,-0.722066
-4.97530e-02,-0.722088
-4.97520e-02,-0.722184
-4.97510e-02,-0.722197
-4.97500e-02,-0.722219
-4.97490e-02,-0.722138
-4.97480e-02,-0.722275
-4.97470e-02,-0.722391
-4.97460e-02,-0.721856
-4.97450e-02,-0.722178
-4.97440e-02,-0.722191
-4.97430e-02,-0.722128
-4.97420e-02,-0.7223
-4.97410e-02,-0.722197
-4.97400e-02,-0.722172
-4.97390e-02,-0.722316
-4.97380e-02,-0.722109
-4.97370e-02,-0.722381
-4.97360e-02,-0.722256
-4.97350e-02,-0.722647
-4.97340e-02,-0.722034
-4.97330e-02,-0.722081
-4.97320e-02,-0.722138
-4.97310e-02,-0.722206
-4.97300e-02,-0.722428
-4.97290e-02,-0.7222
-4.97280e-02,-0.722434
-4.97270e-02,-0.722363
-4.97260e-02,-0.722163
-4.97250e-02,-0.722088
-4.97240e-02,-0.722306
-4.97230e-02,-0.722431
-4.97220e-02,-0.722347
-4.97210e-02,-0.722138
-4.97200e-02,-0.722419
-4.97190e-02,-0.72235
-4.97180e-02,-0.722197
-4.97170e-02,-0.722444
-4.97160e-02,-0.722647
-4.97150e-02,-0.722344
-4.97140e-02,-0.722397
-4.97130e-02,-0.722534
-4.97120e-02,-0.722272
-4.97110e-02,-0.722297
-4.97100e-02,-0.722416
-4.97090e-02,-0.722394
-4.97080e-02,-0.722397
-4.97070e-02,-0.722375
-4.97060e-02,-0.722638
-4.97050e-02,-0.722397
-4.97040e-02,-0.722463
-4.97030e-02,-0.72245
-4.97020e-02,-0.72235
-4.97010e-02,-0.722731
-4.97000e-02,-0.722494
-4.96990e-02,-0.722606
-4.96980e-02,-0.722381
-4.96970e-02,-0.722072
-4.96960e-02,-0.722381
-4.96950e-02,-0.72265
-4.96940e-02,-0.722175
-4.96930e-02,-0.722647
-4.96920e-02,-0.722431
-4.96910e-02,-0.722459
-4.96900e-02,-0.722372
-4.96890e-02,-0.722581
-4.96880e-02,-0.722428
-4.96870e-02,-0.722659
-4.96860e-02,-0.722713
-4.96850e-02,-0.722328
-4.96840e-02,-0.722606
-4.96830e-02,-0.722353
-4.96820e-02,-0.722488
-4.96810e-02,-0.722466
-4.96800e-02,-0.7227
-4.96790e-02,-0.722394
-4.96780e-02,-0.722803
-4.96770e-02,-0.722088
-4.96760e-02,-0.722647
-4.96750e-02,-0.722569
-4.96740e-02,-0.723078
-4.96730e-02,-0.722741
-4.96720e-02,-0.722631
-4.96710e-02,-0.7228
-4.96700e-02,-0.722469
-4.96690e-02,-0.722559
-4.96680e-02,-0.722456
-4.96670e-02,-0.722613
-4.96660e-02,-0.722509
-4.96650e-02,-0.722419
-4.96640e-02,-0.722525
-4.96630e-02,-0.722916
-4.96620e-02,-0.722638
-4.96610e-02,-0.722688
-4.96600e-02,-0.722622
-4.96590e-02,-0.722353
-4.96580e-02,-0.722534
-4.96570e-02,-0.722469
-4.96560e-02,-0.722534
-4.96550e-02,-0.722741
-4.96540e-02,-0.722419
-4.96530e-02,-0.722906
-4.96520e-02,-0.722638
-4.96510e-02,-0.722513
-4.96500e-02,-0.722563
-4.96490e-02,-0.722481
-4.96480e-02,-0.722491
-4.96470e-02,-0.722609
-4.96460e-02,-0.722669
-4.96450e-02,-0.722584
-4.96440e-02,-0.722525
-4.96430e-02,-0.722647
-4.96420e-02,-0.722788
-4.96410e-02,-0.722509
-4.96400e-02,-0.722509
-4.96390e-02,-0.722431
-4.96380e-02,-0.722556
-4.96370e-02,-0.722572
-4.96360e-02,-0.722778
-4.96350e-02,-0.722716
-4.96340e-02,-0.722384
-4.96330e-02,-0.722488
-4.96320e-02,-0.722369
-4.96310e-02,-0.722784
-4.96300e-02,-0.72255
-4.96290e-02,-0.722497
-4.96280e-02,-0.722606
-4.96270e-02,-0.722469
-4.96260e-02,-0.722469
-4.96250e-02,-0.722441
-4.96240e-02,-0.722697
-4.96230e-02,-0.722616
-4.96220e-02,-0.722578
-4.96210e-02,-0.72275
-4.96200e-02,-0.722553
-4.96190e-02,-0.722413
-4.96180e-02,-0.722494
-4.96170e-02,-0.722406
-4.96160e-02,-0.722563
-4.96150e-02,-0.722494
-4.96140e-02,-0.722284
-4.96130e-02,-0.7225
-4.96120e-02,-0.722591
-4.96110e-02,-0.72225
-4.96100e-02,-0.722734
-4.96090e-02,-0.722409
-4.96080e-02,-0.722531
-4.96070e-02,-0.722519
-4.96060e-02,-0.722313
-4.96050e-02,-0.722291
-4.96040e-02,-0.722278
-4.96030e-02,-0.722278
-4.96020e-02,-0.722572
-4.96010e-02,-0.722281
-4.96000e-02,-0.722544
-4.95990e-02,-0.722603
-4.95980e-02,-0.722475
-4.95970e-02,-0.722578
-4.95960e-02,-0.722497
-4.95950e-02,-0.722572
-4.95940e-02,-0.722547
-4.95930e-02,-0.7221
-4.95920e-02,-0.722297
-4.95910e-02,-0.722403
-4.95900e-02,-0.722422
-4.95890e-02,-0.722353
-4.95880e-02,-0.722194
-4.95870e-02,-0.722375
-4.95860e-02,-0.722388
-4.95850e-02,-0.721941
-4.95840e-02,-0.722544
-4.95830e-02,-0.722228
-4.95820e-02,-0.722247
-4.95810e-02,-0.722381
-4.95800e-02,-0.722169
-4.95790e-02,-0.722303
-4.95780e-02,-0.722291
-4.95770e-02,-0.722344
-4.95760e-02,-0.722431
-4.95750e-02,-0.722122
-4.95740e-02,-0.721988
-4.95730e-02,-0.722041
-4.95720e-02,-0.721803
-4.95710e-02,-0.722197
-4.95700e-02,-0.721703
-4.95690e-02,-0.721909
-4.95680e-02,-0.722113
-4.95670e-02,-0.722234
-4.95660e-02,-0.722156
-4.95650e-02,-0.722047
-4.95640e-02,-0.722059
-4.95630e-02,-0.722109
-4.95620e-02,-0.721844
-4.95610e-02,-0.722066
-4.95600e-02,-0.721984
-4.95590e-02,-0.722303
-4.95580e-02,-0.722097
-4.95570e-02,-0.722041
-4.95560e-02,-0.722144
-4.95550e-02,-0.722347
-4.95540e-02,-0.722194
-4.95530e-02,-0.722263
-4.95520e-02,-0.721859
-4.95510e-02,-0.721603
-4.95500e-02,-0.722234
-4.95490e-02,-0.722156
-4.95480e-02,-0.721791
-4.95470e-02,-0.722247
-4.95460e-02,-0.721956
-4.95450e-02,-0.721816
-4.95440e-02,-0.722038
-4.95430e-02,-0.721988
-4.95420e-02,-0.721844
-4.95410e-02,-0.721966
-4.95400e-02,-0.721831
-4.95390e-02,-0.722066
-4.95380e-02,-0.722116
-4.95370e-02,-0.721931
-4.95360e-02,-0.721944
-4.95350e-02,-0.722291
-4.95340e-02,-0.722188
-4.95330e-02,-0.722113
-4.95320e-02,-0.722163
-4.95310e-02,-0.721925
-4.95300e-02,-0.722003
-4.95290e-02,-0.721813
-4.95280e-02,-0.722131
-4.95270e-02,-0.721978
-4.95260e-02,-0.722156
-4.95250e-02,-0.722116
-4.95240e-02,-0.721825
-4.95230e-02,-0.721972
-4.95220e-02,-0.722206
-4.95210e-02,-0.722053
-4.95200e-02,-0.722231
-4.95190e-02,-0.722284
-4.95180e-02,-0.722269
-4.95170e-02,-0.721963
-4.95160e-02,-0.721753
-4.95150e-02,-0.722431
-4.95140e-02,-0.721984
-4.95130e-02,-0.722097
-4.95120e-02,-0.721997
-4.95110e-02,-0.722081
-4.95100e-02,-0.722328
-4.95090e-02,-0.722159
-4.95080e-02,-0.722288
-4.95070e-02,-0.722431
-4.95060e-02,-0.722234
-4.95050e-02,-0.722025
-4.95040e-02,-0.722222
-4.95030e-02,-0.722228
-4.95020e-02,-0.722272
-4.95010e-02,-0.722381
-4.95000e-02,-0.722131
-4.94990e-02,-0.722172
-4.94980e-02,-0.722134
-4.94970e-02,-0.722219
-4.94960e-02,-0.722219
-4.94950e-02,-0.722697
-4.94940e-02,-0.722031
-4.94930e-02,-0.722291
-4.94920e-02,-0.722275
-4.94910e-02,-0.722247
-4.94900e-02,-0.722366
-4.94890e-02,-0.722156
-4.94880e-02,-0.722406
-4.94870e-02,-0.722559
-4.94860e-02,-0.722338
-4.94850e-02,-0.722172
-4.94840e-02,-0.722331
-4.94830e-02,-0.722469
-4.94820e-02,-0.722575
-4.94810e-02,-0.722438
-4.94800e-02,-0.722544
-4.94790e-02,-0.722341
-4.94780e-02,-0.722831
-4.94770e-02,-0.722163
-4.94760e-02,-0.722684
-4.94750e-02,-0.722516
-4.94740e-02,-0.722559
-4.94730e-02,-0.722597
-4.94720e-02,-0.722403
-4.94710e-02,-0.722538
-4.94700e-02,-0.722513
-4.94690e-02,-0.722659
-4.94680e-02,-0.722475
-4.94670e-02,-0.722544
-4.94660e-02,-0.722653
-4.94650e-02,-0.722519
-4.94640e-02,-0.722319
-4.94630e-02,-0.722706
-4.94620e-02,-0.722856
-4.94610e-02,-0.722722
-4.94600e-02,-0.722581
-4.94590e-02,-0.722822
-4.94580e-02,-0.722622
-4.94570e-02,-0.722838
-4.94560e-02,-0.722388
-4.94550e-02,-0.722922
-4.94540e-02,-0.722794
-4.94530e-02,-0.722834
-4.94520e-02,-0.722759
-4.94510e-02,-0.722772
-4.94500e-02,-0.722847
-4.94490e-02,-0.72295
-4.94480e-02,-0.72295
-4.94470e-02,-0.7227
-4.94460e-02,-0.723103
-4.94450e-02,-0.723028
-4.94440e-02,-0.723078
-4.94430e-02,-0.722994
-4.94420e-02,-0.723106
-4.94410e-02,-0.722778
-4.94400e-02,-0.723306
-4.94390e-02,-0.723134
-4.94380e-02,-0.723222
-4.94370e-02,-0.722903
-4.94360e-02,-0.723053
-4.94350e-02,-0.723091
-4.94340e-02,-0.723066
-4.94330e-02,-0.723038
-4.94320e-02,-0.722834
-4.94310e-02,-0.723122
-4.94300e-02,-0.723231
-4.94290e-02,-0.722972
-4.94280e-02,-0.723425
-4.94270e-02,-0.722981
-4.94260e-02,-0.722994
-4.94250e-02,-0.723431
-4.94240e-02,-0.723144
-4.94230e-02,-0.723313
-4.94220e-02,-0.723478
-4.94210e-02,-0.723219
-4.94200e-02,-0.723153
-4.94190e-02,-0.723422
-4.94180e-02,-0.723316
-4.94170e-02,-0.723275
-4.94160e-02,-0.723244
-4.94150e-02,-0.723672
-4.94140e-02,-0.723497
-4.94130e-02,-0.723353
-4.94120e-02,-0.723431
-4.94110e-02,-0.723456
-4.94100e-02,-0.723675
-4.94090e-02,-0.723413
-4.94080e-02,-0.723491
-4.94070e-02,-0.723634
-4.94060e-02,-0.723384
-4.94050e-02,-0.723588
-4.94040e-02,-0.723569
-4.94030e-02,-0.723547
-4.94020e-02,-0.723569
-4.94010e-02,-0.723716
-4.94000e-02,-0.723438
-4.93990e-02,-0.723547
-4.93980e-02,-0.723703
-4.93970e-02,-0.723656
-4.93960e-02,-0.723556
-4.93950e-02,-0.723819
-4.93940e-02,-0.723603
-4.93930e-02,-0.7238
-4.93920e-02,-0.723506
-4.93910e-02,-0.723981
-4.93900e-02,-0.723722
-4.93890e-02,-0.723994
-4.93880e-02,-0.724034
-4.93870e-02,-0.723888
-4.93860e-02,-0.723791
-4.93850e-02,-0.723981
-4.93840e-02,-0.723441
-4.93830e-02,-0.724038
-4.93820e-02,-0.724
-4.93810e-02,-0.723859
-4.93800e-02,-0.724031
-4.93790e-02,-0.724109
-4.93780e-02,-0.723778
-4.93770e-02,-0.724109
-4.93760e-02,-0.723941
-4.93750e-02,-0.724022
-4.93740e-02,-0.724038
-4.93730e-02,-0.723866
-4.93720e-02,-0.723825
-4.93710e-02,-0.724172
-4.93700e-02,-0.723825
-4.93690e-02,-0.724044
-4.93680e-02,-0.724459
-4.93670e-02,-0.723903
-4.93660e-02,-0.723897
-4.93650e-02,-0.724513
-4.93640e-02,-0.724247
-4.93630e-02,-0.724194
-4.93620e-02,-0.72435
-4.93610e-02,-0.72425
-4.93600e-02,-0.724341
-4.93590e-02,-0.724244
-4.93580e-02,-0.724019
-4.93570e-02,-0.724063
-4.93560e-02,-0.724294
-4.93550e-02,-0.724369
-4.93540e-02,-0.724188
-4.93530e-02,-0.724328
-4.93520e-02,-0.7246
-4.93510e-02,-0.724194
-4.93500e-02,-0.724425
-4.93490e-02,-0.72435
-4.93480e-02,-0.724697
-4.93470e-02,-0.724375
-4.93460e-02,-0.724409
-4.93450e-02,-0.724378
-4.93440e-02,-0.724609
-4.93430e-02,-0.724466
-4.93420e-02,-0.724381
-4.93410e-02,-0.724625
-4.93400e-02,-0.724647
-4.93390e-02,-0.724253
-4.93380e-02,-0.724709
-4.93370e-02,-0.724931
-4.93360e-02,-0.724797
-4.93350e-02,-0.724706
-4.93340e-02,-0.724713
-4.93330e-02,-0.724741
-4.93320e-02,-0.724891
-4.93310e-02,-0.724794
-4.93300e-02,-0.724772
-4.93290e-02,-0.724831
-4.93280e-02,-0.724963
-4.93270e-02,-0.724519
-4.93260e-02,-0.724994
-4.93250e-02,-0.725116
-4.93240e-02,-0.725038
-4.93230e-02,-0.724784
-4.93220e-02,-0.725072
-4.93210e-02,-0.724903
-4.93200e-02,-0.725231
-4.93190e-02,-0.724959
-4.93180e-02,-0.724963
-4.93170e-02,-0.72495
-4.93160e-02,-0.725244
-4.93150e-02,-0.725006
-4.93140e-02,-0.725219
-4.93130e-02,-0.725341
-4.93120e-02,-0.724891
-4.93110e-02,-0.724919
-4.93100e-02,-0.725088
-4.93090e-02,-0.725009
-4.93080e-02,-0.725213
-4.93070e-02,-0.724831
-4.93060e-02,-0.725175
-4.93050e-02,-0.725072
-4.93040e-02,-0.725063
-4.93030e-02,-0.725169
-4.93020e-02,-0.725494
-4.93010e-02,-0.725234
-4.93000e-02,-0.725375
-4.92990e-02,-0.725263
-4.92980e-02,-0.725338
-4.92970e-02,-0.725375
-4.92960e-02,-0.725378
-4.92950e-02,-0.725244
-4.92940e-02,-0.725259
-4.92930e-02,-0.725509
-4.92920e-02,-0.725628
-4.92910e-02,-0.725369
-4.92900e-02,-0.725513
-4.92890e-02,-0.725369
-4.92880e-02,-0.725456
-4.92870e-02,-0.725316
-4.92860e-02,-0.725484
-4.92850e-02,-0.725491
-4.92840e-02,-0.725706
-4.92830e-02,-0.725666
-4.92820e-02,-0.725597
-4.92810e-02,-0.725478
-4.92800e-02,-0.725606
-4.92790e-02,-0.725406
-4.92780e-02,-0.725659
-4.92770e-02,-0.725891
-4.92760e-02,-0.725631
-4.92750e-02,-0.725619
-4.92740e-02,-0.725666
-4.92730e-02,-0.725622
-4.92720e-02,-0.7258
-4.92710e-02,-0.725772
-4.92700e-02,-0.725963
-4.92690e-02,-0.725903
-4.92680e-02,-0.7258
-4.92670e-02,-0.725784
-4.92660e-02,-0.725863
-4.92650e-02,-0.725722
-4.92640e-02,-0.725869
-4.92630e-02,-0.725806
-4.92620e-02,-0.725772
-4.92610e-02,-0.726075
-4.92600e-02,-0.725963
-4.92590e-02,-0.725894
-4.92580e-02,-0.725931
-4.92570e-02,-0.725819
-4.92560e-02,-0.72585
-4.92550e-02,-0.725959
-4.92540e-02,-0.72615
-4.92530e-02,-0.725991
-4.92520e-02,-0.725894
-4.92510e-02,-0.726288
-4.92500e-02,-0.726006
-4.92490e-02,-0.725813
-4.92480e-02,-0.726225
-4.92470e-02,-0.726016
-4.92460e-02,-0.725925
-4.92450e-02,-0.726038
-4.92440e-02,-0.726028
-4.92430e-02,-0.726144
