A246/A264/Exercise 4/Saturation/0.321 + 0.512/tek0001CH3.csv

Model,DPO4104
Firmware Version,2.68

Waveform Type,ANALOG
Point Format,Y
Horizontal Units,s
Horizontal Scale,0.01
Horizontal Delay,-0.0001
Sample Interval,1e-06
Record Length,100000
Gating,0.0% to 100.0%
Probe Attenuation,1
Vertical Units,V
Vertical Offset,0
Vertical Scale,0.1
Vertical Position,-3.02
,
,
,
Label,
TIME,CH3
-5.01000e-02,-0.0642813
-5.00990e-02,-0.0628438
-5.00980e-02,-0.0608438
-5.00970e-02,-0.0587656
-5.00960e-02,-0.054875
-5.00950e-02,-0.0528906
-5.00940e-02,-0.0479688
-5.00930e-02,-0.0469219
-5.00920e-02,-0.0427969
-5.00910e-02,-0.0391563
-5.00900e-02,-0.0356719
-5.00890e-02,-0.0329687
-5.00880e-02,-0.02825
-5.00870e-02,-0.0278906
-5.00860e-02,-0.0223125
-5.00850e-02,-0.021125
-5.00840e-02,-0.0148437
-5.00830e-02,-0.01275
-5.00820e-02,-0.00817187
-5.00810e-02,-0.00485937
-5.00800e-02,-0.00173438
-5.00790e-02,0.00296875
-5.00780e-02,0.00657812
-5.00770e-02,0.0108125
-5.00760e-02,0.0143594
-5.00750e-02,0.0182969
-5.00740e-02,0.0226719
-5.00730e-02,0.0258125
-5.00720e-02,0.0295156
-5.00710e-02,0.0362187
-5.00700e-02,0.0374844
-5.00690e-02,0.0427031
-5.00680e-02,0.0468594
-5.00670e-02,0.0501094
-5.00660e-02,0.0537031
-5.00650e-02,0.0594062
-5.00640e-02,0.0615469
-5.00630e-02,0.0665
-5.00620e-02,0.0688281
-5.00610e-02,0.0720312
-5.00600e-02,0.0768125
-5.00590e-02,0.0799375
-5.00580e-02,0.0840156
-5.00570e-02,0.0861094
-5.00560e-02,0.0911719
-5.00550e-02,0.0940781
-5.00540e-02,0.0957969
-5.00530e-02,0.0990469
-5.00520e-02,0.102125
-5.00510e-02,0.103594
-5.00500e-02,0.105906
-5.00490e-02,0.109328
-5.00480e-02,0.111391
-5.00470e-02,0.113
-5.00460e-02,0.115516
-5.00450e-02,0.116406
-5.00440e-02,0.118141
-5.00430e-02,0.120125
-5.00420e-02,0.122562
-5.00410e-02,0.124422
-5.00400e-02,0.124531
-5.00390e-02,0.124953
-5.00380e-02,0.126297
-5.00370e-02,0.125875
-5.00360e-02,0.125875
-5.00350e-02,0.126078
-5.00340e-02,0.126859
-5.00330e-02,0.126906
-5.00320e-02,0.125672
-5.00310e-02,0.126734
-5.00300e-02,0.1265
-5.00290e-02,0.124734
-5.00280e-02,0.123203
-5.00270e-02,0.121844
-5.00260e-02,0.122453
-5.00250e-02,0.120328
-5.00240e-02,0.118156
-5.00230e-02,0.118312
-5.00220e-02,0.116437
-5.00210e-02,0.116125
-5.00200e-02,0.114062
-5.00190e-02,0.110625
-5.00180e-02,0.110516
-5.00170e-02,0.107172
-5.00160e-02,0.106031
-5.00150e-02,0.103875
-5.00140e-02,0.103297
-5.00130e-02,0.100812
-5.00120e-02,0.0985
-5.00110e-02,0.0958906
-5.00100e-02,0.0954062
-5.00090e-02,0.0919219
-5.00080e-02,0.0894531
-5.00070e-02,0.0878437
-5.00060e-02,0.0835
-5.00050e-02,0.0825
-5.00040e-02,0.0807656
-5.00030e-02,0.0792969
-5.00020e-02,0.0761875
-5.00010e-02,0.0735781
-5.00000e-02,0.0708125
-4.99990e-02,0.071
-4.99980e-02,0.0674844
-4.99970e-02,0.0660781
-4.99960e-02,0.0626406
-4.99950e-02,0.0600156
-4.99940e-02,0.0591719
-4.99930e-02,0.0551562
-4.99920e-02,0.0534844
-4.99910e-02,0.0517656
-4.99900e-02,0.0499219
-4.99890e-02,0.04775
-4.99880e-02,0.0455937
-4.99870e-02,0.0418906
-4.99860e-02,0.0400781
-4.99850e-02,0.0397656
-4.99840e-02,0.0373906
-4.99830e-02,0.0345
-4.99820e-02,0.0330156
-4.99810e-02,0.0300156
-4.99800e-02,0.0282031
-4.99790e-02,0.0267187
-4.99780e-02,0.0236406
-4.99770e-02,0.0207812
-4.99760e-02,0.0214219
-4.99750e-02,0.0216875
-4.99740e-02,0.016625
-4.99730e-02,0.0147656
-4.99720e-02,0.0155
-4.99710e-02,0.0124844
-4.99700e-02,0.0115312
-4.99690e-02,0.00957812
-4.99680e-02,0.00564063
-4.99670e-02,0.00589062
-4.99660e-02,0.00589062
-4.99650e-02,0.00220312
-4.99640e-02,0.00059375
-4.99630e-02,0.000484375
-4.99620e-02,-0.00259375
-4.99610e-02,-0.00259375
-4.99600e-02,-0.00360938
-4.99590e-02,-0.0065625
-4.99580e-02,-0.0061875
-4.99570e-02,-0.00714063
-4.99560e-02,-0.00851563
-4.99550e-02,-0.00909375
-4.99540e-02,-0.0114063
-4.99530e-02,-0.0121094
-4.99520e-02,-0.0137344
-4.99510e-02,-0.0162656
-4.99500e-02,-0.0162031
-4.99490e-02,-0.0174375
-4.99480e-02,-0.0216406
-4.99470e-02,-0.0204375
-4.99460e-02,-0.0211094
-4.99450e-02,-0.0235
-4.99440e-02,-0.0262969
-4.99430e-02,-0.0259688
-4.99420e-02,-0.0275781
-4.99410e-02,-0.0287188
-4.99400e-02,-0.0307188
-4.99390e-02,-0.03275
-4.99380e-02,-0.03375
-4.99370e-02,-0.0350938
-4.99360e-02,-0.0376563
-4.99350e-02,-0.0380469
-4.99340e-02,-0.0408438
-4.99330e-02,-0.0413125
-4.99320e-02,-0.0423125
-4.99310e-02,-0.0431094
-4.99300e-02,-0.0469688
-4.99290e-02,-0.0475625
-4.99280e-02,-0.0487031
-4.99270e-02,-0.0522969
-4.99260e-02,-0.0545937
-4.99250e-02,-0.0548125
-4.99240e-02,-0.057125
-4.99230e-02,-0.0585781
-4.99220e-02,-0.0620938
-4.99210e-02,-0.0618438
-4.99200e-02,-0.0648594
-4.99190e-02,-0.0665156
-4.99180e-02,-0.0667656
-4.99170e-02,-0.0694375
-4.99160e-02,-0.0724219
-4.99150e-02,-0.0735938
-4.99140e-02,-0.0762656
-4.99130e-02,-0.0774531
-4.99120e-02,-0.0795625
-4.99110e-02,-0.0796094
-4.99100e-02,-0.0824375
-4.99090e-02,-0.0847813
-4.99080e-02,-0.0852813
-4.99070e-02,-0.0875156
-4.99060e-02,-0.0887031
-4.99050e-02,-0.0904375
-4.99040e-02,-0.0906562
-4.99030e-02,-0.0932344
-4.99020e-02,-0.0965469
-4.99010e-02,-0.095875
-4.99000e-02,-0.0970781
-4.98990e-02,-0.0990469
-4.98980e-02,-0.0996875
-4.98970e-02,-0.101219
-4.98960e-02,-0.102469
-4.98950e-02,-0.103094
-4.98940e-02,-0.103859
-4.98930e-02,-0.104766
-4.98920e-02,-0.105688
-4.98910e-02,-0.105141
-4.98900e-02,-0.107078
-4.98890e-02,-0.107547
-4.98880e-02,-0.107875
-4.98870e-02,-0.109234
-4.98860e-02,-0.109391
-4.98850e-02,-0.109047
-4.98840e-02,-0.111578
-4.98830e-02,-0.110813
-4.98820e-02,-0.111906
-4.98810e-02,-0.111234
-4.98800e-02,-0.11125
-4.98790e-02,-0.111016
-4.98780e-02,-0.112328
-4.98770e-02,-0.111906
-4.98760e-02,-0.112391
-4.98750e-02,-0.112094
-4.98740e-02,-0.110656
-4.98730e-02,-0.111891
-4.98720e-02,-0.111234
-4.98710e-02,-0.110469
-4.98700e-02,-0.111281
-4.98690e-02,-0.109563
-4.98680e-02,-0.109031
-4.98670e-02,-0.109703
-4.98660e-02,-0.108484
-4.98650e-02,-0.109234
-4.98640e-02,-0.106469
-4.98630e-02,-0.105391
-4.98620e-02,-0.104719
-4.98610e-02,-0.105469
-4.98600e-02,-0.103781
-4.98590e-02,-0.100938
-4.98580e-02,-0.100828
-4.98570e-02,-0.101313
-4.98560e-02,-0.0985313
-4.98550e-02,-0.0975313
-4.98540e-02,-0.0988125
-4.98530e-02,-0.0947344
-4.98520e-02,-0.0922969
-4.98510e-02,-0.0930469
-4.98500e-02,-0.0898438
-4.98490e-02,-0.087875
-4.98480e-02,-0.0869844
-4.98470e-02,-0.0856719
-4.98460e-02,-0.0827813
-4.98450e-02,-0.0797031
-4.98440e-02,-0.078875
-4.98430e-02,-0.0772656
-4.98420e-02,-0.0750312
-4.98410e-02,-0.0722031
-4.98400e-02,-0.0702344
-4.98390e-02,-0.0676719
-4.98380e-02,-0.06525
-4.98370e-02,-0.0635
-4.98360e-02,-0.0605781
-4.98350e-02,-0.0593125
-4.98340e-02,-0.0560156
-4.98330e-02,-0.0498594
-4.98320e-02,-0.0482969
-4.98310e-02,-0.0465469
-4.98300e-02,-0.041125
-4.98290e-02,-0.0387031
-4.98280e-02,-0.0356563
-4.98270e-02,-0.0328125
-4.98260e-02,-0.0295
-4.98250e-02,-0.0257969
-4.98240e-02,-0.021875
-4.98230e-02,-0.0186719
-4.98220e-02,-0.015
-4.98210e-02,-0.0117031
-4.98200e-02,-0.00825
-4.98190e-02,-0.0034375
-4.98180e-02,-0.00028125
-4.98170e-02,0.0038125
-4.98160e-02,0.00757812
-4.98150e-02,0.0115781
-4.98140e-02,0.0162812
-4.98130e-02,0.0188281
-4.98120e-02,0.0245469
-4.98110e-02,0.0287812
-4.98100e-02,0.0320781
-4.98090e-02,0.0348594
-4.98080e-02,0.0412656
-4.98070e-02,0.0434375
-4.98060e-02,0.0465469
-4.98050e-02,0.0507187
-4.98040e-02,0.0545156
-4.98030e-02,0.0606094
-4.98020e-02,0.0628437
-4.98010e-02,0.0651094
-4.98000e-02,0.0709062
-4.97990e-02,0.0757656
-4.97980e-02,0.0772969
-4.97970e-02,0.0799687
-4.97960e-02,0.086625
-4.97950e-02,0.0877344
-4.97940e-02,0.0891406
-4.97930e-02,0.0940469
-4.97920e-02,0.0969062
-4.97910e-02,0.0986562
-4.97900e-02,0.103656
-4.97890e-02,0.104344
-4.97880e-02,0.106641
-4.97870e-02,0.108109
-4.97860e-02,0.111734
-4.97850e-02,0.113219
-4.97840e-02,0.115219
-4.97830e-02,0.116953
-4.97820e-02,0.118406
-4.97810e-02,0.121672
-4.97800e-02,0.121906
-4.97790e-02,0.122172
-4.97780e-02,0.124656
-4.97770e-02,0.124437
-4.97760e-02,0.125344
-4.97750e-02,0.126219
-4.97740e-02,0.124844
-4.97730e-02,0.124719
-4.97720e-02,0.126156
-4.97710e-02,0.126484
-4.97700e-02,0.124766
-4.97690e-02,0.123812
-4.97680e-02,0.123766
-4.97670e-02,0.122937
-4.97660e-02,0.121641
-4.97650e-02,0.121203
-4.97640e-02,0.119375
-4.97630e-02,0.119734
-4.97620e-02,0.116266
-4.97610e-02,0.118141
-4.97600e-02,0.116219
-4.97590e-02,0.112297
-4.97580e-02,0.111453
-4.97570e-02,0.111859
-4.97560e-02,0.106828
-4.97550e-02,0.107297
-4.97540e-02,0.103656
-4.97530e-02,0.102875
-4.97520e-02,0.0993906
-4.97510e-02,0.0978594
-4.97500e-02,0.0965312
-4.97490e-02,0.0948594
-4.97480e-02,0.09175
-4.97470e-02,0.0885156
-4.97460e-02,0.0885781
-4.97450e-02,0.0853906
-4.97440e-02,0.0835781
-4.97430e-02,0.0815469
-4.97420e-02,0.0790937
-4.97410e-02,0.0761094
-4.97400e-02,0.0755
-4.97390e-02,0.0726875
-4.97380e-02,0.0716562
-4.97370e-02,0.06875
-4.97360e-02,0.066375
-4.97350e-02,0.0635312
-4.97340e-02,0.0618281
-4.97330e-02,0.0582656
-4.97320e-02,0.057375
-4.97310e-02,0.0547656
-4.97300e-02,0.0534687
-4.97290e-02,0.05025
-4.97280e-02,0.0492187
-4.97270e-02,0.0460312
-4.97260e-02,0.0442812
-4.97250e-02,0.0413594
-4.97240e-02,0.0410312
-4.97230e-02,0.0381406
-4.97220e-02,0.0354531
-4.97210e-02,0.0338594
-4.97200e-02,0.032
-4.97190e-02,0.0286719
-4.97180e-02,0.0275156
-4.97170e-02,0.0260156
-4.97160e-02,0.0235937
-4.97150e-02,0.0211562
-4.97140e-02,0.0192656
-4.97130e-02,0.0182969
-4.97120e-02,0.0157031
-4.97110e-02,0.0145156
-4.97100e-02,0.01375
-4.97090e-02,0.0117344
-4.97080e-02,0.00760937
-4.97070e-02,0.00729687
-4.97060e-02,0.00739062
-4.97050e-02,0.00615625
-4.97040e-02,0.002625
-4.97030e-02,0.00171875
-4.97020e-02,0.00096875
-4.97010e-02,-0.00065625
-4.97000e-02,-0.00178125
-4.96990e-02,-0.00259375
-4.96980e-02,-0.00464063
-4.96970e-02,-0.00514063
-4.96960e-02,-0.00745313
-4.96950e-02,-0.00664063
-4.96940e-02,-0.01
-4.96930e-02,-0.01375
-4.96920e-02,-0.0127188
-4.96910e-02,-0.0131094
-4.96900e-02,-0.0143906
-4.96890e-02,-0.0156563
-4.96880e-02,-0.0178281
-4.96870e-02,-0.0204844
-4.96860e-02,-0.0193125
-4.96850e-02,-0.0227813
-4.96840e-02,-0.022125
-4.96830e-02,-0.0252188
-4.96820e-02,-0.0261094
-4.96810e-02,-0.0258594
-4.96800e-02,-0.0287969
-4.96790e-02,-0.0288438
-4.96780e-02,-0.0306406
-4.96770e-02,-0.0338594
-4.96760e-02,-0.0341562
-4.96750e-02,-0.0351094
-4.96740e-02,-0.0371094
-4.96730e-02,-0.0386094
-4.96720e-02,-0.0412812
-4.96710e-02,-0.0423594
-4.96700e-02,-0.0434531
-4.96690e-02,-0.0466719
-4.96680e-02,-0.0460469
-4.96670e-02,-0.0487344
-4.96660e-02,-0.0508594
-4.96650e-02,-0.0527656
-4.96640e-02,-0.0539688
-4.96630e-02,-0.0552656
-4.96620e-02,-0.05725
-4.96610e-02,-0.0604844
-4.96600e-02,-0.0623438
-4.96590e-02,-0.0641563
-4.96580e-02,-0.0648281
-4.96570e-02,-0.0671719
-4.96560e-02,-0.0683906
-4.96550e-02,-0.0703125
-4.96540e-02,-0.0729063
-4.96530e-02,-0.0743438
-4.96520e-02,-0.0772188
-4.96510e-02,-0.0769531
-4.96500e-02,-0.0808594
-4.96490e-02,-0.0804688
-4.96480e-02,-0.0835
-4.96470e-02,-0.0861875
-4.96460e-02,-0.0862656
-4.96450e-02,-0.0880625
-4.96440e-02,-0.0885
-4.96430e-02,-0.0906562
-4.96420e-02,-0.0920156
-4.96410e-02,-0.0931719
-4.96400e-02,-0.0970313
-4.96390e-02,-0.0956562
-4.96380e-02,-0.0974063
-4.96370e-02,-0.099125
-4.96360e-02,-0.099
-4.96350e-02,-0.101672
-4.96340e-02,-0.101375
-4.96330e-02,-0.103688
-4.96320e-02,-0.107047
-4.96310e-02,-0.105688
-4.96300e-02,-0.105656
-4.96290e-02,-0.106297
-4.96280e-02,-0.10775
-4.96270e-02,-0.107922
-4.96260e-02,-0.108047
-4.96250e-02,-0.110063
-4.96240e-02,-0.110359
-4.96230e-02,-0.109844
-4.96220e-02,-0.110703
-4.96210e-02,-0.110781
-4.96200e-02,-0.109891
-4.96190e-02,-0.111016
-4.96180e-02,-0.111
-4.96170e-02,-0.110359
-4.96160e-02,-0.111047
-4.96150e-02,-0.113703
-4.96140e-02,-0.112156
-4.96130e-02,-0.111078
-4.96120e-02,-0.111906
-4.96110e-02,-0.111266
-4.96100e-02,-0.111141
-4.96090e-02,-0.109047
-4.96080e-02,-0.111172
-4.96070e-02,-0.109
-4.96060e-02,-0.109875
-4.96050e-02,-0.107609
-4.96040e-02,-0.107922
-4.96030e-02,-0.105578
-4.96020e-02,-0.106609
-4.96010e-02,-0.105641
-4.96000e-02,-0.103375
-4.95990e-02,-0.103797
-4.95980e-02,-0.103516
-4.95970e-02,-0.100672
-4.95960e-02,-0.100234
-4.95950e-02,-0.100062
-4.95940e-02,-0.098125
-4.95930e-02,-0.0953594
-4.95920e-02,-0.0947813
-4.95910e-02,-0.0941875
-4.95900e-02,-0.0908125
-4.95890e-02,-0.0899375
-4.95880e-02,-0.0880625
-4.95870e-02,-0.0880625
-4.95860e-02,-0.0860313
-4.95850e-02,-0.0838594
-4.95840e-02,-0.0816406
-4.95830e-02,-0.0806406
-4.95820e-02,-0.0774063
-4.95810e-02,-0.0741719
-4.95800e-02,-0.074375
-4.95790e-02,-0.069125
-4.95780e-02,-0.0687969
-4.95770e-02,-0.0664219
-4.95760e-02,-0.0631875
-4.95750e-02,-0.0603125
-4.95740e-02,-0.0581875
-4.95730e-02,-0.0553125
-4.95720e-02,-0.052
-4.95710e-02,-0.0494375
-4.95700e-02,-0.0458125
-4.95690e-02,-0.0443438
-4.95680e-02,-0.0395781
-4.95670e-02,-0.0366875
-4.95660e-02,-0.0326875
-4.95650e-02,-0.0304687
-4.95640e-02,-0.0268125
-4.95630e-02,-0.0239219
-4.95620e-02,-0.0182969
-4.95610e-02,-0.0158437
-4.95600e-02,-0.0111094
-4.95590e-02,-0.00895313
-4.95580e-02,-0.00396875
-4.95570e-02,-0.0006875
-4.95560e-02,0.00290625
-4.95550e-02,0.0073125
-4.95540e-02,0.0114844
-4.95530e-02,0.0152188
-4.95520e-02,0.0201719
-4.95510e-02,0.0235313
-4.95500e-02,0.0275781
-4.95490e-02,0.0304687
-4.95480e-02,0.0363125
-4.95470e-02,0.0394844
-4.95460e-02,0.0430625
-4.95450e-02,0.0453437
-4.95440e-02,0.0499531
-4.95430e-02,0.0546406
-4.95420e-02,0.0583281
-4.95410e-02,0.0609375
-4.95400e-02,0.066
-4.95390e-02,0.0707031
-4.95380e-02,0.0729375
-4.95370e-02,0.07775
-4.95360e-02,0.0792344
-4.95350e-02,0.0833906
-4.95340e-02,0.0858281
-4.95330e-02,0.0887969
-4.95320e-02,0.0930156
-4.95310e-02,0.0955625
-4.95300e-02,0.0972656
-4.95290e-02,0.101531
-4.95280e-02,0.103062
-4.95270e-02,0.105281
-4.95260e-02,0.108906
-4.95250e-02,0.109906
-4.95240e-02,0.111094
-4.95230e-02,0.114344
-4.95220e-02,0.114734
-4.95210e-02,0.118266
-4.95200e-02,0.120281
-4.95190e-02,0.1195
-4.95180e-02,0.122375
-4.95170e-02,0.124234
-4.95160e-02,0.122266
-4.95150e-02,0.122594
-4.95140e-02,0.123641
-4.95130e-02,0.125969
-4.95120e-02,0.125094
-4.95110e-02,0.124859
-4.95100e-02,0.124641
-4.95090e-02,0.124078
-4.95080e-02,0.124516
-4.95070e-02,0.123656
-4.95060e-02,0.122703
-4.95050e-02,0.123016
-4.95040e-02,0.121594
-4.95030e-02,0.119266
-4.95020e-02,0.118484
-4.95010e-02,0.115203
-4.95000e-02,0.117406
-4.94990e-02,0.114172
-4.94980e-02,0.111937
-4.94970e-02,0.110859
-4.94960e-02,0.109
-4.94950e-02,0.108219
-4.94940e-02,0.105844
-4.94930e-02,0.102969
-4.94920e-02,0.100328
-4.94910e-02,0.100641
-4.94900e-02,0.0969844
-4.94890e-02,0.0942031
-4.94880e-02,0.0929062
-4.94870e-02,0.0914375
-4.94860e-02,0.0890469
-4.94850e-02,0.0864219
-4.94840e-02,0.0854844
-4.94830e-02,0.082
-4.94820e-02,0.0807031
-4.94810e-02,0.0773594
-4.94800e-02,0.0771875
-4.94790e-02,0.0746562
-4.94780e-02,0.0711875
-4.94770e-02,0.0684219
-4.94760e-02,0.0656094
-4.94750e-02,0.0656562
-4.94740e-02,0.0630156
-4.94730e-02,0.06025
-4.94720e-02,0.0573281
-4.94710e-02,0.05475
-4.94700e-02,0.0544531
-4.94690e-02,0.0511562
-4.94680e-02,0.05075
-4.94670e-02,0.0472031
-4.94660e-02,0.0462812
-4.94650e-02,0.0425312
-4.94640e-02,0.0425156
-4.94630e-02,0.0389375
-4.94620e-02,0.0352344
-4.94610e-02,0.0347969
-4.94600e-02,0.0331562
-4.94590e-02,0.0315937
-4.94580e-02,0.0273438
-4.94570e-02,0.0276719
-4.94560e-02,0.0248125
-4.94550e-02,0.0223594
-4.94540e-02,0.0209687
-4.94530e-02,0.0186562
-4.94520e-02,0.0181406
-4.94510e-02,0.0161875
-4.94500e-02,0.0136719
-4.94490e-02,0.01375
-4.94480e-02,0.0112656
-4.94470e-02,0.00779687
-4.94460e-02,0.0086875
-4.94450e-02,0.00565625
-4.94440e-02,0.00571875
-4.94430e-02,0.00407812
-4.94420e-02,0.000515625
-4.94410e-02,0.0005625
-4.94400e-02,-0.000125
-4.94390e-02,-0.00276562
-4.94380e-02,-0.00209375
-4.94370e-02,-0.00432813
-4.94360e-02,-0.00710938
-4.94350e-02,-0.00889063
-4.94340e-02,-0.0094375
-4.94330e-02,-0.0104219
-4.94320e-02,-0.0125938
-4.94310e-02,-0.0119688
-4.94300e-02,-0.0139063
-4.94290e-02,-0.0159219
-4.94280e-02,-0.0165625
-4.94270e-02,-0.0189375
-4.94260e-02,-0.0188125
-4.94250e-02,-0.0200156
-4.94240e-02,-0.0236719
-4.94230e-02,-0.0230469
-4.94220e-02,-0.0257188
-4.94210e-02,-0.0248594
-4.94200e-02,-0.0277188
-4.94190e-02,-0.0289063
-4.94180e-02,-0.0304687
-4.94170e-02,-0.0319375
-4.94160e-02,-0.033625
-4.94150e-02,-0.0333281
-4.94140e-02,-0.0376406
-4.94130e-02,-0.0369531
-4.94120e-02,-0.0378906
-4.94110e-02,-0.0403438
-4.94100e-02,-0.0420469
-4.94090e-02,-0.0435156
-4.94080e-02,-0.0454844
-4.94070e-02,-0.04875
-4.94060e-02,-0.0475625
-4.94050e-02,-0.0504375
-4.94040e-02,-0.0535
-4.94030e-02,-0.0554219
-4.94020e-02,-0.0573906
-4.94010e-02,-0.0572656
-4.94000e-02,-0.0608438
-4.93990e-02,-0.0613281
-4.93980e-02,-0.0652969
-4.93970e-02,-0.0673125
-4.93960e-02,-0.067125
-4.93950e-02,-0.0701094
-4.93940e-02,-0.0715156
-4.93930e-02,-0.0709688
-4.93920e-02,-0.07475
-4.93910e-02,-0.0772188
-4.93900e-02,-0.0802344
-4.93890e-02,-0.0807969
-4.93880e-02,-0.0819375
-4.93870e-02,-0.08325
-4.93860e-02,-0.0854688
-4.93850e-02,-0.0873281
-4.93840e-02,-0.0892188
-4.93830e-02,-0.091
-4.93820e-02,-0.0919531
-4.93810e-02,-0.0937969
-4.93800e-02,-0.0954687
-4.93790e-02,-0.0970313
-4.93780e-02,-0.0973281
-4.93770e-02,-0.0978594
-4.93760e-02,-0.098875
-4.93750e-02,-0.101938
-4.93740e-02,-0.101703
-4.93730e-02,-0.103375
-4.93720e-02,-0.104984
-4.93710e-02,-0.105859
-4.93700e-02,-0.105578
-4.93690e-02,-0.1065
-4.93680e-02,-0.107375
-4.93670e-02,-0.109375
-4.93660e-02,-0.107219
-4.93650e-02,-0.109078
-4.93640e-02,-0.10825
-4.93630e-02,-0.110891
-4.93620e-02,-0.110938
-4.93610e-02,-0.109109
-4.93600e-02,-0.110266
-4.93590e-02,-0.111406
-4.93580e-02,-0.111828
-4.93570e-02,-0.111109
-4.93560e-02,-0.110125
-4.93550e-02,-0.111953
-4.93540e-02,-0.112125
-4.93530e-02,-0.112578
-4.93520e-02,-0.110844
-4.93510e-02,-0.110656
-4.93500e-02,-0.110781
-4.93490e-02,-0.11075
-4.93480e-02,-0.111391
-4.93470e-02,-0.109375
-4.93460e-02,-0.110063
-4.93450e-02,-0.110734
-4.93440e-02,-0.108578
-4.93430e-02,-0.108719
-4.93420e-02,-0.108656
-4.93410e-02,-0.105781
-4.93400e-02,-0.106844
-4.93390e-02,-0.104984
-4.93380e-02,-0.105156
-4.93370e-02,-0.103344
-4.93360e-02,-0.101219
-4.93350e-02,-0.0997031
-4.93340e-02,-0.0990938
-4.93330e-02,-0.0969844
-4.93320e-02,-0.0959687
-4.93310e-02,-0.0937344
-4.93300e-02,-0.0940469
-4.93290e-02,-0.0919531
-4.93280e-02,-0.0889375
-4.93270e-02,-0.0876406
-4.93260e-02,-0.086125
-4.93250e-02,-0.0864844
-4.93240e-02,-0.0841875
-4.93230e-02,-0.0803437
-4.93220e-02,-0.0790781
-4.93210e-02,-0.0772188
-4.93200e-02,-0.0765469
-4.93190e-02,-0.0720156
-4.93180e-02,-0.0710156
-4.93170e-02,-0.0668438
-4.93160e-02,-0.0655938
-4.93150e-02,-0.0625938
-4.93140e-02,-0.0590469
-4.93130e-02,-0.0562344
-4.93120e-02,-0.0539688
-4.93110e-02,-0.0518281
-4.93100e-02,-0.0480156
-4.93090e-02,-0.0449688
-4.93080e-02,-0.0411094
-4.93070e-02,-0.0396563
-4.93060e-02,-0.0356563
-4.93050e-02,-0.032375
-4.93040e-02,-0.0300156
-4.93030e-02,-0.0253594
-4.93020e-02,-0.0218906
-4.93010e-02,-0.0182031
-4.93000e-02,-0.0140781
-4.92990e-02,-0.0119063
-4.92980e-02,-0.00578125
-4.92970e-02,-0.00432813
-4.92960e-02,0.00178125
-4.92950e-02,0.004375
-4.92940e-02,0.00790625
-4.92930e-02,0.0115781
-4.92920e-02,0.0132812
-4.92910e-02,0.0191094
-4.92900e-02,0.0228125
-4.92890e-02,0.0273281
-4.92880e-02,0.0320156
-4.92870e-02,0.0352812
-4.92860e-02,0.040375
-4.92850e-02,0.0438437
-4.92840e-02,0.0472187
-4.92830e-02,0.05175
-4.92820e-02,0.0557656
-4.92810e-02,0.0594844
-4.92800e-02,0.0640469
-4.92790e-02,0.0677031
-4.92780e-02,0.0688281
-4.92770e-02,0.0716094
-4.92760e-02,0.075125
-4.92750e-02,0.0804531
-4.92740e-02,0.0847031
-4.92730e-02,0.0863437
-4.92720e-02,0.089
-4.92710e-02,0.0928125
-4.92700e-02,0.0974844
-4.92690e-02,0.0991406
-4.92680e-02,0.101469
-4.92670e-02,0.102719
-4.92660e-02,0.105328
-4.92650e-02,0.107781
-4.92640e-02,0.111656
-4.92630e-02,0.112234
-4.92620e-02,0.112625
-4.92610e-02,0.115125
-4.92600e-02,0.117453
-4.92590e-02,0.117547
-4.92580e-02,0.120594
-4.92570e-02,0.119781
-4.92560e-02,0.121078
-4.92550e-02,0.122609
-4.92540e-02,0.122422
-4.92530e-02,0.1245
-4.92520e-02,0.124672
-4.92510e-02,0.124297
-4.92500e-02,0.124625
-4.92490e-02,0.121797
