A246/A264/Exercise 4/Saturation/0/tek0000CH2.csv

Model,DPO4104
Firmware Version,2.68

Waveform Type,ANALOG
Point Format,Y
Horizontal Units,s
Horizontal Scale,0.01
Horizontal Delay,-0.0001
Sample Interval,1e-06
Record Length,100000
Gating,0.0% to 100.0%
Probe Attenuation,0.2
Vertical Units,V
Vertical Offset,-0.812
Vertical Scale,0.02
Vertical Position,-5
,
,
,
Label,
TIME,CH2
-5.01000e-02,-0.7192
-5.00990e-02,-0.719166
-5.00980e-02,-0.7192
-5.00970e-02,-0.719222
-5.00960e-02,-0.719197
-5.00950e-02,-0.719584
-5.00940e-02,-0.719222
-5.00930e-02,-0.718994
-5.00920e-02,-0.719494
-5.00910e-02,-0.719431
-5.00900e-02,-0.719238
-5.00890e-02,-0.719397
-5.00880e-02,-0.719756
-5.00870e-02,-0.719613
-5.00860e-02,-0.7197
-5.00850e-02,-0.719691
-5.00840e-02,-0.719378
-5.00830e-02,-0.719416
-5.00820e-02,-0.719819
-5.00810e-02,-0.719959
-5.00800e-02,-0.719125
-5.00790e-02,-0.719544
-5.00780e-02,-0.719766
-5.00770e-02,-0.719709
-5.00760e-02,-0.719519
-5.00750e-02,-0.719513
-5.00740e-02,-0.719575
-5.00730e-02,-0.719959
-5.00720e-02,-0.719359
-5.00710e-02,-0.719406
-5.00700e-02,-0.719659
-5.00690e-02,-0.719888
-5.00680e-02,-0.719644
-5.00670e-02,-0.719753
-5.00660e-02,-0.719656
-5.00650e-02,-0.719747
-5.00640e-02,-0.719791
-5.00630e-02,-0.71985
-5.00620e-02,-0.719919
-5.00610e-02,-0.719881
-5.00600e-02,-0.719725
-5.00590e-02,-0.719825
-5.00580e-02,-0.719797
-5.00570e-02,-0.719991
-5.00560e-02,-0.719972
-5.00550e-02,-0.719763
-5.00540e-02,-0.71995
-5.00530e-02,-0.719666
-5.00520e-02,-0.719644
-5.00510e-02,-0.719888
-5.00500e-02,-0.719838
-5.00490e-02,-0.719978
-5.00480e-02,-0.720053
-5.00470e-02,-0.719809
-5.00460e-02,-0.719934
-5.00450e-02,-0.720078
-5.00440e-02,-0.719975
-5.00430e-02,-0.719959
-5.00420e-02,-0.719888
-5.00410e-02,-0.720353
-5.00400e-02,-0.719944
-5.00390e-02,-0.720088
-5.00380e-02,-0.720525
-5.00370e-02,-0.720106
-5.00360e-02,-0.720278
-5.00350e-02,-0.720131
-5.00340e-02,-0.720022
-5.00330e-02,-0.720159
-5.00320e-02,-0.720238
-5.00310e-02,-0.720419
-5.00300e-02,-0.720294
-5.00290e-02,-0.720253
-5.00280e-02,-0.720469
-5.00270e-02,-0.720475
-5.00260e-02,-0.720184
-5.00250e-02,-0.720222
-5.00240e-02,-0.720306
-5.00230e-02,-0.720344
-5.00220e-02,-0.720313
-5.00210e-02,-0.720275
-5.00200e-02,-0.720616
-5.00190e-02,-0.720978
-5.00180e-02,-0.720372
-5.00170e-02,-0.720428
-5.00160e-02,-0.720244
-5.00150e-02,-0.720575
-5.00140e-02,-0.720575
-5.00130e-02,-0.720756
-5.00120e-02,-0.720591
-5.00110e-02,-0.720388
-5.00100e-02,-0.720666
-5.00090e-02,-0.72055
-5.00080e-02,-0.720572
-5.00070e-02,-0.720303
-5.00060e-02,-0.720834
-5.00050e-02,-0.720656
-5.00040e-02,-0.720681
-5.00030e-02,-0.720709
-5.00020e-02,-0.720556
-5.00010e-02,-0.720966
-5.00000e-02,-0.720772
-4.99990e-02,-0.720656
-4.99980e-02,-0.720716
-4.99970e-02,-0.720541
-4.99960e-02,-0.720728
-4.99950e-02,-0.720647
-4.99940e-02,-0.720788
-4.99930e-02,-0.720772
-4.99920e-02,-0.720894
-4.99910e-02,-0.720653
-4.99900e-02,-0.720791
-4.99890e-02,-0.720766
-4.99880e-02,-0.721088
-4.99870e-02,-0.720706
-4.99860e-02,-0.721028
-4.99850e-02,-0.720909
-4.99840e-02,-0.720813
-4.99830e-02,-0.72085
-4.99820e-02,-0.720625
-4.99810e-02,-0.720869
-4.99800e-02,-0.720741
-4.99790e-02,-0.721178
-4.99780e-02,-0.720722
-4.99770e-02,-0.721091
-4.99760e-02,-0.721006
-4.99750e-02,-0.720663
-4.99740e-02,-0.721069
-4.99730e-02,-0.721022
-4.99720e-02,-0.720916
-4.99710e-02,-0.721091
-4.99700e-02,-0.721034
-4.99690e-02,-0.720834
-4.99680e-02,-0.720788
-4.99670e-02,-0.721256
-4.99660e-02,-0.720847
-4.99650e-02,-0.721038
-4.99640e-02,-0.720981
-4.99630e-02,-0.721022
-4.99620e-02,-0.720897
-4.99610e-02,-0.721194
-4.99600e-02,-0.721122
-4.99590e-02,-0.721069
-4.99580e-02,-0.720919
-4.99570e-02,-0.721109
-4.99560e-02,-0.72095
-4.99550e-02,-0.721353
-4.99540e-02,-0.72115
-4.99530e-02,-0.720903
-4.99520e-02,-0.720863
-4.99510e-02,-0.721028
-4.99500e-02,-0.721394
-4.99490e-02,-0.721238
-4.99480e-02,-0.721291
-4.99470e-02,-0.721075
-4.99460e-02,-0.721091
-4.99450e-02,-0.721244
-4.99440e-02,-0.721125
-4.99430e-02,-0.721406
-4.99420e-02,-0.721159
-4.99410e-02,-0.721309
-4.99400e-02,-0.721053
-4.99390e-02,-0.721194
-4.99380e-02,-0.72085
-4.99370e-02,-0.721203
-4.99360e-02,-0.72105
-4.99350e-02,-0.721041
-4.99340e-02,-0.721156
-4.99330e-02,-0.721272
-4.99320e-02,-0.720922
-4.99310e-02,-0.721166
-4.99300e-02,-0.721513
-4.99290e-02,-0.721372
-4.99280e-02,-0.721256
-4.99270e-02,-0.721416
-4.99260e-02,-0.721453
-4.99250e-02,-0.721075
-4.99240e-02,-0.721244
-4.99230e-02,-0.721216
-4.99220e-02,-0.721213
-4.99210e-02,-0.721447
-4.99200e-02,-0.721341
-4.99190e-02,-0.721338
-4.99180e-02,-0.721359
-4.99170e-02,-0.721569
-4.99160e-02,-0.721147
-4.99150e-02,-0.721425
-4.99140e-02,-0.7213
-4.99130e-02,-0.721069
-4.99120e-02,-0.721406
-4.99110e-02,-0.721497
-4.99100e-02,-0.721175
-4.99090e-02,-0.721184
-4.99080e-02,-0.721425
-4.99070e-02,-0.721219
-4.99060e-02,-0.721238
-4.99050e-02,-0.721322
-4.99040e-02,-0.721175
-4.99030e-02,-0.721194
-4.99020e-02,-0.721466
-4.99010e-02,-0.721425
-4.99000e-02,-0.721597
-4.98990e-02,-0.721284
-4.98980e-02,-0.721297
-4.98970e-02,-0.721034
-4.98960e-02,-0.721381
-4.98950e-02,-0.720959
-4.98940e-02,-0.720944
-4.98930e-02,-0.721347
-4.98920e-02,-0.721003
-4.98910e-02,-0.721506
-4.98900e-02,-0.721391
-4.98890e-02,-0.721244
-4.98880e-02,-0.721031
-4.98870e-02,-0.721003
-4.98860e-02,-0.72125
-4.98850e-02,-0.721263
-4.98840e-02,-0.721078
-4.98830e-02,-0.721506
-4.98820e-02,-0.721172
-4.98810e-02,-0.721497
-4.98800e-02,-0.721244
-4.98790e-02,-0.72105
-4.98780e-02,-0.721431
-4.98770e-02,-0.7212
-4.98760e-02,-0.721203
-4.98750e-02,-0.721116
-4.98740e-02,-0.721331
-4.98730e-02,-0.721059
-4.98720e-02,-0.721247
-4.98710e-02,-0.721331
-4.98700e-02,-0.721147
-4.98690e-02,-0.721325
-4.98680e-02,-0.7213
-4.98670e-02,-0.721169
-4.98660e-02,-0.721063
-4.98650e-02,-0.721259
-4.98640e-02,-0.721472
-4.98630e-02,-0.721119
-4.98620e-02,-0.721159
-4.98610e-02,-0.721547
-4.98600e-02,-0.721116
-4.98590e-02,-0.721384
-4.98580e-02,-0.721347
-4.98570e-02,-0.721294
-4.98560e-02,-0.721381
-4.98550e-02,-0.7212
-4.98540e-02,-0.721272
-4.98530e-02,-0.721203
-4.98520e-02,-0.721519
-4.98510e-02,-0.721397
-4.98500e-02,-0.721206
-4.98490e-02,-0.721131
-4.98480e-02,-0.721188
-4.98470e-02,-0.721147
-4.98460e-02,-0.720956
-4.98450e-02,-0.721475
-4.98440e-02,-0.720944
-4.98430e-02,-0.721444
-4.98420e-02,-0.721044
-4.98410e-02,-0.721344
-4.98400e-02,-0.721422
-4.98390e-02,-0.721281
-4.98380e-02,-0.72125
-4.98370e-02,-0.721022
-4.98360e-02,-0.721141
-4.98350e-02,-0.721334
-4.98340e-02,-0.721153
-4.98330e-02,-0.721084
-4.98320e-02,-0.721259
-4.98310e-02,-0.721166
-4.98300e-02,-0.721525
-4.98290e-02,-0.721072
-4.98280e-02,-0.721622
-4.98270e-02,-0.721334
-4.98260e-02,-0.721388
-4.98250e-02,-0.721416
-4.98240e-02,-0.721378
-4.98230e-02,-0.721356
-4.98220e-02,-0.721231
-4.98210e-02,-0.721219
-4.98200e-02,-0.721097
-4.98190e-02,-0.7211
-4.98180e-02,-0.721425
-4.98170e-02,-0.721381
-4.98160e-02,-0.721184
-4.98150e-02,-0.720994
-4.98140e-02,-0.720991
-4.98130e-02,-0.721428
-4.98120e-02,-0.72135
-4.98110e-02,-0.720978
-4.98100e-02,-0.720938
-4.98090e-02,-0.721388
-4.98080e-02,-0.720909
-4.98070e-02,-0.721466
-4.98060e-02,-0.721063
-4.98050e-02,-0.721131
-4.98040e-02,-0.721056
-4.98030e-02,-0.721463
-4.98020e-02,-0.7214
-4.98010e-02,-0.7214
-4.98000e-02,-0.721166
-4.97990e-02,-0.721272
-4.97980e-02,-0.721291
-4.97970e-02,-0.721247
-4.97960e-02,-0.721391
-4.97950e-02,-0.721119
-4.97940e-02,-0.721194
-4.97930e-02,-0.720884
-4.97920e-02,-0.721144
-4.97910e-02,-0.721038
-4.97900e-02,-0.721313
-4.97890e-02,-0.7215
-4.97880e-02,-0.721088
-4.97870e-02,-0.721159
-4.97860e-02,-0.721053
-4.97850e-02,-0.721153
-4.97840e-02,-0.721088
-4.97830e-02,-0.721119
-4.97820e-02,-0.721172
-4.97810e-02,-0.721163
-4.97800e-02,-0.721097
-4.97790e-02,-0.721013
-4.97780e-02,-0.721156
-4.97770e-02,-0.721316
-4.97760e-02,-0.721041
-4.97750e-02,-0.721044
-4.97740e-02,-0.720978
-4.97730e-02,-0.721356
-4.97720e-02,-0.721097
-4.97710e-02,-0.721213
-4.97700e-02,-0.721441
-4.97690e-02,-0.721134
-4.97680e-02,-0.721222
-4.97670e-02,-0.720769
-4.97660e-02,-0.721025
-4.97650e-02,-0.721144
-4.97640e-02,-0.721247
-4.97630e-02,-0.721003
-4.97620e-02,-0.721188
-4.97610e-02,-0.720803
-4.97600e-02,-0.721141
-4.97590e-02,-0.721322
-4.97580e-02,-0.721247
-4.97570e-02,-0.72115
-4.97560e-02,-0.720997
-4.97550e-02,-0.721419
-4.97540e-02,-0.721238
-4.97530e-02,-0.721253
-4.97520e-02,-0.721225
-4.97510e-02,-0.720894
-4.97500e-02,-0.721291
-4.97490e-02,-0.720806
-4.97480e-02,-0.721238
-4.97470e-02,-0.721166
-4.97460e-02,-0.721172
-4.97450e-02,-0.721338
-4.97440e-02,-0.721097
-4.97430e-02,-0.721081
-4.97420e-02,-0.720825
-4.97410e-02,-0.721269
-4.97400e-02,-0.721072
-4.97390e-02,-0.721106
-4.97380e-02,-0.72115
-4.97370e-02,-0.721
-4.97360e-02,-0.721153
-4.97350e-02,-0.721272
-4.97340e-02,-0.720869
-4.97330e-02,-0.721128
-4.97320e-02,-0.720972
-4.97310e-02,-0.7212
-4.97300e-02,-0.720972
-4.97290e-02,-0.721606
-4.97280e-02,-0.721319
-4.97270e-02,-0.721222
-4.97260e-02,-0.721319
-4.97250e-02,-0.721106
-4.97240e-02,-0.721566
-4.97230e-02,-0.721388
-4.97220e-02,-0.721419
-4.97210e-02,-0.721038
-4.97200e-02,-0.7213
-4.97190e-02,-0.721331
-4.97180e-02,-0.721359
-4.97170e-02,-0.720953
-4.97160e-02,-0.721203
-4.97150e-02,-0.721166
-4.97140e-02,-0.721347
-4.97130e-02,-0.721
-4.97120e-02,-0.721372
-4.97110e-02,-0.721413
-4.97100e-02,-0.720928
-4.97090e-02,-0.721494
-4.97080e-02,-0.721294
-4.97070e-02,-0.721184
-4.97060e-02,-0.721069
-4.97050e-02,-0.721472
-4.97040e-02,-0.721363
-4.97030e-02,-0.721453
-4.97020e-02,-0.721563
-4.97010e-02,-0.721519
-4.97000e-02,-0.721291
-4.96990e-02,-0.721419
-4.96980e-02,-0.721306
-4.96970e-02,-0.721031
-4.96960e-02,-0.721159
-4.96950e-02,-0.721228
-4.96940e-02,-0.721313
-4.96930e-02,-0.721338
-4.96920e-02,-0.721413
-4.96910e-02,-0.721644
-4.96900e-02,-0.721075
-4.96890e-02,-0.721841
-4.96880e-02,-0.721478
-4.96870e-02,-0.721569
-4.96860e-02,-0.721638
-4.96850e-02,-0.72155
-4.96840e-02,-0.721644
-4.96830e-02,-0.721744
-4.96820e-02,-0.721609
-4.96810e-02,-0.721491
-4.96800e-02,-0.721666
-4.96790e-02,-0.721428
-4.96780e-02,-0.721594
-4.96770e-02,-0.721356
-4.96760e-02,-0.721678
-4.96750e-02,-0.721734
-4.96740e-02,-0.721831
-4.96730e-02,-0.721591
-4.96720e-02,-0.721581
-4.96710e-02,-0.721644
-4.96700e-02,-0.721719
-4.96690e-02,-0.721616
-4.96680e-02,-0.721756
-4.96670e-02,-0.721763
-4.96660e-02,-0.721897
-4.96650e-02,-0.721591
-4.96640e-02,-0.721909
-4.96630e-02,-0.721709
-4.96620e-02,-0.721938
-4.96610e-02,-0.721747
-4.96600e-02,-0.721856
-4.96590e-02,-0.721806
-4.96580e-02,-0.721941
-4.96570e-02,-0.721556
-4.96560e-02,-0.721638
-4.96550e-02,-0.722103
-4.96540e-02,-0.721916
-4.96530e-02,-0.721806
-4.96520e-02,-0.721578
-4.96510e-02,-0.721956
-4.96500e-02,-0.722038
-4.96490e-02,-0.721869
-4.96480e-02,-0.722097
-4.96470e-02,-0.7219
-4.96460e-02,-0.722181
-4.96450e-02,-0.7219
-4.96440e-02,-0.722231
-4.96430e-02,-0.721997
-4.96420e-02,-0.722241
-4.96410e-02,-0.722084
-4.96400e-02,-0.722566
-4.96390e-02,-0.722213
-4.96380e-02,-0.722184
-4.96370e-02,-0.722063
-4.96360e-02,-0.7222
-4.96350e-02,-0.722163
-4.96340e-02,-0.722306
-4.96330e-02,-0.722356
-4.96320e-02,-0.722378
-4.96310e-02,-0.722294
-4.96300e-02,-0.722338
-4.96290e-02,-0.722088
-4.96280e-02,-0.722378
-4.96270e-02,-0.722488
-4.96260e-02,-0.722241
-4.96250e-02,-0.722556
-4.96240e-02,-0.722228
-4.96230e-02,-0.722547
-4.96220e-02,-0.722356
-4.96210e-02,-0.722384
-4.96200e-02,-0.722413
-4.96190e-02,-0.722191
-4.96180e-02,-0.722494
-4.96170e-02,-0.722453
-4.96160e-02,-0.722525
-4.96150e-02,-0.722634
-4.96140e-02,-0.722513
-4.96130e-02,-0.722509
-4.96120e-02,-0.722728
-4.96110e-02,-0.722581
-4.96100e-02,-0.722741
-4.96090e-02,-0.722569
-4.96080e-02,-0.722522
-4.96070e-02,-0.722581
-4.96060e-02,-0.722584
-4.96050e-02,-0.722594
-4.96040e-02,-0.722528
-4.96030e-02,-0.722753
-4.96020e-02,-0.722625
-4.96010e-02,-0.722719
-4.96000e-02,-0.722347
-4.95990e-02,-0.722706
-4.95980e-02,-0.723106
-4.95970e-02,-0.722653
-4.95960e-02,-0.722675
-4.95950e-02,-0.722956
-4.95940e-02,-0.722806
-4.95930e-02,-0.722866
-4.95920e-02,-0.722878
-4.95910e-02,-0.722647
-4.95900e-02,-0.722888
-4.95890e-02,-0.722844
-4.95880e-02,-0.722791
-4.95870e-02,-0.722813
-4.95860e-02,-0.722928
-4.95850e-02,-0.723244
-4.95840e-02,-0.722766
-4.95830e-02,-0.722881
-4.95820e-02,-0.723156
-4.95810e-02,-0.723275
-4.95800e-02,-0.722941
-4.95790e-02,-0.722941
-4.95780e-02,-0.723019
-4.95770e-02,-0.723044
-4.95760e-02,-0.722872
-4.95750e-02,-0.722863
-4.95740e-02,-0.722947
-4.95730e-02,-0.723113
-4.95720e-02,-0.723175
-4.95710e-02,-0.723278
-4.95700e-02,-0.723128
-4.95690e-02,-0.723109
-4.95680e-02,-0.723038
-4.95670e-02,-0.723378
-4.95660e-02,-0.723669
-4.95650e-02,-0.723322
-4.95640e-02,-0.723578
-4.95630e-02,-0.723369
-4.95620e-02,-0.723241
-4.95610e-02,-0.723556
-4.95600e-02,-0.723591
-4.95590e-02,-0.723456
-4.95580e-02,-0.723428
-4.95570e-02,-0.723534
-4.95560e-02,-0.7233
-4.95550e-02,-0.723394
-4.95540e-02,-0.723484
-4.95530e-02,-0.723353
-4.95520e-02,-0.723534
-4.95510e-02,-0.723475
-4.95500e-02,-0.723122
-4.95490e-02,-0.7236
-4.95480e-02,-0.723456
-4.95470e-02,-0.723825
-4.95460e-02,-0.723559
-4.95450e-02,-0.723409
-4.95440e-02,-0.723553
-4.95430e-02,-0.723653
-4.95420e-02,-0.723331
-4.95410e-02,-0.72365
-4.95400e-02,-0.723359
-4.95390e-02,-0.723478
-4.95380e-02,-0.723341
-4.95370e-02,-0.723719
-4.95360e-02,-0.723528
-4.95350e-02,-0.723684
-4.95340e-02,-0.723619
-4.95330e-02,-0.723825
-4.95320e-02,-0.723888
-4.95310e-02,-0.723794
-4.95300e-02,-0.723891
-4.95290e-02,-0.723422
-4.95280e-02,-0.723772
-4.95270e-02,-0.723588
-4.95260e-02,-0.723681
-4.95250e-02,-0.723628
-4.95240e-02,-0.724016
-4.95230e-02,-0.723672
-4.95220e-02,-0.723519
-4.95210e-02,-0.723744
-4.95200e-02,-0.723953
-4.95190e-02,-0.723691
-4.95180e-02,-0.723494
-4.95170e-02,-0.724094
-4.95160e-02,-0.724159
-4.95150e-02,-0.723869
-4.95140e-02,-0.724144
-4.95130e-02,-0.723772
-4.95120e-02,-0.723875
-4.95110e-02,-0.723925
-4.95100e-02,-0.723959
-4.95090e-02,-0.724059
-4.95080e-02,-0.724013
-4.95070e-02,-0.724128
-4.95060e-02,-0.7238
-4.95050e-02,-0.723744
-4.95040e-02,-0.723947
-4.95030e-02,-0.724009
-4.95020e-02,-0.724213
-4.95010e-02,-0.723747
-4.95000e-02,-0.723953
-4.94990e-02,-0.724109
-4.94980e-02,-0.724297
-4.94970e-02,-0.724122
-4.94960e-02,-0.724103
-4.94950e-02,-0.724122
-4.94940e-02,-0.723916
-4.94930e-02,-0.724066
-4.94920e-02,-0.72415
-4.94910e-02,-0.724191
-4.94900e-02,-0.724272
-4.94890e-02,-0.724159
-4.94880e-02,-0.723891
-4.94870e-02,-0.724294
-4.94860e-02,-0.724213
-4.94850e-02,-0.72425
-4.94840e-02,-0.724263
-4.94830e-02,-0.723975
-4.94820e-02,-0.724281
-4.94810e-02,-0.724409
-4.94800e-02,-0.724238
-4.94790e-02,-0.724356
-4.94780e-02,-0.724359
-4.94770e-02,-0.724216
-4.94760e-02,-0.7242
-4.94750e-02,-0.724194
-4.94740e-02,-0.724369
-4.94730e-02,-0.724347
-4.94720e-02,-0.724366
-4.94710e-02,-0.724491
-4.94700e-02,-0.724016
-4.94690e-02,-0.724306
-4.94680e-02,-0.72425
-4.94670e-02,-0.724206
-4.94660e-02,-0.724353
-4.94650e-02,-0.724353
-4.94640e-02,-0.724572
-4.94630e-02,-0.724103
-4.94620e-02,-0.724294
-4.94610e-02,-0.724459
-4.94600e-02,-0.724497
-4.94590e-02,-0.724472
-4.94580e-02,-0.724219
-4.94570e-02,-0.724584
-4.94560e-02,-0.724581
-4.94550e-02,-0.724181
-4.94540e-02,-0.724559
-4.94530e-02,-0.724113
-4.94520e-02,-0.724334
-4.94510e-02,-0.724703
-4.94500e-02,-0.724519
-4.94490e-02,-0.724459
-4.94480e-02,-0.724191
-4.94470e-02,-0.724525
-4.94460e-02,-0.724178
-4.94450e-02,-0.724591
-4.94440e-02,-0.724372
-4.94430e-02,-0.724488
-4.94420e-02,-0.724406
-4.94410e-02,-0.724341
-4.94400e-02,-0.7244
-4.94390e-02,-0.724266
-4.94380e-02,-0.724444
-4.94370e-02,-0.724734
-4.94360e-02,-0.724563
-4.94350e-02,-0.724484
-4.94340e-02,-0.724866
-4.94330e-02,-0.724603
-4.94320e-02,-0.724709
-4.94310e-02,-0.724472
-4.94300e-02,-0.724688
-4.94290e-02,-0.724359
-4.94280e-02,-0.72435
-4.94270e-02,-0.724819
-4.94260e-02,-0.72445
-4.94250e-02,-0.724547
-4.94240e-02,-0.724506
-4.94230e-02,-0.724322
-4.94220e-02,-0.724288
-4.94210e-02,-0.724588
-4.94200e-02,-0.724638
-4.94190e-02,-0.724497
-4.94180e-02,-0.72415
-4.94170e-02,-0.724613
-4.94160e-02,-0.724409
-4.94150e-02,-0.724275
-4.94140e-02,-0.724472
-4.94130e-02,-0.724506
-4.94120e-02,-0.724534
-4.94110e-02,-0.724475
-4.94100e-02,-0.724331
-4.94090e-02,-0.724528
-4.94080e-02,-0.724425
-4.94070e-02,-0.724453
-4.94060e-02,-0.724291
-4.94050e-02,-0.724753
-4.94040e-02,-0.724497
-4.94030e-02,-0.724375
-4.94020e-02,-0.724528
-4.94010e-02,-0.724194
-4.94000e-02,-0.724403
-4.93990e-02,-0.724541
-4.93980e-02,-0.72435
-4.93970e-02,-0.724572
-4.93960e-02,-0.724859
-4.93950e-02,-0.724384
-4.93940e-02,-0.724706
-4.93930e-02,-0.724519
-4.93920e-02,-0.724353
-4.93910e-02,-0.724519
-4.93900e-02,-0.724525
-4.93890e-02,-0.724541
-4.93880e-02,-0.724847
-4.93870e-02,-0.724622
-4.93860e-02,-0.724453
-4.93850e-02,-0.724416
-4.93840e-02,-0.724397
-4.93830e-02,-0.72475
-4.93820e-02,-0.724447
-4.93810e-02,-0.724706
-4.93800e-02,-0.724634
-4.93790e-02,-0.724163
-4.93780e-02,-0.724625
-4.93770e-02,-0.724531
-4.93760e-02,-0.724638
-4.93750e-02,-0.724684
-4.93740e-02,-0.724538
-4.93730e-02,-0.724556
-4.93720e-02,-0.7245
-4.93710e-02,-0.724553
-4.93700e-02,-0.724297
-4.93690e-02,-0.724494
-4.93680e-02,-0.724234
-4.93670e-02,-0.724303
-4.93660e-02,-0.724491
-4.93650e-02,-0.724319
-4.93640e-02,-0.724475
-4.93630e-02,-0.724313
-4.93620e-02,-0.724681
-4.93610e-02,-0.724544
-4.93600e-02,-0.724441
-4.93590e-02,-0.72465
-4.93580e-02,-0.724322
-4.93570e-02,-0.724619
-4.93560e-02,-0.724634
-4.93550e-02,-0.724691
-4.93540e-02,-0.724531
-4.93530e-02,-0.724528
-4.93520e-02,-0.724428
-4.93510e-02,-0.724475
-4.93500e-02,-0.724294
-4.93490e-02,-0.724381
-4.93480e-02,-0.7244
-4.93470e-02,-0.724597
-4.93460e-02,-0.724616
-4.93450e-02,-0.724534
-4.93440e-02,-0.724409
-4.93430e-02,-0.724725
-4.93420e-02,-0.724466
-4.93410e-02,-0.724553
-4.93400e-02,-0.724372
-4.93390e-02,-0.724256
-4.93380e-02,-0.724184
-4.93370e-02,-0.724463
-4.93360e-02,-0.724256
-4.93350e-02,-0.724225
-4.93340e-02,-0.724359
-4.93330e-02,-0.724219
-4.93320e-02,-0.724747
-4.93310e-02,-0.724206
-4.93300e-02,-0.724484
-4.93290e-02,-0.724309
-4.93280e-02,-0.724409
-4.93270e-02,-0.724738
-4.93260e-02,-0.724572
-4.93250e-02,-0.724619
-4.93240e-02,-0.724259
-4.93230e-02,-0.724463
-4.93220e-02,-0.724509
-4.93210e-02,-0.724534
-4.93200e-02,-0.724509
-4.93190e-02,-0.724425
-4.93180e-02,-0.724331
-4.93170e-02,-0.724634
-4.93160e-02,-0.724134
-4.93150e-02,-0.724325
-4.93140e-02,-0.72445
-4.93130e-02,-0.724591
-4.93120e-02,-0.724356
-4.93110e-02,-0.724506
-4.93100e-02,-0.724547
-4.93090e-02,-0.724128
-4.93080e-02,-0.724247
-4.93070e-02,-0.724309
-4.93060e-02,-0.724591
-4.93050e-02,-0.724422
-4.93040e-02,-0.724328
-4.93030e-02,-0.724363
-4.93020e-02,-0.724134
-4.93010e-02,-0.724322
-4.93000e-02,-0.724406
-4.92990e-02,-0.724588
-4.92980e-02,-0.724419
-4.92970e-02,-0.724356
-4.92960e-02,-0.724478
-4.92950e-02,-0.724156
-4.92940e-02,-0.724378
-4.92930e-02,-0.724463
-4.92920e-02,-0.724419
-4.92910e-02,-0.724428
-4.92900e-02,-0.724206
-4.92890e-02,-0.724313
-4.92880e-02,-0.724397
-4.92870e-02,-0.724363
-4.92860e-02,-0.724366
-4.92850e-02,-0.724391
-4.92840e-02,-0.724425
-4.92830e-02,-0.724553
-4.92820e-02,-0.724438
-4.92810e-02,-0.72425
-4.92800e-02,-0.724563
-4.92790e-02,-0.724631
-4.92780e-02,-0.72455
-4.92770e-02,-0.724588
-4.92760e-02,-0.724347
-4.92750e-02,-0.724375
-4.92740e-02,-0.724697
-4.92730e-02,-0.724306
-4.92720e-02,-0.724275
-4.92710e-02,-0.724434
-4.92700e-02,-0.724463
-4.92690e-02,-0.724438
-4.92680e-02,-0.724278
-4.92670e-02,-0.724331
-4.92660e-02,-0.724169
-4.92650e-02,-0.724406
-4.92640e-02,-0.724644
-4.92630e-02,-0.724838
-4.92620e-02,-0.724528
-4.92610e-02,-0.724691
-4.92600e-02,-0.724466
-4.92590e-02,-0.724475
-4.92580e-02,-0.724434
-4.92570e-02,-0.724575
-4.92560e-02,-0.724613
-4.92550e-02,-0.724722
-4.92540e-02,-0.724381
-4.92530e-02,-0.724522
-4.92520e-02,-0.724872
-4.92510e-02,-0.724666
-4.92500e-02,-0.724616
-4.92490e-02,-0.724541
-4.92480e-02,-0.724713
-4.92470e-02,-0.724797
-4.92460e-02,-0.724753
-4.92450e-02,-0.724603
-4.92440e-02,-0.724519
-4.92430e-02,-0.724547
