A246/A264/Exercise 4/Saturation/0.037/tek0000CH2.csv

Model,DPO4104
Firmware Version,2.68

Waveform Type,ANALOG
Point Format,Y
Horizontal Units,s
Horizontal Scale,0.01
Horizontal Delay,-0.0001
Sample Interval,1e-06
Record Length,100000
Gating,0.0% to 100.0%
Probe Attenuation,0.2
Vertical Units,V
Vertical Offset,-0.812
Vertical Scale,0.02
Vertical Position,-5
,
,
,
Label,
TIME,CH2
-5.01000e-02,-0.720256
-5.00990e-02,-0.720397
-5.00980e-02,-0.720216
-5.00970e-02,-0.720128
-5.00960e-02,-0.720175
-5.00950e-02,-0.719997
-5.00940e-02,-0.720409
-5.00930e-02,-0.720394
-5.00920e-02,-0.720253
-5.00910e-02,-0.720422
-5.00900e-02,-0.720069
-5.00890e-02,-0.720228
-5.00880e-02,-0.720319
-5.00870e-02,-0.720275
-5.00860e-02,-0.720188
-5.00850e-02,-0.720619
-5.00840e-02,-0.720653
-5.00830e-02,-0.720216
-5.00820e-02,-0.720216
-5.00810e-02,-0.720656
-5.00800e-02,-0.720288
-5.00790e-02,-0.720547
-5.00780e-02,-0.720178
-5.00770e-02,-0.720175
-5.00760e-02,-0.720444
-5.00750e-02,-0.720306
-5.00740e-02,-0.720538
-5.00730e-02,-0.72045
-5.00720e-02,-0.720291
-5.00710e-02,-0.720509
-5.00700e-02,-0.720303
-5.00690e-02,-0.720528
-5.00680e-02,-0.720225
-5.00670e-02,-0.720322
-5.00660e-02,-0.720734
-5.00650e-02,-0.720097
-5.00640e-02,-0.720528
-5.00630e-02,-0.720547
-5.00620e-02,-0.720547
-5.00610e-02,-0.720509
-5.00600e-02,-0.720572
-5.00590e-02,-0.7204
-5.00580e-02,-0.720481
-5.00570e-02,-0.720313
-5.00560e-02,-0.720475
-5.00550e-02,-0.720284
-5.00540e-02,-0.720416
-5.00530e-02,-0.720456
-5.00520e-02,-0.720578
-5.00510e-02,-0.720391
-5.00500e-02,-0.720413
-5.00490e-02,-0.720503
-5.00480e-02,-0.720634
-5.00470e-02,-0.720369
-5.00460e-02,-0.720641
-5.00450e-02,-0.720672
-5.00440e-02,-0.720703
-5.00430e-02,-0.720825
-5.00420e-02,-0.7205
-5.00410e-02,-0.720797
-5.00400e-02,-0.720822
-5.00390e-02,-0.720603
-5.00380e-02,-0.720866
-5.00370e-02,-0.720266
-5.00360e-02,-0.720913
-5.00350e-02,-0.720478
-5.00340e-02,-0.720559
-5.00330e-02,-0.720866
-5.00320e-02,-0.720531
-5.00310e-02,-0.720631
-5.00300e-02,-0.720534
-5.00290e-02,-0.720313
-5.00280e-02,-0.720466
-5.00270e-02,-0.720819
-5.00260e-02,-0.720794
-5.00250e-02,-0.720803
-5.00240e-02,-0.720444
-5.00230e-02,-0.720394
-5.00220e-02,-0.720572
-5.00210e-02,-0.720522
-5.00200e-02,-0.720678
-5.00190e-02,-0.720694
-5.00180e-02,-0.7205
-5.00170e-02,-0.720769
-5.00160e-02,-0.720647
-5.00150e-02,-0.720934
-5.00140e-02,-0.720381
-5.00130e-02,-0.720434
-5.00120e-02,-0.720744
-5.00110e-02,-0.720663
-5.00100e-02,-0.720975
-5.00090e-02,-0.720681
-5.00080e-02,-0.720881
-5.00070e-02,-0.720875
-5.00060e-02,-0.720575
-5.00050e-02,-0.7206
-5.00040e-02,-0.720731
-5.00030e-02,-0.720544
-5.00020e-02,-0.720644
-5.00010e-02,-0.720897
-5.00000e-02,-0.720938
-4.99990e-02,-0.720363
-4.99980e-02,-0.720653
-4.99970e-02,-0.720825
-4.99960e-02,-0.720669
-4.99950e-02,-0.720828
-4.99940e-02,-0.720756
-4.99930e-02,-0.720753
-4.99920e-02,-0.720963
-4.99910e-02,-0.720884
-4.99900e-02,-0.720591
-4.99890e-02,-0.721013
-4.99880e-02,-0.720769
-4.99870e-02,-0.720566
-4.99860e-02,-0.721056
-4.99850e-02,-0.720856
-4.99840e-02,-0.72045
-4.99830e-02,-0.720447
-4.99820e-02,-0.721106
-4.99810e-02,-0.720663
-4.99800e-02,-0.720778
-4.99790e-02,-0.720881
-4.99780e-02,-0.72055
-4.99770e-02,-0.720728
-4.99760e-02,-0.720872
-4.99750e-02,-0.720847
-4.99740e-02,-0.7205
-4.99730e-02,-0.720619
-4.99720e-02,-0.720888
-4.99710e-02,-0.720641
-4.99700e-02,-0.721184
-4.99690e-02,-0.720638
-4.99680e-02,-0.720816
-4.99670e-02,-0.7213
-4.99660e-02,-0.721094
-4.99650e-02,-0.720984
-4.99640e-02,-0.721094
-4.99630e-02,-0.721034
-4.99620e-02,-0.720781
-4.99610e-02,-0.721131
-4.99600e-02,-0.720866
-4.99590e-02,-0.721213
-4.99580e-02,-0.72095
-4.99570e-02,-0.720975
-4.99560e-02,-0.720916
-4.99550e-02,-0.721022
-4.99540e-02,-0.720994
-4.99530e-02,-0.720581
-4.99520e-02,-0.7211
-4.99510e-02,-0.721109
-4.99500e-02,-0.720566
-4.99490e-02,-0.721353
-4.99480e-02,-0.720969
-4.99470e-02,-0.720981
-4.99460e-02,-0.7211
-4.99450e-02,-0.720666
-4.99440e-02,-0.721238
-4.99430e-02,-0.721147
-4.99420e-02,-0.721025
-4.99410e-02,-0.7211
-4.99400e-02,-0.721053
-4.99390e-02,-0.721416
-4.99380e-02,-0.721078
-4.99370e-02,-0.720956
-4.99360e-02,-0.721275
-4.99350e-02,-0.720869
-4.99340e-02,-0.721175
-4.99330e-02,-0.720944
-4.99320e-02,-0.721131
-4.99310e-02,-0.72105
-4.99300e-02,-0.721175
-4.99290e-02,-0.721416
-4.99280e-02,-0.721163
-4.99270e-02,-0.720813
-4.99260e-02,-0.720981
-4.99250e-02,-0.720975
-4.99240e-02,-0.721413
-4.99230e-02,-0.721031
-4.99220e-02,-0.7211
-4.99210e-02,-0.721113
-4.99200e-02,-0.721344
-4.99190e-02,-0.72095
-4.99180e-02,-0.720825
-4.99170e-02,-0.721141
-4.99160e-02,-0.721353
-4.99150e-02,-0.721197
-4.99140e-02,-0.721219
-4.99130e-02,-0.721475
-4.99120e-02,-0.721016
-4.99110e-02,-0.721247
-4.99100e-02,-0.721166
-4.99090e-02,-0.721156
-4.99080e-02,-0.721359
-4.99070e-02,-0.721453
-4.99060e-02,-0.721191
-4.99050e-02,-0.721284
-4.99040e-02,-0.721128
-4.99030e-02,-0.721047
-4.99020e-02,-0.721403
-4.99010e-02,-0.720997
-4.99000e-02,-0.721363
-4.98990e-02,-0.721284
-4.98980e-02,-0.721631
-4.98970e-02,-0.721494
-4.98960e-02,-0.721016
-4.98950e-02,-0.721169
-4.98940e-02,-0.721269
-4.98930e-02,-0.721269
-4.98920e-02,-0.721288
-4.98910e-02,-0.721244
-4.98900e-02,-0.721594
-4.98890e-02,-0.721053
-4.98880e-02,-0.721381
-4.98870e-02,-0.721159
-4.98860e-02,-0.721272
-4.98850e-02,-0.721363
-4.98840e-02,-0.721278
-4.98830e-02,-0.721384
-4.98820e-02,-0.721544
-4.98810e-02,-0.721641
-4.98800e-02,-0.721063
-4.98790e-02,-0.721463
-4.98780e-02,-0.721238
-4.98770e-02,-0.721413
-4.98760e-02,-0.721625
-4.98750e-02,-0.721431
-4.98740e-02,-0.721888
-4.98730e-02,-0.721497
-4.98720e-02,-0.721163
-4.98710e-02,-0.721313
-4.98700e-02,-0.721588
-4.98690e-02,-0.721613
-4.98680e-02,-0.721313
-4.98670e-02,-0.721609
-4.98660e-02,-0.721406
-4.98650e-02,-0.721566
-4.98640e-02,-0.721672
-4.98630e-02,-0.721438
-4.98620e-02,-0.721541
-4.98610e-02,-0.721625
-4.98600e-02,-0.721406
-4.98590e-02,-0.72155
-4.98580e-02,-0.721634
-4.98570e-02,-0.721097
-4.98560e-02,-0.721434
-4.98550e-02,-0.721494
-4.98540e-02,-0.721566
-4.98530e-02,-0.72135
-4.98520e-02,-0.721341
-4.98510e-02,-0.7213
-4.98500e-02,-0.721619
-4.98490e-02,-0.721834
-4.98480e-02,-0.721706
-4.98470e-02,-0.721572
-4.98460e-02,-0.721863
-4.98450e-02,-0.721956
-4.98440e-02,-0.721647
-4.98430e-02,-0.721572
-4.98420e-02,-0.721653
-4.98410e-02,-0.721588
-4.98400e-02,-0.721869
-4.98390e-02,-0.721869
-4.98380e-02,-0.721716
-4.98370e-02,-0.721622
-4.98360e-02,-0.721563
-4.98350e-02,-0.721716
-4.98340e-02,-0.721659
-4.98330e-02,-0.721594
-4.98320e-02,-0.721897
-4.98310e-02,-0.721875
-4.98300e-02,-0.721631
-4.98290e-02,-0.72145
-4.98280e-02,-0.721916
-4.98270e-02,-0.722025
-4.98260e-02,-0.72185
-4.98250e-02,-0.721988
-4.98240e-02,-0.72185
-4.98230e-02,-0.7218
-4.98220e-02,-0.721769
-4.98210e-02,-0.721891
-4.98200e-02,-0.721747
-4.98190e-02,-0.721763
-4.98180e-02,-0.721747
-4.98170e-02,-0.722013
-4.98160e-02,-0.721797
-4.98150e-02,-0.721891
-4.98140e-02,-0.721894
-4.98130e-02,-0.721925
-4.98120e-02,-0.722047
-4.98110e-02,-0.721994
-4.98100e-02,-0.721859
-4.98090e-02,-0.722303
-4.98080e-02,-0.722191
-4.98070e-02,-0.722003
-4.98060e-02,-0.721619
-4.98050e-02,-0.722003
-4.98040e-02,-0.7223
-4.98030e-02,-0.721978
-4.98020e-02,-0.722247
-4.98010e-02,-0.722228
-4.98000e-02,-0.721669
-4.97990e-02,-0.721953
-4.97980e-02,-0.7219
-4.97970e-02,-0.722106
-4.97960e-02,-0.721903
-4.97950e-02,-0.722116
-4.97940e-02,-0.722159
-4.97930e-02,-0.722178
-4.97920e-02,-0.722122
-4.97910e-02,-0.722022
-4.97900e-02,-0.721981
-4.97890e-02,-0.722091
-4.97880e-02,-0.722081
-4.97870e-02,-0.722053
-4.97860e-02,-0.722078
-4.97850e-02,-0.722172
-4.97840e-02,-0.72225
-4.97830e-02,-0.722084
-4.97820e-02,-0.722066
-4.97810e-02,-0.721906
-4.97800e-02,-0.722047
-4.97790e-02,-0.722378
-4.97780e-02,-0.722178
-4.97770e-02,-0.722222
-4.97760e-02,-0.722269
-4.97750e-02,-0.722006
-4.97740e-02,-0.722316
-4.97730e-02,-0.722219
-4.97720e-02,-0.722159
-4.97710e-02,-0.722216
-4.97700e-02,-0.7222
-4.97690e-02,-0.722331
-4.97680e-02,-0.722313
-4.97670e-02,-0.722431
-4.97660e-02,-0.722288
-4.97650e-02,-0.722281
-4.97640e-02,-0.7223
-4.97630e-02,-0.722275
-4.97620e-02,-0.722297
-4.97610e-02,-0.722356
-4.97600e-02,-0.722206
-4.97590e-02,-0.722203
-4.97580e-02,-0.722413
-4.97570e-02,-0.722297
-4.97560e-02,-0.722659
-4.97550e-02,-0.722244
-4.97540e-02,-0.722384
-4.97530e-02,-0.722222
-4.97520e-02,-0.722219
-4.97510e-02,-0.722472
-4.97500e-02,-0.722363
-4.97490e-02,-0.722313
-4.97480e-02,-0.722531
-4.97470e-02,-0.722547
-4.97460e-02,-0.722613
-4.97450e-02,-0.722634
-4.97440e-02,-0.722325
-4.97430e-02,-0.722638
-4.97420e-02,-0.722631
-4.97410e-02,-0.722481
-4.97400e-02,-0.722422
-4.97390e-02,-0.722606
-4.97380e-02,-0.723016
-4.97370e-02,-0.722391
-4.97360e-02,-0.722425
-4.97350e-02,-0.722569
-4.97340e-02,-0.722725
-4.97330e-02,-0.722309
-4.97320e-02,-0.722338
-4.97310e-02,-0.722769
-4.97300e-02,-0.722572
-4.97290e-02,-0.722991
-4.97280e-02,-0.722706
-4.97270e-02,-0.722353
-4.97260e-02,-0.722703
-4.97250e-02,-0.722797
-4.97240e-02,-0.722775
-4.97230e-02,-0.722666
-4.97220e-02,-0.722675
-4.97210e-02,-0.722588
-4.97200e-02,-0.7229
-4.97190e-02,-0.7228
-4.97180e-02,-0.722831
-4.97170e-02,-0.722406
-4.97160e-02,-0.722831
-4.97150e-02,-0.722556
-4.97140e-02,-0.72265
-4.97130e-02,-0.722691
-4.97120e-02,-0.722572
-4.97110e-02,-0.722897
-4.97100e-02,-0.722694
-4.97090e-02,-0.722594
-4.97080e-02,-0.722978
-4.97070e-02,-0.72255
-4.97060e-02,-0.722884
-4.97050e-02,-0.723091
-4.97040e-02,-0.722775
-4.97030e-02,-0.722872
-4.97020e-02,-0.722572
-4.97010e-02,-0.723081
-4.97000e-02,-0.723053
-4.96990e-02,-0.722706
-4.96980e-02,-0.722775
-4.96970e-02,-0.722897
-4.96960e-02,-0.722869
-4.96950e-02,-0.722678
-4.96940e-02,-0.722938
-4.96930e-02,-0.722472
-4.96920e-02,-0.723206
-4.96910e-02,-0.722844
-4.96900e-02,-0.722725
-4.96890e-02,-0.722978
-4.96880e-02,-0.722838
-4.96870e-02,-0.723125
-4.96860e-02,-0.722953
-4.96850e-02,-0.722931
-4.96840e-02,-0.722853
-4.96830e-02,-0.723153
-4.96820e-02,-0.722734
-4.96810e-02,-0.723181
-4.96800e-02,-0.723231
-4.96790e-02,-0.722556
-4.96780e-02,-0.722897
-4.96770e-02,-0.723047
-4.96760e-02,-0.72285
-4.96750e-02,-0.723088
-4.96740e-02,-0.722953
-4.96730e-02,-0.723016
-4.96720e-02,-0.723194
-4.96710e-02,-0.722956
-4.96700e-02,-0.723038
-4.96690e-02,-0.723181
-4.96680e-02,-0.723078
-4.96670e-02,-0.723375
-4.96660e-02,-0.722731
-4.96650e-02,-0.723138
-4.96640e-02,-0.723175
-4.96630e-02,-0.723225
-4.96620e-02,-0.723172
-4.96610e-02,-0.722878
-4.96600e-02,-0.723194
-4.96590e-02,-0.723259
-4.96580e-02,-0.723238
-4.96570e-02,-0.72325
-4.96560e-02,-0.723175
-4.96550e-02,-0.723022
-4.96540e-02,-0.723084
-4.96530e-02,-0.723206
-4.96520e-02,-0.723244
-4.96510e-02,-0.723109
-4.96500e-02,-0.723253
-4.96490e-02,-0.722938
-4.96480e-02,-0.723422
-4.96470e-02,-0.723313
-4.96460e-02,-0.723297
-4.96450e-02,-0.723213
-4.96440e-02,-0.723169
-4.96430e-02,-0.723228
-4.96420e-02,-0.723197
-4.96410e-02,-0.723138
-4.96400e-02,-0.723322
-4.96390e-02,-0.723381
-4.96380e-02,-0.723247
-4.96370e-02,-0.723131
-4.96360e-02,-0.723013
-4.96350e-02,-0.723053
-4.96340e-02,-0.723016
-4.96330e-02,-0.723209
-4.96320e-02,-0.723294
-4.96310e-02,-0.723153
-4.96300e-02,-0.723331
-4.96290e-02,-0.723181
-4.96280e-02,-0.723203
-4.96270e-02,-0.723659
-4.96260e-02,-0.723206
-4.96250e-02,-0.723469
-4.96240e-02,-0.723428
-4.96230e-02,-0.723316
-4.96220e-02,-0.723803
-4.96210e-02,-0.723853
-4.96200e-02,-0.723522
-4.96190e-02,-0.723141
-4.96180e-02,-0.723544
-4.96170e-02,-0.723563
-4.96160e-02,-0.72375
-4.96150e-02,-0.723522
-4.96140e-02,-0.723513
-4.96130e-02,-0.723394
-4.96120e-02,-0.723441
-4.96110e-02,-0.723322
-4.96100e-02,-0.723472
-4.96090e-02,-0.723366
-4.96080e-02,-0.723619
-4.96070e-02,-0.723509
-4.96060e-02,-0.723266
-4.96050e-02,-0.723719
-4.96040e-02,-0.723284
-4.96030e-02,-0.723131
-4.96020e-02,-0.723572
-4.96010e-02,-0.723441
-4.96000e-02,-0.723384
-4.95990e-02,-0.723597
-4.95980e-02,-0.723403
-4.95970e-02,-0.723544
-4.95960e-02,-0.723663
-4.95950e-02,-0.723506
-4.95940e-02,-0.723556
-4.95930e-02,-0.723272
-4.95920e-02,-0.723941
-4.95910e-02,-0.723425
-4.95900e-02,-0.723303
-4.95890e-02,-0.723403
-4.95880e-02,-0.723541
-4.95870e-02,-0.723491
-4.95860e-02,-0.723525
-4.95850e-02,-0.723928
-4.95840e-02,-0.723853
-4.95830e-02,-0.723619
-4.95820e-02,-0.723769
-4.95810e-02,-0.723916
-4.95800e-02,-0.723522
-4.95790e-02,-0.723619
-4.95780e-02,-0.723544
-4.95770e-02,-0.723647
-4.95760e-02,-0.723356
-4.95750e-02,-0.723344
-4.95740e-02,-0.723647
-4.95730e-02,-0.723741
-4.95720e-02,-0.723644
-4.95710e-02,-0.723728
-4.95700e-02,-0.723394
-4.95690e-02,-0.723663
-4.95680e-02,-0.723728
-4.95670e-02,-0.723353
-4.95660e-02,-0.723597
-4.95650e-02,-0.723844
-4.95640e-02,-0.723809
-4.95630e-02,-0.723678
-4.95620e-02,-0.723409
-4.95610e-02,-0.723647
-4.95600e-02,-0.723906
-4.95590e-02,-0.723513
-4.95580e-02,-0.723528
-4.95570e-02,-0.723772
-4.95560e-02,-0.723816
-4.95550e-02,-0.723975
-4.95540e-02,-0.723878
-4.95530e-02,-0.724016
-4.95520e-02,-0.723406
-4.95510e-02,-0.723413
-4.95500e-02,-0.723763
-4.95490e-02,-0.723575
-4.95480e-02,-0.72395
-4.95470e-02,-0.723559
-4.95460e-02,-0.723547
-4.95450e-02,-0.723834
-4.95440e-02,-0.723684
-4.95430e-02,-0.724053
-4.95420e-02,-0.724166
-4.95410e-02,-0.723575
-4.95400e-02,-0.723884
-4.95390e-02,-0.723928
-4.95380e-02,-0.723913
-4.95370e-02,-0.724025
-4.95360e-02,-0.723866
-4.95350e-02,-0.723956
-4.95340e-02,-0.723934
-4.95330e-02,-0.723797
-4.95320e-02,-0.723797
-4.95310e-02,-0.723875
-4.95300e-02,-0.723838
-4.95290e-02,-0.723603
-4.95280e-02,-0.723888
-4.95270e-02,-0.723759
-4.95260e-02,-0.723963
-4.95250e-02,-0.724263
-4.95240e-02,-0.724063
-4.95230e-02,-0.723806
-4.95220e-02,-0.724078
-4.95210e-02,-0.724031
-4.95200e-02,-0.723788
-4.95190e-02,-0.723875
-4.95180e-02,-0.723909
-4.95170e-02,-0.724103
-4.95160e-02,-0.723875
-4.95150e-02,-0.724006
-4.95140e-02,-0.723394
-4.95130e-02,-0.723881
-4.95120e-02,-0.723913
-4.95110e-02,-0.724178
-4.95100e-02,-0.724016
-4.95090e-02,-0.724084
-4.95080e-02,-0.723984
-4.95070e-02,-0.7238
-4.95060e-02,-0.724175
-4.95050e-02,-0.723909
-4.95040e-02,-0.723856
-4.95030e-02,-0.724031
-4.95020e-02,-0.724044
-4.95010e-02,-0.724172
-4.95000e-02,-0.724253
-4.94990e-02,-0.724169
-4.94980e-02,-0.724019
-4.94970e-02,-0.724303
-4.94960e-02,-0.724328
-4.94950e-02,-0.724197
-4.94940e-02,-0.724325
-4.94930e-02,-0.724438
-4.94920e-02,-0.724044
-4.94910e-02,-0.7242
-4.94900e-02,-0.724066
-4.94890e-02,-0.724275
-4.94880e-02,-0.724091
-4.94870e-02,-0.724319
-4.94860e-02,-0.724166
-4.94850e-02,-0.724203
-4.94840e-02,-0.723813
-4.94830e-02,-0.724253
-4.94820e-02,-0.724206
-4.94810e-02,-0.724513
-4.94800e-02,-0.724222
-4.94790e-02,-0.724213
-4.94780e-02,-0.724053
-4.94770e-02,-0.72435
-4.94760e-02,-0.724269
-4.94750e-02,-0.72425
-4.94740e-02,-0.72435
-4.94730e-02,-0.724194
-4.94720e-02,-0.72435
-4.94710e-02,-0.723894
-4.94700e-02,-0.724438
-4.94690e-02,-0.724128
-4.94680e-02,-0.724434
-4.94670e-02,-0.724222
-4.94660e-02,-0.724284
-4.94650e-02,-0.724131
-4.94640e-02,-0.724219
-4.94630e-02,-0.72425
-4.94620e-02,-0.724422
-4.94610e-02,-0.724253
-4.94600e-02,-0.724628
-4.94590e-02,-0.724244
-4.94580e-02,-0.723928
-4.94570e-02,-0.72415
-4.94560e-02,-0.724463
-4.94550e-02,-0.724203
-4.94540e-02,-0.724378
-4.94530e-02,-0.724266
-4.94520e-02,-0.724284
-4.94510e-02,-0.724659
-4.94500e-02,-0.724366
-4.94490e-02,-0.724491
-4.94480e-02,-0.724297
-4.94470e-02,-0.724578
-4.94460e-02,-0.724463
-4.94450e-02,-0.724381
-4.94440e-02,-0.724241
-4.94430e-02,-0.724488
-4.94420e-02,-0.724681
-4.94410e-02,-0.724553
-4.94400e-02,-0.724344
-4.94390e-02,-0.724394
-4.94380e-02,-0.724466
-4.94370e-02,-0.724478
-4.94360e-02,-0.724641
-4.94350e-02,-0.72435
-4.94340e-02,-0.724253
-4.94330e-02,-0.724491
-4.94320e-02,-0.724631
-4.94310e-02,-0.724797
-4.94300e-02,-0.72445
-4.94290e-02,-0.724628
-4.94280e-02,-0.724544
-4.94270e-02,-0.724597
-4.94260e-02,-0.724513
-4.94250e-02,-0.724475
-4.94240e-02,-0.724319
-4.94230e-02,-0.724669
-4.94220e-02,-0.724284
-4.94210e-02,-0.724713
-4.94200e-02,-0.724381
-4.94190e-02,-0.724391
-4.94180e-02,-0.724619
-4.94170e-02,-0.724572
-4.94160e-02,-0.724584
-4.94150e-02,-0.724591
-4.94140e-02,-0.724663
-4.94130e-02,-0.72475
-4.94120e-02,-0.724669
-4.94110e-02,-0.724638
-4.94100e-02,-0.724669
-4.94090e-02,-0.72455
-4.94080e-02,-0.724656
-4.94070e-02,-0.724981
-4.94060e-02,-0.724653
-4.94050e-02,-0.724603
-4.94040e-02,-0.724759
-4.94030e-02,-0.724456
-4.94020e-02,-0.724744
-4.94010e-02,-0.724544
-4.94000e-02,-0.72445
-4.93990e-02,-0.724319
-4.93980e-02,-0.724525
-4.93970e-02,-0.724744
-4.93960e-02,-0.724531
-4.93950e-02,-0.724513
-4.93940e-02,-0.724619
-4.93930e-02,-0.724734
-4.93920e-02,-0.724706
-4.93910e-02,-0.72485
-4.93900e-02,-0.7247
-4.93890e-02,-0.72485
-4.93880e-02,-0.724922
-4.93870e-02,-0.724803
-4.93860e-02,-0.724947
-4.93850e-02,-0.724975
-4.93840e-02,-0.724541
-4.93830e-02,-0.724638
-4.93820e-02,-0.725191
-4.93810e-02,-0.725125
-4.93800e-02,-0.724734
-4.93790e-02,-0.724913
-4.93780e-02,-0.724838
-4.93770e-02,-0.72495
-4.93760e-02,-0.724922
-4.93750e-02,-0.724444
-4.93740e-02,-0.725013
-4.93730e-02,-0.724866
-4.93720e-02,-0.724859
-4.93710e-02,-0.724984
-4.93700e-02,-0.725116
-4.93690e-02,-0.725075
-4.93680e-02,-0.725372
-4.93670e-02,-0.724956
-4.93660e-02,-0.725034
-4.93650e-02,-0.724981
-4.93640e-02,-0.724884
-4.93630e-02,-0.725031
-4.93620e-02,-0.724878
-4.93610e-02,-0.724981
-4.93600e-02,-0.725119
-4.93590e-02,-0.724959
-4.93580e-02,-0.725247
-4.93570e-02,-0.725131
-4.93560e-02,-0.724884
-4.93550e-02,-0.725075
-4.93540e-02,-0.724825
-4.93530e-02,-0.724959
-4.93520e-02,-0.72495
-4.93510e-02,-0.725003
-4.93500e-02,-0.725097
-4.93490e-02,-0.724931
-4.93480e-02,-0.725175
-4.93470e-02,-0.725163
-4.93460e-02,-0.72525
-4.93450e-02,-0.725103
-4.93440e-02,-0.725431
-4.93430e-02,-0.725247
-4.93420e-02,-0.725672
-4.93410e-02,-0.72525
-4.93400e-02,-0.725191
-4.93390e-02,-0.725281
-4.93380e-02,-0.725031
-4.93370e-02,-0.725116
-4.93360e-02,-0.725013
-4.93350e-02,-0.725381
-4.93340e-02,-0.725231
-4.93330e-02,-0.725191
-4.93320e-02,-0.72545
-4.93310e-02,-0.7252
-4.93300e-02,-0.725456
-4.93290e-02,-0.725194
-4.93280e-02,-0.725094
-4.93270e-02,-0.725144
-4.93260e-02,-0.725328
-4.93250e-02,-0.725372
-4.93240e-02,-0.725034
-4.93230e-02,-0.725272
-4.93220e-02,-0.725278
-4.93210e-02,-0.7255
-4.93200e-02,-0.725478
-4.93190e-02,-0.725459
-4.93180e-02,-0.725553
-4.93170e-02,-0.725344
-4.93160e-02,-0.725463
-4.93150e-02,-0.725331
-4.93140e-02,-0.725544
-4.93130e-02,-0.725153
-4.93120e-02,-0.725522
-4.93110e-02,-0.725222
-4.93100e-02,-0.725447
-4.93090e-02,-0.725553
-4.93080e-02,-0.725556
-4.93070e-02,-0.725859
-4.93060e-02,-0.7255
-4.93050e-02,-0.725609
-4.93040e-02,-0.725563
-4.93030e-02,-0.725547
-4.93020e-02,-0.72545
-4.93010e-02,-0.725438
-4.93000e-02,-0.725447
-4.92990e-02,-0.725803
-4.92980e-02,-0.725763
-4.92970e-02,-0.725597
-4.92960e-02,-0.725731
-4.92950e-02,-0.725625
-4.92940e-02,-0.725528
-4.92930e-02,-0.7256
-4.92920e-02,-0.725863
-4.92910e-02,-0.725559
-4.92900e-02,-0.725725
-4.92890e-02,-0.725794
-4.92880e-02,-0.725591
-4.92870e-02,-0.725916
-4.92860e-02,-0.725934
-4.92850e-02,-0.725647
-4.92840e-02,-0.725725
-4.92830e-02,-0.725494
-4.92820e-02,-0.725747
-4.92810e-02,-0.725625
-4.92800e-02,-0.725925
-4.92790e-02,-0.726019
-4.92780e-02,-0.725719
-4.92770e-02,-0.725941
-4.92760e-02,-0.725913
-4.92750e-02,-0.725703
-4.92740e-02,-0.725941
-4.92730e-02,-0.725631
-4.92720e-02,-0.725572
-4.92710e-02,-0.726016
-4.92700e-02,-0.725669
-4.92690e-02,-0.725778
-4.92680e-02,-0.725988
-4.92670e-02,-0.725809
-4.92660e-02,-0.726172
-4.92650e-02,-0.725888
-4.92640e-02,-0.726028
-4.92630e-02,-0.726141
-4.92620e-02,-0.726022
-4.92610e-02,-0.726138
-4.92600e-02,-0.726066
-4.92590e-02,-0.726097
-4.92580e-02,-0.726003
-4.92570e-02,-0.725913
-4.92560e-02,-0.725984
-4.92550e-02,-0.725953
-4.92540e-02,-0.725988
-4.92530e-02,-0.725938
-4.92520e-02,-0.7259
-4.92510e-02,-0.726481
-4.92500e-02,-0.726122
-4.92490e-02,-0.726209
-4.92480e-02,-0.726188
-4.92470e-02,-0.725903
-4.92460e-02,-0.726291
-4.92450e-02,-0.726638
-4.92440e-02,-0.726869
-4.92430e-02,-0.726406
-4.92420e-02,-0.726294
