A246/A264/Exercise 3/Excericse 3 CH3.csv

Model,DPO4104
Firmware Version,2.68

Waveform Type,ANALOG
Point Format,Y
Horizontal Units,s
Horizontal Scale,0.01
Horizontal Delay,-0.0001
Sample Interval,1e-06
Record Length,100000
Gating,0.0% to 100.0%
Probe Attenuation,1
Vertical Units,V
Vertical Offset,0
Vertical Scale,0.1
Vertical Position,-3.02
,
,
,
Label,
TIME,CH3
-5.01000e-02,0.0173125
-5.00990e-02,0.0116719
-5.00980e-02,0.01175
-5.00970e-02,0.008125
-5.00960e-02,0.00782812
-5.00950e-02,0.00523437
-5.00940e-02,0.0029375
-5.00930e-02,0.00135937
-5.00920e-02,-0.00179688
-5.00910e-02,-0.0034375
-5.00900e-02,-0.00625
-5.00890e-02,-0.0089375
-5.00880e-02,-0.0103281
-5.00870e-02,-0.0127813
-5.00860e-02,-0.0168281
-5.00850e-02,-0.0180938
-5.00840e-02,-0.0198281
-5.00830e-02,-0.0211719
-5.00820e-02,-0.0243125
-5.00810e-02,-0.0266719
-5.00800e-02,-0.0323125
-5.00790e-02,-0.0325469
-5.00780e-02,-0.0321562
-5.00770e-02,-0.0357813
-5.00760e-02,-0.0389531
-5.00750e-02,-0.0392969
-5.00740e-02,-0.0439688
-5.00730e-02,-0.0444688
-5.00720e-02,-0.0465313
-5.00710e-02,-0.0496406
-5.00700e-02,-0.0514531
-5.00690e-02,-0.053375
-5.00680e-02,-0.0545781
-5.00670e-02,-0.0568594
-5.00660e-02,-0.0588594
-5.00650e-02,-0.060125
-5.00640e-02,-0.0610156
-5.00630e-02,-0.0645156
-5.00620e-02,-0.068
-5.00610e-02,-0.0662187
-5.00600e-02,-0.0684063
-5.00590e-02,-0.0712344
-5.00580e-02,-0.0720156
-5.00570e-02,-0.0728125
-5.00560e-02,-0.07475
-5.00550e-02,-0.0752813
-5.00540e-02,-0.0777188
-5.00530e-02,-0.0797031
-5.00520e-02,-0.0787969
-5.00510e-02,-0.07875
-5.00500e-02,-0.0817031
-5.00490e-02,-0.0824063
-5.00480e-02,-0.0845156
-5.00470e-02,-0.0839531
-5.00460e-02,-0.0858281
-5.00450e-02,-0.0866719
-5.00440e-02,-0.0880313
-5.00430e-02,-0.09125
-5.00420e-02,-0.0896094
-5.00410e-02,-0.091875
-5.00400e-02,-0.0906562
-5.00390e-02,-0.0916875
-5.00380e-02,-0.0932656
-5.00370e-02,-0.0932656
-5.00360e-02,-0.0943594
-5.00350e-02,-0.0948438
-5.00340e-02,-0.0953281
-5.00330e-02,-0.0946094
-5.00320e-02,-0.0955469
-5.00310e-02,-0.0925781
-5.00300e-02,-0.0951406
-5.00290e-02,-0.094375
-5.00280e-02,-0.0958906
-5.00270e-02,-0.0943594
-5.00260e-02,-0.0957969
-5.00250e-02,-0.0927188
-5.00240e-02,-0.0937031
-5.00230e-02,-0.094
-5.00220e-02,-0.0925781
-5.00210e-02,-0.0914375
-5.00200e-02,-0.0912656
-5.00190e-02,-0.0910625
-5.00180e-02,-0.0896094
-5.00170e-02,-0.0896406
-5.00160e-02,-0.09
-5.00150e-02,-0.0876875
-5.00140e-02,-0.0870469
-5.00130e-02,-0.0868281
-5.00120e-02,-0.0879688
-5.00110e-02,-0.0858281
-5.00100e-02,-0.0832188
-5.00090e-02,-0.0835625
-5.00080e-02,-0.0816875
-5.00070e-02,-0.0813125
-5.00060e-02,-0.0809375
-5.00050e-02,-0.0793125
-5.00040e-02,-0.0792344
-5.00030e-02,-0.07725
-5.00020e-02,-0.0747656
-5.00010e-02,-0.0734844
-5.00000e-02,-0.0731719
-4.99990e-02,-0.071
-4.99980e-02,-0.0705781
-4.99970e-02,-0.0701875
-4.99960e-02,-0.0685625
-4.99950e-02,-0.0700938
-4.99940e-02,-0.0654531
-4.99930e-02,-0.0639531
-4.99920e-02,-0.0643594
-4.99910e-02,-0.0635625
-4.99900e-02,-0.0586719
-4.99890e-02,-0.0598438
-4.99880e-02,-0.0567969
-4.99870e-02,-0.0574219
-4.99860e-02,-0.0542188
-4.99850e-02,-0.0549219
-4.99840e-02,-0.0532188
-4.99830e-02,-0.0502188
-4.99820e-02,-0.0495625
-4.99810e-02,-0.0499531
-4.99800e-02,-0.0445625
-4.99790e-02,-0.0480781
-4.99780e-02,-0.046125
-4.99770e-02,-0.042875
-4.99760e-02,-0.0430938
-4.99750e-02,-0.0428281
-4.99740e-02,-0.0420781
-4.99730e-02,-0.0400469
-4.99720e-02,-0.0387188
-4.99710e-02,-0.0357031
-4.99700e-02,-0.0330469
-4.99690e-02,-0.0351875
-4.99680e-02,-0.0335
-4.99670e-02,-0.03275
-4.99660e-02,-0.0327188
-4.99650e-02,-0.0288438
-4.99640e-02,-0.0281562
-4.99630e-02,-0.0269531
-4.99620e-02,-0.0274063
-4.99610e-02,-0.0270469
-4.99600e-02,-0.0259063
-4.99590e-02,-0.0242969
-4.99580e-02,-0.02275
-4.99570e-02,-0.0209219
-4.99560e-02,-0.0199219
-4.99550e-02,-0.0172969
-4.99540e-02,-0.0179531
-4.99530e-02,-0.015
-4.99520e-02,-0.0140938
-4.99510e-02,-0.0144844
-4.99500e-02,-0.00914063
-4.99490e-02,-0.0117031
-4.99480e-02,-0.009
-4.99470e-02,-0.00684375
-4.99460e-02,-0.00792188
-4.99450e-02,-0.00289063
-4.99440e-02,-0.00270313
-4.99430e-02,-0.00189063
-4.99420e-02,0.00132812
-4.99410e-02,0.00246875
-4.99400e-02,0.00620312
-4.99390e-02,0.00289062
-4.99380e-02,0.010375
-4.99370e-02,0.00990625
-4.99360e-02,0.0107812
-4.99350e-02,0.01275
-4.99340e-02,0.0143281
-4.99330e-02,0.0168594
-4.99320e-02,0.0193281
-4.99310e-02,0.0221719
-4.99300e-02,0.0255469
-4.99290e-02,0.0256875
-4.99280e-02,0.0287656
-4.99270e-02,0.0311875
-4.99260e-02,0.0327656
-4.99250e-02,0.0344687
-4.99240e-02,0.0386563
-4.99230e-02,0.0378438
-4.99220e-02,0.0415781
-4.99210e-02,0.0427969
-4.99200e-02,0.0465
-4.99190e-02,0.0492656
-4.99180e-02,0.05
-4.99170e-02,0.0543906
-4.99160e-02,0.0539687
-4.99150e-02,0.0561562
-4.99140e-02,0.0569687
-4.99130e-02,0.0609375
-4.99120e-02,0.0633437
-4.99110e-02,0.0658437
-4.99100e-02,0.067375
-4.99090e-02,0.0665469
-4.99080e-02,0.0691875
-4.99070e-02,0.0695312
-4.99060e-02,0.0729219
-4.99050e-02,0.0744062
-4.99040e-02,0.0745469
-4.99030e-02,0.0743906
-4.99020e-02,0.0769062
-4.99010e-02,0.0779844
-4.99000e-02,0.0800312
-4.98990e-02,0.0802344
-4.98980e-02,0.0823437
-4.98970e-02,0.081625
-4.98960e-02,0.0811875
-4.98950e-02,0.0841562
-4.98940e-02,0.0837031
-4.98930e-02,0.082875
-4.98920e-02,0.08275
-4.98910e-02,0.0845781
-4.98900e-02,0.0835312
-4.98890e-02,0.0847656
-4.98880e-02,0.0833906
-4.98870e-02,0.0821719
-4.98860e-02,0.082625
-4.98850e-02,0.0822812
-4.98840e-02,0.0833594
-4.98830e-02,0.0796875
-4.98820e-02,0.0806562
-4.98810e-02,0.0805156
-4.98800e-02,0.0776875
-4.98790e-02,0.0778281
-4.98780e-02,0.0776875
-4.98770e-02,0.0758594
-4.98760e-02,0.073875
-4.98750e-02,0.0720781
-4.98740e-02,0.0721562
-4.98730e-02,0.0717344
-4.98720e-02,0.0696719
-4.98710e-02,0.0683906
-4.98700e-02,0.0674687
-4.98690e-02,0.0644531
-4.98680e-02,0.0655
-4.98670e-02,0.0622187
-4.98660e-02,0.0604844
-4.98650e-02,0.0615781
-4.98640e-02,0.0579375
-4.98630e-02,0.0579062
-4.98620e-02,0.058625
-4.98610e-02,0.0537969
-4.98600e-02,0.0531719
-4.98590e-02,0.0511562
-4.98580e-02,0.0497812
-4.98570e-02,0.0473125
-4.98560e-02,0.0468594
-4.98550e-02,0.0456406
-4.98540e-02,0.0417812
-4.98530e-02,0.0415469
-4.98520e-02,0.0384687
-4.98510e-02,0.0391719
-4.98500e-02,0.0381719
-4.98490e-02,0.035125
-4.98480e-02,0.0339375
-4.98470e-02,0.0314844
-4.98460e-02,0.0277812
-4.98450e-02,0.0284844
-4.98440e-02,0.0232188
-4.98430e-02,0.0224375
-4.98420e-02,0.02125
-4.98410e-02,0.0197969
-4.98400e-02,0.0184219
-4.98390e-02,0.0162812
-4.98380e-02,0.0160156
-4.98370e-02,0.0128437
-4.98360e-02,0.0102344
-4.98350e-02,0.00884375
-4.98340e-02,0.00460937
-4.98330e-02,0.00317187
-4.98320e-02,0.00379687
-4.98310e-02,-0.00025
-4.98300e-02,-0.0018125
-4.98290e-02,-0.00510938
-4.98280e-02,-0.00765625
-4.98270e-02,-0.0102969
-4.98260e-02,-0.0135
-4.98250e-02,-0.0126719
-4.98240e-02,-0.0155781
-4.98230e-02,-0.0192188
-4.98220e-02,-0.0213594
-4.98210e-02,-0.0222969
-4.98200e-02,-0.025125
-4.98190e-02,-0.0279219
-4.98180e-02,-0.0285469
-4.98170e-02,-0.031625
-4.98160e-02,-0.0349063
-4.98150e-02,-0.0377813
-4.98140e-02,-0.0396719
-4.98130e-02,-0.0411563
-4.98120e-02,-0.0444844
-4.98110e-02,-0.0457969
-4.98100e-02,-0.046625
-4.98090e-02,-0.0471875
-4.98080e-02,-0.0503906
-4.98070e-02,-0.053375
-4.98060e-02,-0.0555625
-4.98050e-02,-0.0598281
-4.98040e-02,-0.0586719
-4.98030e-02,-0.0621563
-4.98020e-02,-0.0632187
-4.98010e-02,-0.0669375
-4.98000e-02,-0.0657969
-4.97990e-02,-0.0706719
-4.97980e-02,-0.0691563
-4.97970e-02,-0.0700469
-4.97960e-02,-0.0746563
-4.97950e-02,-0.0760781
-4.97940e-02,-0.0757969
-4.97930e-02,-0.0781875
-4.97920e-02,-0.07825
-4.97910e-02,-0.0794375
-4.97900e-02,-0.0810781
-4.97890e-02,-0.0789688
-4.97880e-02,-0.0820781
-4.97870e-02,-0.0829375
-4.97860e-02,-0.0839688
-4.97850e-02,-0.0845469
-4.97840e-02,-0.0867813
-4.97830e-02,-0.0883125
-4.97820e-02,-0.0903281
-4.97810e-02,-0.0875313
-4.97800e-02,-0.0903906
-4.97790e-02,-0.0916719
-4.97780e-02,-0.0925469
-4.97770e-02,-0.0928125
-4.97760e-02,-0.09375
-4.97750e-02,-0.0936406
-4.97740e-02,-0.0937656
-4.97730e-02,-0.0939688
-4.97720e-02,-0.0931562
-4.97710e-02,-0.0959219
-4.97700e-02,-0.0946094
-4.97690e-02,-0.0936562
-4.97680e-02,-0.0945781
-4.97670e-02,-0.0955469
-4.97660e-02,-0.0961094
-4.97650e-02,-0.0931406
-4.97640e-02,-0.0929688
-4.97630e-02,-0.093875
-4.97620e-02,-0.0946719
-4.97610e-02,-0.0934531
-4.97600e-02,-0.0919688
-4.97590e-02,-0.0923281
-4.97580e-02,-0.0927969
-4.97570e-02,-0.0907656
-4.97560e-02,-0.0908125
-4.97550e-02,-0.0883125
-4.97540e-02,-0.0868281
-4.97530e-02,-0.0897031
-4.97520e-02,-0.0862969
-4.97510e-02,-0.0858594
-4.97500e-02,-0.0865156
-4.97490e-02,-0.0834844
-4.97480e-02,-0.0848906
-4.97470e-02,-0.0823594
-4.97460e-02,-0.0827656
-4.97450e-02,-0.0826875
-4.97440e-02,-0.0803437
-4.97430e-02,-0.0768438
-4.97420e-02,-0.0768125
-4.97410e-02,-0.078125
-4.97400e-02,-0.0742188
-4.97390e-02,-0.0744844
-4.97380e-02,-0.0715
-4.97370e-02,-0.0729219
-4.97360e-02,-0.0706875
-4.97350e-02,-0.0673438
-4.97340e-02,-0.0692813
-4.97330e-02,-0.0656563
-4.97320e-02,-0.0651563
-4.97310e-02,-0.0643125
-4.97300e-02,-0.0623281
-4.97290e-02,-0.061125
-4.97280e-02,-0.0609844
-4.97270e-02,-0.0586563
-4.97260e-02,-0.0576563
-4.97250e-02,-0.0546094
-4.97240e-02,-0.0540781
-4.97230e-02,-0.0532656
-4.97220e-02,-0.0524531
-4.97210e-02,-0.0512188
-4.97200e-02,-0.0501719
-4.97190e-02,-0.0484063
-4.97180e-02,-0.0469375
-4.97170e-02,-0.0446094
-4.97160e-02,-0.0436094
-4.97150e-02,-0.0416563
-4.97140e-02,-0.0417656
-4.97130e-02,-0.0412969
-4.97120e-02,-0.0412344
-4.97110e-02,-0.0395
-4.97100e-02,-0.0355781
-4.97090e-02,-0.0357344
-4.97080e-02,-0.0356094
-4.97070e-02,-0.0350625
-4.97060e-02,-0.0321562
-4.97050e-02,-0.0317031
-4.97040e-02,-0.0299375
-4.97030e-02,-0.0287188
-4.97020e-02,-0.0276094
-4.97010e-02,-0.0285469
-4.97000e-02,-0.0275469
-4.96990e-02,-0.0257344
-4.96980e-02,-0.0253437
-4.96970e-02,-0.0237031
-4.96960e-02,-0.0204375
-4.96950e-02,-0.0223437
-4.96940e-02,-0.0207188
-4.96930e-02,-0.0175938
-4.96920e-02,-0.0174063
-4.96910e-02,-0.0160625
-4.96900e-02,-0.0154375
-4.96890e-02,-0.0113594
-4.96880e-02,-0.0116094
-4.96870e-02,-0.0105156
-4.96860e-02,-0.00754688
-4.96850e-02,-0.00526562
-4.96840e-02,-0.00323438
-4.96830e-02,-0.00284375
-4.96820e-02,-0.0030625
-4.96810e-02,-0.00015625
-4.96800e-02,0.00190625
-4.96790e-02,0.00425
-4.96780e-02,0.007
-4.96770e-02,0.007
-4.96760e-02,0.00771875
-4.96750e-02,0.0110781
-4.96740e-02,0.0138281
-4.96730e-02,0.0148125
-4.96720e-02,0.018
-4.96710e-02,0.0192812
-4.96700e-02,0.0207656
-4.96690e-02,0.0230313
-4.96680e-02,0.026375
-4.96670e-02,0.0273125
-4.96660e-02,0.0288906
-4.96650e-02,0.0318281
-4.96640e-02,0.0349219
-4.96630e-02,0.0355937
-4.96620e-02,0.0382656
-4.96610e-02,0.0412344
-4.96600e-02,0.0427344
-4.96590e-02,0.0457031
-4.96580e-02,0.04625
-4.96570e-02,0.04725
-4.96560e-02,0.0526094
-4.96550e-02,0.0532344
-4.96540e-02,0.0540156
-4.96530e-02,0.0569844
-4.96520e-02,0.061125
-4.96510e-02,0.0615625
-4.96500e-02,0.061875
-4.96490e-02,0.0651875
-4.96480e-02,0.0664687
-4.96470e-02,0.0672969
-4.96460e-02,0.0685781
-4.96450e-02,0.0686094
-4.96440e-02,0.0731562
-4.96430e-02,0.07225
-4.96420e-02,0.0731562
-4.96410e-02,0.0762031
-4.96400e-02,0.0770312
-4.96390e-02,0.0791562
-4.96380e-02,0.0799531
-4.96370e-02,0.0812031
-4.96360e-02,0.0795937
-4.96350e-02,0.082375
-4.96340e-02,0.0813125
-4.96330e-02,0.0840781
-4.96320e-02,0.0833281
-4.96310e-02,0.0825937
-4.96300e-02,0.0849062
-4.96290e-02,0.0835312
-4.96280e-02,0.0818437
-4.96270e-02,0.0814375
-4.96260e-02,0.085125
-4.96250e-02,0.0844219
-4.96240e-02,0.0833125
-4.96230e-02,0.0812031
-4.96220e-02,0.0807344
-4.96210e-02,0.0807656
-4.96200e-02,0.0804844
-4.96190e-02,0.0795
-4.96180e-02,0.0792812
-4.96170e-02,0.0789062
-4.96160e-02,0.0774062
-4.96150e-02,0.0726875
-4.96140e-02,0.0744844
-4.96130e-02,0.07325
-4.96120e-02,0.07025
-4.96110e-02,0.0697344
-4.96100e-02,0.0694531
-4.96090e-02,0.068125
-4.96080e-02,0.0664062
-4.96070e-02,0.0661094
-4.96060e-02,0.0636719
-4.96050e-02,0.0613906
-4.96040e-02,0.0618125
-4.96030e-02,0.0587344
-4.96020e-02,0.0587656
-4.96010e-02,0.0559844
-4.96000e-02,0.0535781
-4.95990e-02,0.0529375
-4.95980e-02,0.051375
-4.95970e-02,0.0493281
-4.95960e-02,0.0479688
-4.95950e-02,0.0463906
-4.95940e-02,0.045875
-4.95930e-02,0.0436563
-4.95920e-02,0.0441875
-4.95910e-02,0.0400312
-4.95900e-02,0.0392812
-4.95890e-02,0.0364375
-4.95880e-02,0.0334844
-4.95870e-02,0.0341094
-4.95860e-02,0.0326406
-4.95850e-02,0.0288438
-4.95840e-02,0.0273125
-4.95830e-02,0.0258594
-4.95820e-02,0.0241406
-4.95810e-02,0.0207656
-4.95800e-02,0.020875
-4.95790e-02,0.0188281
-4.95780e-02,0.0179375
-4.95770e-02,0.0167188
-4.95760e-02,0.0135937
-4.95750e-02,0.0116406
-4.95740e-02,0.00848437
-4.95730e-02,0.00526562
-4.95720e-02,0.00385937
-4.95710e-02,0.0036875
-4.95700e-02,0.000984375
-4.95690e-02,-0.00235937
-4.95680e-02,-0.00517187
-4.95670e-02,-0.0064375
-4.95660e-02,-0.00917187
-4.95650e-02,-0.0119688
-4.95640e-02,-0.0142656
-4.95630e-02,-0.0155781
-4.95620e-02,-0.0152656
-4.95610e-02,-0.0197656
-4.95600e-02,-0.021875
-4.95590e-02,-0.024
-4.95580e-02,-0.0255
-4.95570e-02,-0.0269531
-4.95560e-02,-0.0302031
-4.95550e-02,-0.0344219
-4.95540e-02,-0.0370156
-4.95530e-02,-0.0357344
-4.95520e-02,-0.0396563
-4.95510e-02,-0.0427344
-4.95500e-02,-0.0440469
-4.95490e-02,-0.047
-4.95480e-02,-0.0472344
-4.95470e-02,-0.0514375
-4.95460e-02,-0.0517813
-4.95450e-02,-0.0548594
-4.95440e-02,-0.0583125
-4.95430e-02,-0.0586719
-4.95420e-02,-0.0580469
-4.95410e-02,-0.0596094
-4.95400e-02,-0.0639531
-4.95390e-02,-0.064875
-4.95380e-02,-0.0686875
-4.95370e-02,-0.0659219
-4.95360e-02,-0.07
-4.95350e-02,-0.07025
-4.95340e-02,-0.0739219
-4.95330e-02,-0.0767656
-4.95320e-02,-0.0752344
-4.95310e-02,-0.0777344
-4.95300e-02,-0.0809063
-4.95290e-02,-0.0779844
-4.95280e-02,-0.0804375
-4.95270e-02,-0.0839844
-4.95260e-02,-0.0842188
-4.95250e-02,-0.0829219
-4.95240e-02,-0.0846094
-4.95230e-02,-0.0857969
-4.95220e-02,-0.0858594
-4.95210e-02,-0.0889531
-4.95200e-02,-0.0904375
-4.95190e-02,-0.0889219
-4.95180e-02,-0.0912188
-4.95170e-02,-0.0921875
-4.95160e-02,-0.091625
-4.95150e-02,-0.0908125
-4.95140e-02,-0.0932656
-4.95130e-02,-0.0935156
-4.95120e-02,-0.0945156
-4.95110e-02,-0.0952344
-4.95100e-02,-0.0941406
-4.95090e-02,-0.0944531
-4.95080e-02,-0.0930938
-4.95070e-02,-0.0949063
-4.95060e-02,-0.0956406
-4.95050e-02,-0.0945781
-4.95040e-02,-0.0942656
-4.95030e-02,-0.0935938
-4.95020e-02,-0.0935313
-4.95010e-02,-0.0931562
-4.95000e-02,-0.0950625
-4.94990e-02,-0.0917188
-4.94980e-02,-0.0899531
-4.94970e-02,-0.090875
-4.94960e-02,-0.0917031
-4.94950e-02,-0.0897344
-4.94940e-02,-0.0899375
-4.94930e-02,-0.0872813
-4.94920e-02,-0.087875
-4.94910e-02,-0.0880156
-4.94900e-02,-0.0884688
-4.94890e-02,-0.0847344
-4.94880e-02,-0.0839219
-4.94870e-02,-0.0831563
-4.94860e-02,-0.0827344
-4.94850e-02,-0.080625
-4.94840e-02,-0.0797969
-4.94830e-02,-0.0803594
-4.94820e-02,-0.0780625
-4.94810e-02,-0.0777344
-4.94800e-02,-0.0739219
-4.94790e-02,-0.0747031
-4.94780e-02,-0.0736875
-4.94770e-02,-0.0703594
-4.94760e-02,-0.0733438
-4.94750e-02,-0.0691406
-4.94740e-02,-0.0682969
-4.94730e-02,-0.0671875
-4.94720e-02,-0.0662969
-4.94710e-02,-0.0649531
-4.94700e-02,-0.0639844
-4.94690e-02,-0.0626406
-4.94680e-02,-0.0628594
-4.94670e-02,-0.0587656
-4.94660e-02,-0.0580937
-4.94650e-02,-0.0570469
-4.94640e-02,-0.0556875
-4.94630e-02,-0.0563906
-4.94620e-02,-0.0521094
-4.94610e-02,-0.0520937
-4.94600e-02,-0.052125
-4.94590e-02,-0.0496406
-4.94580e-02,-0.048875
-4.94570e-02,-0.0485
-4.94560e-02,-0.043875
-4.94550e-02,-0.0458438
-4.94540e-02,-0.0446094
-4.94530e-02,-0.0421563
-4.94520e-02,-0.0390625
-4.94510e-02,-0.041
-4.94500e-02,-0.0398281
-4.94490e-02,-0.036625
-4.94480e-02,-0.0358438
-4.94470e-02,-0.0353594
-4.94460e-02,-0.0345156
-4.94450e-02,-0.0338594
-4.94440e-02,-0.0338594
-4.94430e-02,-0.0299688
-4.94420e-02,-0.0282969
-4.94410e-02,-0.0313438
-4.94400e-02,-0.0253906
-4.94390e-02,-0.0265
-4.94380e-02,-0.0255469
-4.94370e-02,-0.0237969
-4.94360e-02,-0.019625
-4.94350e-02,-0.0210625
-4.94340e-02,-0.0216406
-4.94330e-02,-0.0181406
-4.94320e-02,-0.0179063
-4.94310e-02,-0.018375
-4.94300e-02,-0.0171406
-4.94290e-02,-0.0158906
-4.94280e-02,-0.0124844
-4.94270e-02,-0.00998437
-4.94260e-02,-0.00939063
-4.94250e-02,-0.00717187
-4.94240e-02,-0.00551563
-4.94230e-02,-0.00639063
-4.94220e-02,-0.00354688
-4.94210e-02,-0.0023125
-4.94200e-02,-0.00084375
-4.94190e-02,0.00326562
-4.94180e-02,0.00140625
-4.94170e-02,0.00589062
-4.94160e-02,0.00440625
-4.94150e-02,0.00835938
-4.94140e-02,0.0106094
-4.94130e-02,0.0127031
-4.94120e-02,0.014
-4.94110e-02,0.0148125
-4.94100e-02,0.0179063
-4.94090e-02,0.0201406
-4.94080e-02,0.0231562
-4.94070e-02,0.0270313
-4.94060e-02,0.0261719
-4.94050e-02,0.0280313
-4.94040e-02,0.0326406
-4.94030e-02,0.0345
-4.94020e-02,0.0356563
-4.94010e-02,0.0377344
-4.94000e-02,0.0389531
-4.93990e-02,0.0428281
-4.93980e-02,0.04425
-4.93970e-02,0.0460469
-4.93960e-02,0.0477344
-4.93950e-02,0.0518125
-4.93940e-02,0.0530312
-4.93930e-02,0.0558437
-4.93920e-02,0.0589375
-4.93910e-02,0.0578594
-4.93900e-02,0.0600469
-4.93890e-02,0.06275
-4.93880e-02,0.0628594
-4.93870e-02,0.0666562
-4.93860e-02,0.0688906
-4.93850e-02,0.0697344
-4.93840e-02,0.0715781
-4.93830e-02,0.0735156
-4.93820e-02,0.0739219
-4.93810e-02,0.0726406
-4.93800e-02,0.0762969
-4.93790e-02,0.076875
-4.93780e-02,0.0774687
-4.93770e-02,0.0767187
-4.93760e-02,0.0817031
-4.93750e-02,0.079
-4.93740e-02,0.0806875
-4.93730e-02,0.0787969
-4.93720e-02,0.0834844
-4.93710e-02,0.0837812
-4.93700e-02,0.083625
-4.93690e-02,0.0828594
-4.93680e-02,0.082
-4.93670e-02,0.0824219
-4.93660e-02,0.0829062
-4.93650e-02,0.082125
-4.93640e-02,0.0829531
-4.93630e-02,0.0796719
-4.93620e-02,0.0821406
-4.93610e-02,0.0817812
-4.93600e-02,0.0797656
-4.93590e-02,0.0802656
-4.93580e-02,0.0790781
-4.93570e-02,0.0778437
-4.93560e-02,0.0772969
-4.93550e-02,0.0751094
-4.93540e-02,0.0727656
-4.93530e-02,0.0754844
-4.93520e-02,0.0717187
-4.93510e-02,0.0705625
-4.93500e-02,0.0692031
-4.93490e-02,0.0679531
-4.93480e-02,0.0661719
-4.93470e-02,0.0645937
-4.93460e-02,0.06425
-4.93450e-02,0.0634687
-4.93440e-02,0.0629062
-4.93430e-02,0.0599062
-4.93420e-02,0.0599531
-4.93410e-02,0.057375
-4.93400e-02,0.0551719
-4.93390e-02,0.05425
-4.93380e-02,0.052125
-4.93370e-02,0.050375
-4.93360e-02,0.0491406
-4.93350e-02,0.0496406
-4.93340e-02,0.0457969
-4.93330e-02,0.0419844
-4.93320e-02,0.044375
-4.93310e-02,0.0411875
-4.93300e-02,0.0411563
-4.93290e-02,0.0376719
-4.93280e-02,0.0358438
-4.93270e-02,0.0368594
-4.93260e-02,0.0330469
-4.93250e-02,0.0297812
-4.93240e-02,0.0295469
-4.93230e-02,0.0265937
-4.93220e-02,0.0274531
-4.93210e-02,0.023875
-4.93200e-02,0.0239062
-4.93190e-02,0.0214531
-4.93180e-02,0.0185
-4.93170e-02,0.0153281
-4.93160e-02,0.0135156
-4.93150e-02,0.0124844
-4.93140e-02,0.00992187
-4.93130e-02,0.00873437
-4.93120e-02,0.006625
-4.93110e-02,0.00315625
-4.93100e-02,0.001625
-4.93090e-02,0.00103125
-4.93080e-02,-0.00159375
-4.93070e-02,-0.00409375
-4.93060e-02,-0.00592188
-4.93050e-02,-0.0085625
-4.93040e-02,-0.00889063
-4.93030e-02,-0.0142969
-4.93020e-02,-0.0159375
-4.93010e-02,-0.0188906
-4.93000e-02,-0.0208906
-4.92990e-02,-0.0213594
-4.92980e-02,-0.0245625
-4.92970e-02,-0.0267344
-4.92960e-02,-0.0295156
-4.92950e-02,-0.0312188
-4.92940e-02,-0.0354375
-4.92930e-02,-0.03575
-4.92920e-02,-0.0378281
-4.92910e-02,-0.0405469
-4.92900e-02,-0.04025
-4.92890e-02,-0.0450781
-4.92880e-02,-0.0455469
-4.92870e-02,-0.0480937
-4.92860e-02,-0.0515
-4.92850e-02,-0.0533438
-4.92840e-02,-0.054625
-4.92830e-02,-0.0535937
-4.92820e-02,-0.0594375
-4.92810e-02,-0.0617344
-4.92800e-02,-0.0626875
-4.92790e-02,-0.0639375
-4.92780e-02,-0.06575
-4.92770e-02,-0.0669531
-4.92760e-02,-0.0702656
-4.92750e-02,-0.0705469
-4.92740e-02,-0.0733125
-4.92730e-02,-0.07375
-4.92720e-02,-0.0744375
-4.92710e-02,-0.0752344
-4.92700e-02,-0.0782188
-4.92690e-02,-0.0804688
-4.92680e-02,-0.0788594
-4.92670e-02,-0.0819688
-4.92660e-02,-0.0806719
-4.92650e-02,-0.0850469
-4.92640e-02,-0.0834219
-4.92630e-02,-0.0848594
-4.92620e-02,-0.0848281
-4.92610e-02,-0.0875625
