A246/A264/Exercise 3/Exercie3_CH3.csv

Model,DPO4104
Firmware Version,2.68

Waveform Type,ANALOG
Point Format,Y
Horizontal Units,s
Horizontal Scale,0.01
Horizontal Delay,-0.0001
Sample Interval,1e-06
Record Length,100000
Gating,0.0% to 100.0%
Probe Attenuation,1
Vertical Units,V
Vertical Offset,0
Vertical Scale,0.1
Vertical Position,-3.02
,
,
,
Label,
TIME,CH3
-5.01000e-02,-0.0427969
-5.00990e-02,-0.0467969
-5.00980e-02,-0.0485156
-5.00970e-02,-0.0489531
-5.00960e-02,-0.0513125
-5.00950e-02,-0.0547031
-5.00940e-02,-0.0578281
-5.00930e-02,-0.0589062
-5.00920e-02,-0.0626094
-5.00910e-02,-0.0638438
-5.00900e-02,-0.0683281
-5.00890e-02,-0.0682969
-5.00880e-02,-0.0697969
-5.00870e-02,-0.0729531
-5.00860e-02,-0.0727656
-5.00850e-02,-0.0757188
-5.00840e-02,-0.0790938
-5.00830e-02,-0.0789063
-5.00820e-02,-0.0809688
-5.00810e-02,-0.0834844
-5.00800e-02,-0.0868906
-5.00790e-02,-0.0845156
-5.00780e-02,-0.08925
-5.00770e-02,-0.0900625
-5.00760e-02,-0.0916094
-5.00750e-02,-0.0922969
-5.00740e-02,-0.0923281
-5.00730e-02,-0.0945
-5.00720e-02,-0.096625
-5.00710e-02,-0.0971719
-5.00700e-02,-0.0995156
-5.00690e-02,-0.100109
-5.00680e-02,-0.102
-5.00670e-02,-0.103547
-5.00660e-02,-0.106281
-5.00650e-02,-0.104047
-5.00640e-02,-0.105672
-5.00630e-02,-0.107453
-5.00620e-02,-0.10825
-5.00610e-02,-0.108141
-5.00600e-02,-0.110219
-5.00590e-02,-0.110953
-5.00580e-02,-0.111438
-5.00570e-02,-0.112391
-5.00560e-02,-0.113453
-5.00550e-02,-0.111594
-5.00540e-02,-0.114563
-5.00530e-02,-0.115625
-5.00520e-02,-0.116687
-5.00510e-02,-0.118094
-5.00500e-02,-0.116016
-5.00490e-02,-0.116469
-5.00480e-02,-0.117266
-5.00470e-02,-0.118484
-5.00460e-02,-0.117531
-5.00450e-02,-0.119594
-5.00440e-02,-0.119656
-5.00430e-02,-0.118922
-5.00420e-02,-0.118641
-5.00410e-02,-0.119797
-5.00400e-02,-0.123219
-5.00390e-02,-0.122953
-5.00380e-02,-0.120625
-5.00370e-02,-0.121234
-5.00360e-02,-0.122844
-5.00350e-02,-0.122047
-5.00340e-02,-0.123156
-5.00330e-02,-0.124938
-5.00320e-02,-0.124766
-5.00310e-02,-0.122703
-5.00300e-02,-0.124
-5.00290e-02,-0.120734
-5.00280e-02,-0.122859
-5.00270e-02,-0.123703
-5.00260e-02,-0.122063
-5.00250e-02,-0.123969
-5.00240e-02,-0.122328
-5.00230e-02,-0.122891
-5.00220e-02,-0.1245
-5.00210e-02,-0.121875
-5.00200e-02,-0.12325
-5.00190e-02,-0.120453
-5.00180e-02,-0.120906
-5.00170e-02,-0.123625
-5.00160e-02,-0.122203
-5.00150e-02,-0.119953
-5.00140e-02,-0.119688
-5.00130e-02,-0.120078
-5.00120e-02,-0.120797
-5.00110e-02,-0.118344
-5.00100e-02,-0.117344
-5.00090e-02,-0.118922
-5.00080e-02,-0.118109
-5.00070e-02,-0.117531
-5.00060e-02,-0.116609
-5.00050e-02,-0.113484
-5.00040e-02,-0.112172
-5.00030e-02,-0.112266
-5.00020e-02,-0.1155
-5.00010e-02,-0.111719
-5.00000e-02,-0.111875
-4.99990e-02,-0.111203
-4.99980e-02,-0.108828
-4.99970e-02,-0.107625
-4.99960e-02,-0.10425
-4.99950e-02,-0.105172
-4.99940e-02,-0.103828
-4.99930e-02,-0.102172
-4.99920e-02,-0.099
-4.99910e-02,-0.09975
-4.99900e-02,-0.0976406
-4.99890e-02,-0.0942656
-4.99880e-02,-0.0932813
-4.99870e-02,-0.0914844
-4.99860e-02,-0.0864219
-4.99850e-02,-0.0872656
-4.99840e-02,-0.0826563
-4.99830e-02,-0.0795938
-4.99820e-02,-0.07825
-4.99810e-02,-0.073375
-4.99800e-02,-0.0717656
-4.99790e-02,-0.0683906
-4.99780e-02,-0.0645313
-4.99770e-02,-0.062125
-4.99760e-02,-0.0604062
-4.99750e-02,-0.0533438
-4.99740e-02,-0.0536875
-4.99730e-02,-0.0479688
-4.99720e-02,-0.0446094
-4.99710e-02,-0.0409063
-4.99700e-02,-0.036125
-4.99690e-02,-0.032125
-4.99680e-02,-0.0270781
-4.99670e-02,-0.0236875
-4.99660e-02,-0.0187656
-4.99650e-02,-0.0161563
-4.99640e-02,-0.0110312
-4.99630e-02,-0.0080625
-4.99620e-02,-0.00275
-4.99610e-02,0.00146875
-4.99600e-02,0.00657812
-4.99590e-02,0.0131719
-4.99580e-02,0.0166406
-4.99570e-02,0.0218125
-4.99560e-02,0.0261406
-4.99550e-02,0.0322812
-4.99540e-02,0.0357812
-4.99530e-02,0.0403906
-4.99520e-02,0.0474219
-4.99510e-02,0.0478125
-4.99500e-02,0.0561875
-4.99490e-02,0.0605937
-4.99480e-02,0.0655625
-4.99470e-02,0.0686406
-4.99460e-02,0.0742187
-4.99450e-02,0.078625
-4.99440e-02,0.0833281
-4.99430e-02,0.0855625
-4.99420e-02,0.0906719
-4.99410e-02,0.09425
-4.99400e-02,0.0994375
-4.99390e-02,0.102344
-4.99380e-02,0.106062
-4.99370e-02,0.109156
-4.99360e-02,0.114109
-4.99350e-02,0.115844
-4.99340e-02,0.121328
-4.99330e-02,0.123203
-4.99320e-02,0.126984
-4.99310e-02,0.129031
-4.99300e-02,0.128016
-4.99290e-02,0.133422
-4.99280e-02,0.136219
-4.99270e-02,0.13825
-4.99260e-02,0.140484
-4.99250e-02,0.138125
-4.99240e-02,0.141266
-4.99230e-02,0.142969
-4.99220e-02,0.146203
-4.99210e-02,0.148328
-4.99200e-02,0.148516
-4.99190e-02,0.149016
-4.99180e-02,0.149625
-4.99170e-02,0.148453
-4.99160e-02,0.150125
-4.99150e-02,0.148656
-4.99140e-02,0.149922
-4.99130e-02,0.149594
-4.99120e-02,0.14725
-4.99110e-02,0.149281
-4.99100e-02,0.151016
-4.99090e-02,0.152281
-4.99080e-02,0.148031
-4.99070e-02,0.146469
-4.99060e-02,0.146641
-4.99050e-02,0.145109
-4.99040e-02,0.146328
-4.99030e-02,0.142937
-4.99020e-02,0.143703
-4.99010e-02,0.140547
-4.99000e-02,0.138969
-4.98990e-02,0.135891
-4.98980e-02,0.136875
-4.98970e-02,0.134594
-4.98960e-02,0.134859
-4.98950e-02,0.128375
-4.98940e-02,0.129984
-4.98930e-02,0.125469
-4.98920e-02,0.124281
-4.98910e-02,0.123016
-4.98900e-02,0.120344
-4.98890e-02,0.119312
-4.98880e-02,0.116172
-4.98870e-02,0.112219
-4.98860e-02,0.111172
-4.98850e-02,0.109328
-4.98840e-02,0.106547
-4.98830e-02,0.103094
-4.98820e-02,0.100766
-4.98810e-02,0.0960937
-4.98800e-02,0.0942031
-4.98790e-02,0.0895
-4.98780e-02,0.0885469
-4.98770e-02,0.0847344
-4.98760e-02,0.08325
-4.98750e-02,0.0788594
-4.98740e-02,0.0720937
-4.98730e-02,0.0730156
-4.98720e-02,0.0704531
-4.98710e-02,0.0666875
-4.98700e-02,0.0624531
-4.98690e-02,0.0609219
-4.98680e-02,0.0547812
-4.98670e-02,0.0536094
-4.98660e-02,0.0498125
-4.98650e-02,0.0439219
-4.98640e-02,0.0443594
-4.98630e-02,0.0376719
-4.98620e-02,0.0349531
-4.98610e-02,0.0338438
-4.98600e-02,0.0274219
-4.98590e-02,0.0266719
-4.98580e-02,0.020625
-4.98570e-02,0.0184062
-4.98560e-02,0.0149375
-4.98550e-02,0.00748437
-4.98540e-02,0.00801562
-4.98530e-02,0.00345313
-4.98520e-02,0.000296875
-4.98510e-02,-0.0033125
-4.98500e-02,-0.00621875
-4.98490e-02,-0.0106563
-4.98480e-02,-0.0130156
-4.98470e-02,-0.0174063
-4.98460e-02,-0.0181406
-4.98450e-02,-0.0222813
-4.98440e-02,-0.026
-4.98430e-02,-0.0293594
-4.98420e-02,-0.0331562
-4.98410e-02,-0.0337031
-4.98400e-02,-0.0357188
-4.98390e-02,-0.0405156
-4.98380e-02,-0.0429219
-4.98370e-02,-0.0457812
-4.98360e-02,-0.0489688
-4.98350e-02,-0.051125
-4.98340e-02,-0.0525937
-4.98330e-02,-0.0556875
-4.98320e-02,-0.0573438
-4.98310e-02,-0.0595
-4.98300e-02,-0.0634531
-4.98290e-02,-0.0628281
-4.98280e-02,-0.066625
-4.98270e-02,-0.0695156
-4.98260e-02,-0.070125
-4.98250e-02,-0.0744844
-4.98240e-02,-0.0742188
-4.98230e-02,-0.0789375
-4.98220e-02,-0.0775938
-4.98210e-02,-0.0799063
-4.98200e-02,-0.08275
-4.98190e-02,-0.0851875
-4.98180e-02,-0.0861094
-4.98170e-02,-0.0864844
-4.98160e-02,-0.0888906
-4.98150e-02,-0.0905156
-4.98140e-02,-0.0925156
-4.98130e-02,-0.09175
-4.98120e-02,-0.0946406
-4.98110e-02,-0.0949063
-4.98100e-02,-0.0988906
-4.98090e-02,-0.0990781
-4.98080e-02,-0.0999531
-4.98070e-02,-0.100219
-4.98060e-02,-0.102078
-4.98050e-02,-0.103016
-4.98040e-02,-0.103703
-4.98030e-02,-0.106125
-4.98020e-02,-0.104609
-4.98010e-02,-0.107563
-4.98000e-02,-0.109422
-4.97990e-02,-0.107172
-4.97980e-02,-0.11075
-4.97970e-02,-0.113328
-4.97960e-02,-0.113641
-4.97950e-02,-0.115547
-4.97940e-02,-0.112641
-4.97930e-02,-0.113266
-4.97920e-02,-0.113797
-4.97910e-02,-0.11475
-4.97900e-02,-0.112828
-4.97890e-02,-0.116375
-4.97880e-02,-0.118141
-4.97870e-02,-0.118766
-4.97860e-02,-0.118484
-4.97850e-02,-0.119594
-4.97840e-02,-0.119938
-4.97830e-02,-0.118375
-4.97820e-02,-0.119672
-4.97810e-02,-0.121047
-4.97800e-02,-0.1205
-4.97790e-02,-0.120813
-4.97780e-02,-0.119063
-4.97770e-02,-0.123438
-4.97760e-02,-0.120594
-4.97750e-02,-0.121141
-4.97740e-02,-0.119594
-4.97730e-02,-0.118875
-4.97720e-02,-0.123219
-4.97710e-02,-0.122188
-4.97700e-02,-0.123484
-4.97690e-02,-0.122422
-4.97680e-02,-0.122797
-4.97670e-02,-0.121563
-4.97660e-02,-0.121297
-4.97650e-02,-0.125328
-4.97640e-02,-0.124891
-4.97630e-02,-0.123297
-4.97620e-02,-0.121969
-4.97610e-02,-0.124219
-4.97600e-02,-0.122828
-4.97590e-02,-0.122812
-4.97580e-02,-0.121797
-4.97570e-02,-0.122156
-4.97560e-02,-0.123078
-4.97550e-02,-0.122641
-4.97540e-02,-0.123234
-4.97530e-02,-0.122063
-4.97520e-02,-0.121172
-4.97510e-02,-0.121281
-4.97500e-02,-0.119125
-4.97490e-02,-0.119594
-4.97480e-02,-0.116313
-4.97470e-02,-0.121203
-4.97460e-02,-0.116047
-4.97450e-02,-0.116516
-4.97440e-02,-0.116734
-4.97430e-02,-0.114891
-4.97420e-02,-0.114984
-4.97410e-02,-0.111344
-4.97400e-02,-0.112219
-4.97390e-02,-0.110094
-4.97380e-02,-0.112234
-4.97370e-02,-0.109234
-4.97360e-02,-0.108297
-4.97350e-02,-0.106453
-4.97340e-02,-0.104391
-4.97330e-02,-0.106484
-4.97320e-02,-0.103234
-4.97310e-02,-0.100328
-4.97300e-02,-0.0993125
-4.97290e-02,-0.0986875
-4.97280e-02,-0.0958125
-4.97270e-02,-0.093875
-4.97260e-02,-0.0904375
-4.97250e-02,-0.0889375
-4.97240e-02,-0.0890938
-4.97230e-02,-0.0849063
-4.97220e-02,-0.08
-4.97210e-02,-0.0778594
-4.97200e-02,-0.076375
-4.97190e-02,-0.0727656
-4.97180e-02,-0.0700156
-4.97170e-02,-0.0687031
-4.97160e-02,-0.0635781
-4.97150e-02,-0.061
-4.97140e-02,-0.0600156
-4.97130e-02,-0.0523438
-4.97120e-02,-0.0500937
-4.97110e-02,-0.0459063
-4.97100e-02,-0.0447031
-4.97090e-02,-0.0383281
-4.97080e-02,-0.035875
-4.97070e-02,-0.0309063
-4.97060e-02,-0.0245938
-4.97050e-02,-0.0233281
-4.97040e-02,-0.0162188
-4.97030e-02,-0.0131406
-4.97020e-02,-0.00770313
-4.97010e-02,-0.00457812
-4.97000e-02,0.00059375
-4.96990e-02,0.00510937
-4.96980e-02,0.0100937
-4.96970e-02,0.0146875
-4.96960e-02,0.0190312
-4.96950e-02,0.0247031
-4.96940e-02,0.0281719
-4.96930e-02,0.0321719
-4.96920e-02,0.0387344
-4.96910e-02,0.0433906
-4.96900e-02,0.0477031
-4.96890e-02,0.0537031
-4.96880e-02,0.0583437
-4.96870e-02,0.0637656
-4.96860e-02,0.0645312
-4.96850e-02,0.0716719
-4.96840e-02,0.0771719
-4.96830e-02,0.0809687
-4.96820e-02,0.084375
-4.96810e-02,0.0906562
-4.96800e-02,0.0933437
-4.96790e-02,0.0966719
-4.96780e-02,0.102219
-4.96770e-02,0.105187
-4.96760e-02,0.108437
-4.96750e-02,0.112469
-4.96740e-02,0.11675
-4.96730e-02,0.117625
-4.96720e-02,0.123297
-4.96710e-02,0.126562
-4.96700e-02,0.128297
-4.96690e-02,0.129
-4.96680e-02,0.131875
-4.96670e-02,0.135734
-4.96660e-02,0.137531
-4.96650e-02,0.138625
-4.96640e-02,0.140922
-4.96630e-02,0.141844
-4.96620e-02,0.143781
-4.96610e-02,0.146328
-4.96600e-02,0.144094
-4.96590e-02,0.147437
-4.96580e-02,0.147687
-4.96570e-02,0.147281
-4.96560e-02,0.150687
-4.96550e-02,0.147219
-4.96540e-02,0.152141
-4.96530e-02,0.150984
-4.96520e-02,0.148234
-4.96510e-02,0.149844
-4.96500e-02,0.150531
-4.96490e-02,0.148344
-4.96480e-02,0.151422
-4.96470e-02,0.147328
-4.96460e-02,0.147562
-4.96450e-02,0.145578
-4.96440e-02,0.146578
-4.96430e-02,0.145656
-4.96420e-02,0.142062
-4.96410e-02,0.142203
-4.96400e-02,0.141125
-4.96390e-02,0.137344
-4.96380e-02,0.140187
-4.96370e-02,0.136953
-4.96360e-02,0.134
-4.96350e-02,0.134297
-4.96340e-02,0.131234
-4.96330e-02,0.128984
-4.96320e-02,0.126266
-4.96310e-02,0.126172
-4.96300e-02,0.123828
-4.96290e-02,0.120156
-4.96280e-02,0.119125
-4.96270e-02,0.115156
-4.96260e-02,0.114062
-4.96250e-02,0.112234
-4.96240e-02,0.112641
-4.96230e-02,0.106672
-4.96220e-02,0.102437
-4.96210e-02,0.0998281
-4.96200e-02,0.0984375
-4.96190e-02,0.09725
-4.96180e-02,0.0919844
-4.96170e-02,0.092375
-4.96160e-02,0.0837969
-4.96150e-02,0.0835781
-4.96140e-02,0.0813281
-4.96130e-02,0.0760625
-4.96120e-02,0.0745156
-4.96110e-02,0.0700781
-4.96100e-02,0.0682187
-4.96090e-02,0.0650469
-4.96080e-02,0.0600781
-4.96070e-02,0.0582031
-4.96060e-02,0.0535625
-4.96050e-02,0.0502344
-4.96040e-02,0.0491406
-4.96030e-02,0.0431094
-4.96020e-02,0.0407812
-4.96010e-02,0.0355312
-4.96000e-02,0.0331406
-4.95990e-02,0.0310313
-4.95980e-02,0.0287656
-4.95970e-02,0.0224687
-4.95960e-02,0.017125
-4.95950e-02,0.0156406
-4.95940e-02,0.0115937
-4.95930e-02,0.00910937
-4.95920e-02,0.00257812
-4.95910e-02,-1.5625e-05
-4.95900e-02,-0.00198438
-4.95890e-02,-0.00575
-4.95880e-02,-0.00801563
-4.95870e-02,-0.0112656
-4.95860e-02,-0.0144688
-4.95850e-02,-0.0214531
-4.95840e-02,-0.0202344
-4.95830e-02,-0.0248281
-4.95820e-02,-0.0257656
-4.95810e-02,-0.0295625
-4.95800e-02,-0.0362031
-4.95790e-02,-0.0378438
-4.95780e-02,-0.0425
-4.95770e-02,-0.0422969
-4.95760e-02,-0.0445781
-4.95750e-02,-0.0481719
-4.95740e-02,-0.0515156
-4.95730e-02,-0.0524688
-4.95720e-02,-0.0574531
-4.95710e-02,-0.0557031
-4.95700e-02,-0.0597656
-4.95690e-02,-0.0630313
-4.95680e-02,-0.0647031
-4.95670e-02,-0.0676563
-4.95660e-02,-0.0682969
-4.95650e-02,-0.0715156
-4.95640e-02,-0.071875
-4.95630e-02,-0.0737813
-4.95620e-02,-0.0764531
-4.95610e-02,-0.0770938
-4.95600e-02,-0.0789063
-4.95590e-02,-0.0795156
-4.95580e-02,-0.0837813
-4.95570e-02,-0.0821563
-4.95560e-02,-0.0878125
-4.95550e-02,-0.08675
-4.95540e-02,-0.0906719
-4.95530e-02,-0.0904219
-4.95520e-02,-0.0909219
-4.95510e-02,-0.0929063
-4.95500e-02,-0.0942656
-4.95490e-02,-0.0980313
-4.95480e-02,-0.0964687
-4.95470e-02,-0.100875
-4.95460e-02,-0.100203
-4.95450e-02,-0.102953
-4.95440e-02,-0.104469
-4.95430e-02,-0.103188
-4.95420e-02,-0.105109
-4.95410e-02,-0.103797
-4.95400e-02,-0.105594
-4.95390e-02,-0.10925
-4.95380e-02,-0.111187
-4.95370e-02,-0.108328
-4.95360e-02,-0.111984
-4.95350e-02,-0.114391
-4.95340e-02,-0.110797
-4.95330e-02,-0.112906
-4.95320e-02,-0.113172
-4.95310e-02,-0.115813
-4.95300e-02,-0.111375
-4.95290e-02,-0.11525
-4.95280e-02,-0.116547
-4.95270e-02,-0.115609
-4.95260e-02,-0.118031
-4.95250e-02,-0.116313
-4.95240e-02,-0.115766
-4.95230e-02,-0.119813
-4.95220e-02,-0.121344
-4.95210e-02,-0.118859
-4.95200e-02,-0.120813
-4.95190e-02,-0.120219
-4.95180e-02,-0.120047
-4.95170e-02,-0.121016
-4.95160e-02,-0.120891
-4.95150e-02,-0.123063
-4.95140e-02,-0.123969
-4.95130e-02,-0.121609
-4.95120e-02,-0.12375
-4.95110e-02,-0.123078
-4.95100e-02,-0.123172
-4.95090e-02,-0.123703
-4.95080e-02,-0.123156
-4.95070e-02,-0.121609
-4.95060e-02,-0.121375
-4.95050e-02,-0.122734
-4.95040e-02,-0.121484
-4.95030e-02,-0.122625
-4.95020e-02,-0.123406
-4.95010e-02,-0.120922
-4.95000e-02,-0.121094
-4.94990e-02,-0.12425
-4.94980e-02,-0.122234
-4.94970e-02,-0.123031
-4.94960e-02,-0.120594
-4.94950e-02,-0.122109
-4.94940e-02,-0.122547
-4.94930e-02,-0.121469
-4.94920e-02,-0.121328
-4.94910e-02,-0.121734
-4.94900e-02,-0.120859
-4.94890e-02,-0.117828
-4.94880e-02,-0.120016
-4.94870e-02,-0.119484
-4.94860e-02,-0.11875
-4.94850e-02,-0.116141
-4.94840e-02,-0.116797
-4.94830e-02,-0.118188
-4.94820e-02,-0.115187
-4.94810e-02,-0.115375
-4.94800e-02,-0.112938
-4.94790e-02,-0.11
-4.94780e-02,-0.109687
-4.94770e-02,-0.109469
-4.94760e-02,-0.108922
-4.94750e-02,-0.106922
-4.94740e-02,-0.10675
-4.94730e-02,-0.104922
-4.94720e-02,-0.104906
-4.94710e-02,-0.100453
-4.94700e-02,-0.102781
-4.94690e-02,-0.0991563
-4.94680e-02,-0.0976875
-4.94670e-02,-0.0964063
-4.94660e-02,-0.0933594
-4.94650e-02,-0.0914844
-4.94640e-02,-0.0890156
-4.94630e-02,-0.0852969
-4.94620e-02,-0.0848281
-4.94610e-02,-0.0803594
-4.94600e-02,-0.0806406
-4.94590e-02,-0.0772969
-4.94580e-02,-0.0742188
-4.94570e-02,-0.0703438
-4.94560e-02,-0.0662813
-4.94550e-02,-0.0646094
-4.94540e-02,-0.0609062
-4.94530e-02,-0.057625
-4.94520e-02,-0.0540781
-4.94510e-02,-0.0512656
-4.94500e-02,-0.0471563
-4.94490e-02,-0.0416719
-4.94480e-02,-0.0373281
-4.94470e-02,-0.0344531
-4.94460e-02,-0.0323594
-4.94450e-02,-0.0249375
-4.94440e-02,-0.0211406
-4.94430e-02,-0.0184063
-4.94420e-02,-0.0121406
-4.94410e-02,-0.00923438
-4.94400e-02,-0.00490625
-4.94390e-02,0.000125
-4.94380e-02,0.006
-4.94370e-02,0.0114375
-4.94360e-02,0.0119219
-4.94350e-02,0.0191719
-4.94340e-02,0.0252031
-4.94330e-02,0.03025
-4.94320e-02,0.0359375
-4.94310e-02,0.0391406
-4.94300e-02,0.0441719
-4.94290e-02,0.0496094
-4.94280e-02,0.0549375
-4.94270e-02,0.0572969
-4.94260e-02,0.0622656
-4.94250e-02,0.06675
-4.94240e-02,0.0711406
-4.94230e-02,0.0748281
-4.94220e-02,0.0807344
-4.94210e-02,0.0853906
-4.94200e-02,0.0875469
-4.94190e-02,0.0919531
-4.94180e-02,0.0968281
-4.94170e-02,0.101875
-4.94160e-02,0.105312
-4.94150e-02,0.107359
-4.94140e-02,0.108078
-4.94130e-02,0.114266
-4.94120e-02,0.117953
-4.94110e-02,0.121828
-4.94100e-02,0.122031
-4.94090e-02,0.127719
-4.94080e-02,0.130359
-4.94070e-02,0.131203
-4.94060e-02,0.136047
-4.94050e-02,0.135328
-4.94040e-02,0.138625
-4.94030e-02,0.138937
-4.94020e-02,0.139719
-4.94010e-02,0.142672
-4.94000e-02,0.144687
-4.93990e-02,0.14625
-4.93980e-02,0.146734
-4.93970e-02,0.147203
-4.93960e-02,0.147641
-4.93950e-02,0.148688
-4.93940e-02,0.150219
-4.93930e-02,0.151406
-4.93920e-02,0.149219
-4.93910e-02,0.1515
-4.93900e-02,0.150328
-4.93890e-02,0.149828
-4.93880e-02,0.151234
-4.93870e-02,0.149312
-4.93860e-02,0.146984
-4.93850e-02,0.146984
-4.93840e-02,0.145812
-4.93830e-02,0.1465
-4.93820e-02,0.143328
-4.93810e-02,0.143875
-4.93800e-02,0.142234
-4.93790e-02,0.140734
-4.93780e-02,0.139109
-4.93770e-02,0.135937
-4.93760e-02,0.136812
-4.93750e-02,0.134094
-4.93740e-02,0.131766
-4.93730e-02,0.130234
-4.93720e-02,0.129672
-4.93710e-02,0.129297
-4.93700e-02,0.123344
-4.93690e-02,0.124609
-4.93680e-02,0.120891
-4.93670e-02,0.119203
-4.93660e-02,0.115406
-4.93650e-02,0.114484
-4.93640e-02,0.110187
-4.93630e-02,0.106797
-4.93620e-02,0.105891
-4.93610e-02,0.104922
-4.93600e-02,0.100312
-4.93590e-02,0.0981562
-4.93580e-02,0.09475
-4.93570e-02,0.0919687
-4.93560e-02,0.0889062
-4.93550e-02,0.0840781
-4.93540e-02,0.083625
-4.93530e-02,0.0806719
-4.93520e-02,0.0760312
-4.93510e-02,0.0725625
-4.93500e-02,0.0705156
-4.93490e-02,0.0678437
-4.93480e-02,0.0641094
-4.93470e-02,0.0585
-4.93460e-02,0.05675
-4.93450e-02,0.0547969
-4.93440e-02,0.0514375
-4.93430e-02,0.0444844
-4.93420e-02,0.0428594
-4.93410e-02,0.0385469
-4.93400e-02,0.0348438
-4.93390e-02,0.0330937
-4.93380e-02,0.028375
-4.93370e-02,0.0242344
-4.93360e-02,0.0211562
-4.93350e-02,0.0175469
-4.93340e-02,0.0133437
-4.93330e-02,0.01
-4.93320e-02,0.00692187
-4.93310e-02,0.00264063
-4.93300e-02,0.000984375
-4.93290e-02,-0.00184375
-4.93280e-02,-0.00496875
-4.93270e-02,-0.0112344
-4.93260e-02,-0.0122031
-4.93250e-02,-0.0168125
-4.93240e-02,-0.0189531
-4.93230e-02,-0.0201406
-4.93220e-02,-0.0237344
-4.93210e-02,-0.029875
-4.93200e-02,-0.0324687
-4.93190e-02,-0.0358125
-4.93180e-02,-0.0391563
-4.93170e-02,-0.0387656
-4.93160e-02,-0.0416875
-4.93150e-02,-0.0437812
-4.93140e-02,-0.0494219
-4.93130e-02,-0.0499844
-4.93120e-02,-0.0542656
-4.93110e-02,-0.0545313
-4.93100e-02,-0.0564219
-4.93090e-02,-0.06025
-4.93080e-02,-0.0638906
-4.93070e-02,-0.0627813
-4.93060e-02,-0.066
-4.93050e-02,-0.0681563
-4.93040e-02,-0.0700938
-4.93030e-02,-0.0725312
-4.93020e-02,-0.0716719
-4.93010e-02,-0.0768281
-4.93000e-02,-0.0784688
-4.92990e-02,-0.0806875
-4.92980e-02,-0.0832031
-4.92970e-02,-0.0834375
-4.92960e-02,-0.0851719
-4.92950e-02,-0.0878594
-4.92940e-02,-0.0879063
-4.92930e-02,-0.0899219
-4.92920e-02,-0.0909531
-4.92910e-02,-0.0918594
-4.92900e-02,-0.0965
-4.92890e-02,-0.0968438
-4.92880e-02,-0.0960625
-4.92870e-02,-0.0979063
-4.92860e-02,-0.0992188
-4.92850e-02,-0.0994063
-4.92840e-02,-0.101188
-4.92830e-02,-0.102531
-4.92820e-02,-0.102469
-4.92810e-02,-0.104625
-4.92800e-02,-0.106953
-4.92790e-02,-0.106406
-4.92780e-02,-0.106609
-4.92770e-02,-0.111531
-4.92760e-02,-0.110063
-4.92750e-02,-0.106969
-4.92740e-02,-0.111094
-4.92730e-02,-0.113328
-4.92720e-02,-0.111844
-4.92710e-02,-0.113578
-4.92700e-02,-0.115547
-4.92690e-02,-0.114906
-4.92680e-02,-0.116922
-4.92670e-02,-0.116906
-4.92660e-02,-0.1165
-4.92650e-02,-0.116313
-4.92640e-02,-0.116703
-4.92630e-02,-0.118297
-4.92620e-02,-0.117938
-4.92610e-02,-0.119484
-4.92600e-02,-0.120172
-4.92590e-02,-0.118828
-4.92580e-02,-0.119094
-4.92570e-02,-0.118391
-4.92560e-02,-0.120063
-4.92550e-02,-0.120672
-4.92540e-02,-0.122359
-4.92530e-02,-0.122766
-4.92520e-02,-0.122609
-4.92510e-02,-0.122938
-4.92500e-02,-0.123172
-4.92490e-02,-0.121406
-4.92480e-02,-0.122563
-4.92470e-02,-0.122047
-4.92460e-02,-0.123125
-4.92450e-02,-0.125141
-4.92440e-02,-0.124516
