A246/A264/Exercise 4/Spectrum (T=0.512)/tek0001CH3.csv

Model,DPO4104
Firmware Version,2.68

Waveform Type,ANALOG
Point Format,Y
Horizontal Units,s
Horizontal Scale,0.01
Horizontal Delay,-0.0001
Sample Interval,1e-06
Record Length,100000
Gating,0.0% to 100.0%
Probe Attenuation,1
Vertical Units,V
Vertical Offset,0
Vertical Scale,0.1
Vertical Position,-3.02
,
,
,
Label,
TIME,CH3
-5.01000e-02,-0.0834531
-5.00990e-02,-0.0835
-5.00980e-02,-0.0795156
-5.00970e-02,-0.0795469
-5.00960e-02,-0.0770312
-5.00950e-02,-0.0739531
-5.00940e-02,-0.0741094
-5.00930e-02,-0.0717187
-5.00920e-02,-0.0695625
-5.00910e-02,-0.0688438
-5.00900e-02,-0.0647344
-5.00890e-02,-0.0644688
-5.00880e-02,-0.0617031
-5.00870e-02,-0.0615
-5.00860e-02,-0.05825
-5.00850e-02,-0.0558906
-5.00840e-02,-0.0538906
-5.00830e-02,-0.0511563
-5.00820e-02,-0.0489844
-5.00810e-02,-0.0472969
-5.00800e-02,-0.0453906
-5.00790e-02,-0.0435781
-5.00780e-02,-0.0387188
-5.00770e-02,-0.0365469
-5.00760e-02,-0.0347969
-5.00750e-02,-0.0319531
-5.00740e-02,-0.0299063
-5.00730e-02,-0.0268906
-5.00720e-02,-0.0252813
-5.00710e-02,-0.0225781
-5.00700e-02,-0.0194688
-5.00690e-02,-0.016625
-5.00680e-02,-0.0134531
-5.00670e-02,-0.009625
-5.00660e-02,-0.00795313
-5.00650e-02,-0.00470313
-5.00640e-02,-0.00314063
-5.00630e-02,-3.125e-05
-5.00620e-02,0.00367187
-5.00610e-02,0.00665625
-5.00600e-02,0.00921875
-5.00590e-02,0.01175
-5.00580e-02,0.0149531
-5.00570e-02,0.0181562
-5.00560e-02,0.0209219
-5.00550e-02,0.0251719
-5.00540e-02,0.0280625
-5.00530e-02,0.0312344
-5.00520e-02,0.0325469
-5.00510e-02,0.0371563
-5.00500e-02,0.0396875
-5.00490e-02,0.0424219
-5.00480e-02,0.0453594
-5.00470e-02,0.0473281
-5.00460e-02,0.0503437
-5.00450e-02,0.0536406
-5.00440e-02,0.0566406
-5.00430e-02,0.0599687
-5.00420e-02,0.0624531
-5.00410e-02,0.0666719
-5.00400e-02,0.0681875
-5.00390e-02,0.07075
-5.00380e-02,0.0737969
-5.00370e-02,0.0744062
-5.00360e-02,0.078875
-5.00350e-02,0.0812812
-5.00340e-02,0.0830781
-5.00330e-02,0.08625
-5.00320e-02,0.088
-5.00310e-02,0.0902656
-5.00300e-02,0.0932812
-5.00290e-02,0.0940625
-5.00280e-02,0.0971406
-5.00270e-02,0.0994531
-5.00260e-02,0.101656
-5.00250e-02,0.102219
-5.00240e-02,0.105109
-5.00230e-02,0.106922
-5.00220e-02,0.107016
-5.00210e-02,0.108984
-5.00200e-02,0.11075
-5.00190e-02,0.110812
-5.00180e-02,0.11325
-5.00170e-02,0.113078
-5.00160e-02,0.113297
-5.00150e-02,0.115719
-5.00140e-02,0.115203
-5.00130e-02,0.115859
-5.00120e-02,0.117156
-5.00110e-02,0.116203
-5.00100e-02,0.117141
-5.00090e-02,0.117359
-5.00080e-02,0.117703
-5.00070e-02,0.120297
-5.00060e-02,0.117641
-5.00050e-02,0.119703
-5.00040e-02,0.117484
-5.00030e-02,0.115906
-5.00020e-02,0.117078
-5.00010e-02,0.116281
-5.00000e-02,0.115078
-4.99990e-02,0.112891
-4.99980e-02,0.113234
-4.99970e-02,0.112031
-4.99960e-02,0.110297
-4.99950e-02,0.109672
-4.99940e-02,0.109109
-4.99930e-02,0.107203
-4.99920e-02,0.105891
-4.99910e-02,0.103891
-4.99900e-02,0.103562
-4.99890e-02,0.0998437
-4.99880e-02,0.0987344
-4.99870e-02,0.0977812
-4.99860e-02,0.0967812
-4.99850e-02,0.0943125
-4.99840e-02,0.0932344
-4.99830e-02,0.0910781
-4.99820e-02,0.0890937
-4.99810e-02,0.0877812
-4.99800e-02,0.0847969
-4.99790e-02,0.0845
-4.99780e-02,0.0811406
-4.99770e-02,0.0769531
-4.99760e-02,0.0772812
-4.99750e-02,0.074125
-4.99740e-02,0.0734062
-4.99730e-02,0.0715937
-4.99720e-02,0.06875
-4.99710e-02,0.0672969
-4.99700e-02,0.0653281
-4.99690e-02,0.0637969
-4.99680e-02,0.059375
-4.99670e-02,0.0565625
-4.99660e-02,0.0552187
-4.99650e-02,0.0529062
-4.99640e-02,0.0508125
-4.99630e-02,0.0495937
-4.99620e-02,0.0465937
-4.99610e-02,0.0442969
-4.99600e-02,0.0407969
-4.99590e-02,0.038125
-4.99580e-02,0.0366875
-4.99570e-02,0.0353906
-4.99560e-02,0.0334844
-4.99550e-02,0.0296562
-4.99540e-02,0.026875
-4.99530e-02,0.026375
-4.99520e-02,0.0235313
-4.99510e-02,0.0225156
-4.99500e-02,0.0174375
-4.99490e-02,0.0159687
-4.99480e-02,0.0165312
-4.99470e-02,0.0125312
-4.99460e-02,0.010375
-4.99450e-02,0.00665625
-4.99440e-02,0.00539062
-4.99430e-02,0.00382812
-4.99420e-02,0.0023125
-4.99410e-02,0.000359375
-4.99400e-02,-0.00342188
-4.99390e-02,-0.0056875
-4.99380e-02,-0.00873438
-4.99370e-02,-0.00953125
-4.99360e-02,-0.0119375
-4.99350e-02,-0.0149844
-4.99340e-02,-0.0168906
-4.99330e-02,-0.0187344
-4.99320e-02,-0.0217969
-4.99310e-02,-0.0237344
-4.99300e-02,-0.0256406
-4.99290e-02,-0.0278594
-4.99280e-02,-0.0287344
-4.99270e-02,-0.0321094
-4.99260e-02,-0.0352188
-4.99250e-02,-0.037875
-4.99240e-02,-0.0394687
-4.99230e-02,-0.0421094
-4.99220e-02,-0.0443438
-4.99210e-02,-0.0469688
-4.99200e-02,-0.0496719
-4.99190e-02,-0.0522969
-4.99180e-02,-0.0554844
-4.99170e-02,-0.0552188
-4.99160e-02,-0.0583906
-4.99150e-02,-0.0605938
-4.99140e-02,-0.0628125
-4.99130e-02,-0.066
-4.99120e-02,-0.0654844
-4.99110e-02,-0.0698125
-4.99100e-02,-0.0732344
-4.99090e-02,-0.0744219
-4.99080e-02,-0.0762813
-4.99070e-02,-0.0783437
-4.99060e-02,-0.0802031
-4.99050e-02,-0.0832188
-4.99040e-02,-0.0837969
-4.99030e-02,-0.0854844
-4.99020e-02,-0.0859375
-4.99010e-02,-0.0878281
-4.99000e-02,-0.0892969
-4.98990e-02,-0.0920469
-4.98980e-02,-0.0930938
-4.98970e-02,-0.0921094
-4.98960e-02,-0.0952031
-4.98950e-02,-0.0975
-4.98940e-02,-0.097625
-4.98930e-02,-0.0982656
-4.98920e-02,-0.101172
-4.98910e-02,-0.0993281
-4.98900e-02,-0.102594
-4.98890e-02,-0.103609
-4.98880e-02,-0.102859
-4.98870e-02,-0.105313
-4.98860e-02,-0.105703
-4.98850e-02,-0.106359
-4.98840e-02,-0.106563
-4.98830e-02,-0.108609
-4.98820e-02,-0.108875
-4.98810e-02,-0.109953
-4.98800e-02,-0.109906
-4.98790e-02,-0.109484
-4.98780e-02,-0.110969
-4.98770e-02,-0.111875
-4.98760e-02,-0.1125
-4.98750e-02,-0.111047
-4.98740e-02,-0.111625
-4.98730e-02,-0.112438
-4.98720e-02,-0.111984
-4.98710e-02,-0.110484
-4.98700e-02,-0.110359
-4.98690e-02,-0.111922
-4.98680e-02,-0.111078
-4.98670e-02,-0.111828
-4.98660e-02,-0.111797
-4.98650e-02,-0.110375
-4.98640e-02,-0.110172
-4.98630e-02,-0.110672
-4.98620e-02,-0.109922
-4.98610e-02,-0.109641
-4.98600e-02,-0.107922
-4.98590e-02,-0.108375
-4.98580e-02,-0.10725
-4.98570e-02,-0.106297
-4.98560e-02,-0.104766
-4.98550e-02,-0.104359
-4.98540e-02,-0.104641
-4.98530e-02,-0.103078
-4.98520e-02,-0.101109
-4.98510e-02,-0.100234
-4.98500e-02,-0.101031
-4.98490e-02,-0.0978281
-4.98480e-02,-0.098
-4.98470e-02,-0.0962656
-4.98460e-02,-0.0960313
-4.98450e-02,-0.0935625
-4.98440e-02,-0.0931562
-4.98430e-02,-0.0909219
-4.98420e-02,-0.0910313
-4.98410e-02,-0.090125
-4.98400e-02,-0.0875
-4.98390e-02,-0.0866875
-4.98380e-02,-0.0826406
-4.98370e-02,-0.0839219
-4.98360e-02,-0.0804688
-4.98350e-02,-0.0788594
-4.98340e-02,-0.0775781
-4.98330e-02,-0.0758594
-4.98320e-02,-0.073125
-4.98310e-02,-0.07225
-4.98300e-02,-0.0685938
-4.98290e-02,-0.0698906
-4.98280e-02,-0.06625
-4.98270e-02,-0.0648281
-4.98260e-02,-0.0622656
-4.98250e-02,-0.0605
-4.98240e-02,-0.0595781
-4.98230e-02,-0.05775
-4.98220e-02,-0.0540313
-4.98210e-02,-0.0520313
-4.98200e-02,-0.0492344
-4.98190e-02,-0.0475156
-4.98180e-02,-0.0451094
-4.98170e-02,-0.0428594
-4.98160e-02,-0.0399687
-4.98150e-02,-0.0365469
-4.98140e-02,-0.034875
-4.98130e-02,-0.032625
-4.98120e-02,-0.0298438
-4.98110e-02,-0.0278125
-4.98100e-02,-0.0269688
-4.98090e-02,-0.0225781
-4.98080e-02,-0.0201094
-4.98070e-02,-0.0158125
-4.98060e-02,-0.0135156
-4.98050e-02,-0.0110938
-4.98040e-02,-0.00803125
-4.98030e-02,-0.00642188
-4.98020e-02,-0.00134375
-4.98010e-02,0.000640625
-4.98000e-02,0.00448437
-4.97990e-02,0.00729687
-4.97980e-02,0.010625
-4.97970e-02,0.0129844
-4.97960e-02,0.0153125
-4.97950e-02,0.017625
-4.97940e-02,0.0202969
-4.97930e-02,0.0245469
-4.97920e-02,0.0266406
-4.97910e-02,0.0306875
-4.97900e-02,0.031875
-4.97890e-02,0.0372187
-4.97880e-02,0.0389687
-4.97870e-02,0.04275
-4.97860e-02,0.0454531
-4.97850e-02,0.0478437
-4.97840e-02,0.049875
-4.97830e-02,0.0545156
-4.97820e-02,0.0554219
-4.97810e-02,0.0586562
-4.97800e-02,0.0614844
-4.97790e-02,0.0639844
-4.97780e-02,0.0678906
-4.97770e-02,0.06925
-4.97760e-02,0.072375
-4.97750e-02,0.0757187
-4.97740e-02,0.0784062
-4.97730e-02,0.0805156
-4.97720e-02,0.0825625
-4.97710e-02,0.0849687
-4.97700e-02,0.0862656
-4.97690e-02,0.0887187
-4.97680e-02,0.090625
-4.97670e-02,0.0944531
-4.97660e-02,0.0954844
-4.97650e-02,0.0984375
-4.97640e-02,0.0983281
-4.97630e-02,0.100031
-4.97620e-02,0.103203
-4.97610e-02,0.104156
-4.97600e-02,0.105969
-4.97590e-02,0.107641
-4.97580e-02,0.107656
-4.97570e-02,0.110344
-4.97560e-02,0.111766
-4.97550e-02,0.112016
-4.97540e-02,0.113656
-4.97530e-02,0.114266
-4.97520e-02,0.114297
-4.97510e-02,0.115109
-4.97500e-02,0.117031
-4.97490e-02,0.115547
-4.97480e-02,0.117438
-4.97470e-02,0.116453
-4.97460e-02,0.116937
-4.97450e-02,0.117234
-4.97440e-02,0.115594
-4.97430e-02,0.115875
-4.97420e-02,0.114703
-4.97410e-02,0.116187
-4.97400e-02,0.115297
-4.97390e-02,0.114234
-4.97380e-02,0.113
-4.97370e-02,0.111281
-4.97360e-02,0.110578
-4.97350e-02,0.110531
-4.97340e-02,0.108719
-4.97330e-02,0.10725
-4.97320e-02,0.105781
-4.97310e-02,0.105297
-4.97300e-02,0.103906
-4.97290e-02,0.101375
-4.97280e-02,0.100578
-4.97270e-02,0.0997031
-4.97260e-02,0.0969219
-4.97250e-02,0.0953594
-4.97240e-02,0.0926094
-4.97230e-02,0.092375
-4.97220e-02,0.0905
-4.97210e-02,0.0888281
-4.97200e-02,0.0873125
-4.97190e-02,0.0830781
-4.97180e-02,0.0838906
-4.97170e-02,0.081125
-4.97160e-02,0.0785469
-4.97150e-02,0.0767344
-4.97140e-02,0.0745937
-4.97130e-02,0.0724531
-4.97120e-02,0.0690312
-4.97110e-02,0.0679062
-4.97100e-02,0.0656719
-4.97090e-02,0.0635469
-4.97080e-02,0.0614062
-4.97070e-02,0.0590469
-4.97060e-02,0.0567344
-4.97050e-02,0.0550312
-4.97040e-02,0.0533125
-4.97030e-02,0.0502031
-4.97020e-02,0.0489844
-4.97010e-02,0.0458125
-4.97000e-02,0.0432812
-4.96990e-02,0.0397969
-4.96980e-02,0.0386094
-4.96970e-02,0.0373906
-4.96960e-02,0.0350625
-4.96950e-02,0.0324844
-4.96940e-02,0.0314219
-4.96930e-02,0.027
-4.96920e-02,0.025125
-4.96910e-02,0.0232031
-4.96900e-02,0.0214219
-4.96890e-02,0.0196406
-4.96880e-02,0.017125
-4.96870e-02,0.0140156
-4.96860e-02,0.0121875
-4.96850e-02,0.0115312
-4.96840e-02,0.00654688
-4.96830e-02,0.007125
-4.96820e-02,0.00409375
-4.96810e-02,0.000203125
-4.96800e-02,-0.00165625
-4.96790e-02,-0.00320313
-4.96780e-02,-0.00417187
-4.96770e-02,-0.00851563
-4.96760e-02,-0.009625
-4.96750e-02,-0.0112031
-4.96740e-02,-0.0132188
-4.96730e-02,-0.0165156
-4.96720e-02,-0.0187969
-4.96710e-02,-0.0207813
-4.96700e-02,-0.0225781
-4.96690e-02,-0.0240938
-4.96680e-02,-0.028375
-4.96670e-02,-0.0309219
-4.96660e-02,-0.0324375
-4.96650e-02,-0.0352188
-4.96640e-02,-0.0370781
-4.96630e-02,-0.0392188
-4.96620e-02,-0.0408906
-4.96610e-02,-0.0436875
-4.96600e-02,-0.0468125
-4.96590e-02,-0.04925
-4.96580e-02,-0.0491094
-4.96570e-02,-0.0535313
-4.96560e-02,-0.0547656
-4.96550e-02,-0.0587813
-4.96540e-02,-0.0597656
-4.96530e-02,-0.063
-4.96520e-02,-0.0642656
-4.96510e-02,-0.0669688
-4.96500e-02,-0.0667813
-4.96490e-02,-0.0706563
-4.96480e-02,-0.0730312
-4.96470e-02,-0.0745
-4.96460e-02,-0.075875
-4.96450e-02,-0.078375
-4.96440e-02,-0.080375
-4.96430e-02,-0.0817813
-4.96420e-02,-0.0840781
-4.96410e-02,-0.0869375
-4.96400e-02,-0.08875
-4.96390e-02,-0.089625
-4.96380e-02,-0.0917969
-4.96370e-02,-0.09425
-4.96360e-02,-0.0920781
-4.96350e-02,-0.0951562
-4.96340e-02,-0.0970469
-4.96330e-02,-0.0975469
-4.96320e-02,-0.09925
-4.96310e-02,-0.10175
-4.96300e-02,-0.101984
-4.96290e-02,-0.102359
-4.96280e-02,-0.104125
-4.96270e-02,-0.103016
-4.96260e-02,-0.104641
-4.96250e-02,-0.106438
-4.96240e-02,-0.106906
-4.96230e-02,-0.107656
-4.96220e-02,-0.107969
-4.96210e-02,-0.109375
-4.96200e-02,-0.107734
-4.96190e-02,-0.110234
-4.96180e-02,-0.110266
-4.96170e-02,-0.109906
-4.96160e-02,-0.111094
-4.96150e-02,-0.1105
-4.96140e-02,-0.110687
-4.96130e-02,-0.112078
-4.96120e-02,-0.111734
-4.96110e-02,-0.112719
-4.96100e-02,-0.110469
-4.96090e-02,-0.111484
-4.96080e-02,-0.112172
-4.96070e-02,-0.111031
-4.96060e-02,-0.111391
-4.96050e-02,-0.109438
-4.96040e-02,-0.110953
-4.96030e-02,-0.109984
-4.96020e-02,-0.110594
-4.96010e-02,-0.109141
-4.96000e-02,-0.108641
-4.95990e-02,-0.107891
-4.95980e-02,-0.106422
-4.95970e-02,-0.106406
-4.95960e-02,-0.106734
-4.95950e-02,-0.105656
-4.95940e-02,-0.104359
-4.95930e-02,-0.102609
-4.95920e-02,-0.104688
-4.95910e-02,-0.101547
-4.95900e-02,-0.100844
-4.95890e-02,-0.100938
-4.95880e-02,-0.0970938
-4.95870e-02,-0.0977656
-4.95860e-02,-0.0967813
-4.95850e-02,-0.0964687
-4.95840e-02,-0.093375
-4.95830e-02,-0.09275
-4.95820e-02,-0.0920938
-4.95810e-02,-0.0891719
-4.95800e-02,-0.0890938
-4.95790e-02,-0.0875469
-4.95780e-02,-0.0854688
-4.95770e-02,-0.0841875
-4.95760e-02,-0.0819063
-4.95750e-02,-0.0815
-4.95740e-02,-0.0791563
-4.95730e-02,-0.076125
-4.95720e-02,-0.0766563
-4.95710e-02,-0.0740312
-4.95700e-02,-0.0720625
-4.95690e-02,-0.0714531
-4.95680e-02,-0.0685313
-4.95670e-02,-0.0668906
-4.95660e-02,-0.0644375
-4.95650e-02,-0.0630625
-4.95640e-02,-0.0614062
-4.95630e-02,-0.0574219
-4.95620e-02,-0.0560625
-4.95610e-02,-0.0551563
-4.95600e-02,-0.0527031
-4.95590e-02,-0.0479688
-4.95580e-02,-0.0485625
-4.95570e-02,-0.0442812
-4.95560e-02,-0.0428281
-4.95550e-02,-0.0392969
-4.95540e-02,-0.0374063
-4.95530e-02,-0.0341094
-4.95520e-02,-0.032875
-4.95510e-02,-0.031125
-4.95500e-02,-0.0286719
-4.95490e-02,-0.0252656
-4.95480e-02,-0.0215469
-4.95470e-02,-0.0197188
-4.95460e-02,-0.017
-4.95450e-02,-0.0144063
-4.95440e-02,-0.0121094
-4.95430e-02,-0.00896875
-4.95420e-02,-0.00579688
-4.95410e-02,-0.00290625
-4.95400e-02,-0.000828125
-4.95390e-02,0.00323438
-4.95380e-02,0.00540625
-4.95370e-02,0.010125
-4.95360e-02,0.0130625
-4.95350e-02,0.0144063
-4.95340e-02,0.0187812
-4.95330e-02,0.0222188
-4.95320e-02,0.0227188
-4.95310e-02,0.0270625
-4.95300e-02,0.0303438
-4.95290e-02,0.0323281
-4.95280e-02,0.0362344
-4.95270e-02,0.0375
-4.95260e-02,0.0418125
-4.95250e-02,0.0450625
-4.95240e-02,0.047
-4.95230e-02,0.0511562
-4.95220e-02,0.0531875
-4.95210e-02,0.0550469
-4.95200e-02,0.0580312
-4.95190e-02,0.0618437
-4.95180e-02,0.0645625
-4.95170e-02,0.0680937
-4.95160e-02,0.0706562
-4.95150e-02,0.0717187
-4.95140e-02,0.0737969
-4.95130e-02,0.0748906
-4.95120e-02,0.0798281
-4.95110e-02,0.0815
-4.95100e-02,0.0846875
-4.95090e-02,0.0865937
-4.95080e-02,0.0874062
-4.95070e-02,0.0900156
-4.95060e-02,0.0939375
-4.95050e-02,0.0954219
-4.95040e-02,0.0969844
-4.95030e-02,0.099625
-4.95020e-02,0.100875
-4.95010e-02,0.103203
-4.95000e-02,0.102812
-4.94990e-02,0.105516
-4.94980e-02,0.105906
-4.94970e-02,0.10925
-4.94960e-02,0.109078
-4.94950e-02,0.109734
-4.94940e-02,0.111375
-4.94930e-02,0.112828
-4.94920e-02,0.114687
-4.94910e-02,0.11475
-4.94900e-02,0.116234
-4.94890e-02,0.11425
-4.94880e-02,0.115719
-4.94870e-02,0.115984
-4.94860e-02,0.114922
-4.94850e-02,0.116266
-4.94840e-02,0.114828
-4.94830e-02,0.116016
-4.94820e-02,0.115078
-4.94810e-02,0.1145
-4.94800e-02,0.114141
-4.94790e-02,0.114187
-4.94780e-02,0.113906
-4.94770e-02,0.112984
-4.94760e-02,0.111516
-4.94750e-02,0.111953
-4.94740e-02,0.109656
-4.94730e-02,0.10875
-4.94720e-02,0.107687
-4.94710e-02,0.105359
-4.94700e-02,0.105484
-4.94690e-02,0.102953
-4.94680e-02,0.103281
-4.94670e-02,0.0999687
-4.94660e-02,0.0986875
-4.94650e-02,0.0966562
-4.94640e-02,0.0939375
-4.94630e-02,0.0940156
-4.94620e-02,0.0922656
-4.94610e-02,0.0916719
-4.94600e-02,0.0883594
-4.94590e-02,0.0854062
-4.94580e-02,0.0850625
-4.94570e-02,0.0828125
-4.94560e-02,0.0811094
-4.94550e-02,0.0791094
-4.94540e-02,0.0745625
-4.94530e-02,0.0750312
-4.94520e-02,0.073375
-4.94510e-02,0.0683125
-4.94500e-02,0.0685469
-4.94490e-02,0.0656875
-4.94480e-02,0.0638906
-4.94470e-02,0.0600156
-4.94460e-02,0.0594219
-4.94450e-02,0.0571406
-4.94440e-02,0.0535781
-4.94430e-02,0.0530937
-4.94420e-02,0.0505781
-4.94410e-02,0.0473437
-4.94400e-02,0.04625
-4.94390e-02,0.0459062
-4.94380e-02,0.0411719
-4.94370e-02,0.0400312
-4.94360e-02,0.0384687
-4.94350e-02,0.0354844
-4.94340e-02,0.0327656
-4.94330e-02,0.0303594
-4.94320e-02,0.0276562
-4.94310e-02,0.0265313
-4.94300e-02,0.0244219
-4.94290e-02,0.0212656
-4.94280e-02,0.0186094
-4.94270e-02,0.0161719
-4.94260e-02,0.0137969
-4.94250e-02,0.01225
-4.94240e-02,0.0102344
-4.94230e-02,0.00865625
-4.94220e-02,0.0059375
-4.94210e-02,0.00448437
-4.94200e-02,0.00148437
-4.94190e-02,0.000765625
-4.94180e-02,-0.00209375
-4.94170e-02,-0.0045625
-4.94160e-02,-0.00726562
-4.94150e-02,-0.00946875
-4.94140e-02,-0.00960938
-4.94130e-02,-0.0126563
-4.94120e-02,-0.0154531
-4.94110e-02,-0.0171563
-4.94100e-02,-0.0209844
-4.94090e-02,-0.0236875
-4.94080e-02,-0.0245313
-4.94070e-02,-0.0279375
-4.94060e-02,-0.0292031
-4.94050e-02,-0.0319687
-4.94040e-02,-0.0333438
-4.94030e-02,-0.0365156
-4.94020e-02,-0.0394375
-4.94010e-02,-0.0411094
-4.94000e-02,-0.042375
-4.93990e-02,-0.0460625
-4.93980e-02,-0.0468594
-4.93970e-02,-0.0508594
-4.93960e-02,-0.0529375
-4.93950e-02,-0.0557969
-4.93940e-02,-0.0586406
-4.93930e-02,-0.0588438
-4.93920e-02,-0.0625938
-4.93910e-02,-0.0649688
-4.93900e-02,-0.0651563
-4.93890e-02,-0.0682031
-4.93880e-02,-0.0717344
-4.93870e-02,-0.0735781
-4.93860e-02,-0.0766406
-4.93850e-02,-0.0760781
-4.93840e-02,-0.0797656
-4.93830e-02,-0.0800781
-4.93820e-02,-0.0823594
-4.93810e-02,-0.0833281
-4.93800e-02,-0.0855625
-4.93790e-02,-0.0876562
-4.93780e-02,-0.0905
-4.93770e-02,-0.0908438
-4.93760e-02,-0.0937969
-4.93750e-02,-0.0941562
-4.93740e-02,-0.0951094
-4.93730e-02,-0.0975
-4.93720e-02,-0.0975625
-4.93710e-02,-0.0984063
-4.93700e-02,-0.100859
-4.93690e-02,-0.101375
-4.93680e-02,-0.101391
-4.93670e-02,-0.103234
-4.93660e-02,-0.104625
-4.93650e-02,-0.105438
-4.93640e-02,-0.106844
-4.93630e-02,-0.106484
-4.93620e-02,-0.108
-4.93610e-02,-0.107672
-4.93600e-02,-0.108438
-4.93590e-02,-0.110047
-4.93580e-02,-0.109797
-4.93570e-02,-0.111031
-4.93560e-02,-0.110063
-4.93550e-02,-0.11125
-4.93540e-02,-0.112125
-4.93530e-02,-0.112047
-4.93520e-02,-0.110875
-4.93510e-02,-0.112891
-4.93500e-02,-0.110031
-4.93490e-02,-0.111938
-4.93480e-02,-0.111313
-4.93470e-02,-0.111375
-4.93460e-02,-0.111313
-4.93450e-02,-0.11125
-4.93440e-02,-0.109344
-4.93430e-02,-0.111641
-4.93420e-02,-0.109813
-4.93410e-02,-0.109563
-4.93400e-02,-0.109625
-4.93390e-02,-0.1095
-4.93380e-02,-0.107594
-4.93370e-02,-0.10725
-4.93360e-02,-0.106344
-4.93350e-02,-0.107109
-4.93340e-02,-0.105391
-4.93330e-02,-0.1035
-4.93320e-02,-0.102891
-4.93310e-02,-0.102484
-4.93300e-02,-0.101813
-4.93290e-02,-0.100594
-4.93280e-02,-0.100188
-4.93270e-02,-0.0996719
-4.93260e-02,-0.0986563
-4.93250e-02,-0.0969687
-4.93240e-02,-0.0944844
-4.93230e-02,-0.0914531
-4.93220e-02,-0.0932031
-4.93210e-02,-0.091875
-4.93200e-02,-0.0900781
-4.93190e-02,-0.0872344
-4.93180e-02,-0.0886562
-4.93170e-02,-0.0865313
-4.93160e-02,-0.0838594
-4.93150e-02,-0.0819531
-4.93140e-02,-0.0798906
-4.93130e-02,-0.0782969
-4.93120e-02,-0.0789844
-4.93110e-02,-0.0767656
-4.93100e-02,-0.0740312
-4.93090e-02,-0.0720938
-4.93080e-02,-0.0704531
-4.93070e-02,-0.0677344
-4.93060e-02,-0.0663594
-4.93050e-02,-0.0644219
-4.93040e-02,-0.06325
-4.93030e-02,-0.0604844
-4.93020e-02,-0.0575937
-4.93010e-02,-0.057625
-4.93000e-02,-0.0532969
-4.92990e-02,-0.0519219
-4.92980e-02,-0.0492812
-4.92970e-02,-0.0470469
-4.92960e-02,-0.0439844
-4.92950e-02,-0.0419219
-4.92940e-02,-0.0415
-4.92930e-02,-0.0368281
-4.92920e-02,-0.03675
-4.92910e-02,-0.0323594
-4.92900e-02,-0.0312344
-4.92890e-02,-0.0273281
-4.92880e-02,-0.0245156
-4.92870e-02,-0.0232344
-4.92860e-02,-0.0194063
-4.92850e-02,-0.0181406
-4.92840e-02,-0.0145781
-4.92830e-02,-0.0128906
-4.92820e-02,-0.00851563
-4.92810e-02,-0.00725
-4.92800e-02,-0.00270313
-4.92790e-02,-0.00078125
-4.92780e-02,0.00214063
-4.92770e-02,0.00535937
-4.92760e-02,0.00975
-4.92750e-02,0.0122031
-4.92740e-02,0.0149687
-4.92730e-02,0.0153281
-4.92720e-02,0.0204687
-4.92710e-02,0.0229062
-4.92700e-02,0.0260937
-4.92690e-02,0.02975
-4.92680e-02,0.0328281
-4.92670e-02,0.0370312
-4.92660e-02,0.0392812
-4.92650e-02,0.0407187
-4.92640e-02,0.0448125
-4.92630e-02,0.0483906
-4.92620e-02,0.0505312
-4.92610e-02,0.0538906
-4.92600e-02,0.056625
-4.92590e-02,0.0574844
-4.92580e-02,0.06175
-4.92570e-02,0.0634531
-4.92560e-02,0.0672344
-4.92550e-02,0.069
-4.92540e-02,0.072375
-4.92530e-02,0.075625
-4.92520e-02,0.0780469
-4.92510e-02,0.0799687
-4.92500e-02,0.0819844
-4.92490e-02,0.0839531
