A246/A264/Exercise 4/Saturation/0.512/tek0000CH2.csv

Model,DPO4104
Firmware Version,2.68

Waveform Type,ANALOG
Point Format,Y
Horizontal Units,s
Horizontal Scale,0.01
Horizontal Delay,-0.0001
Sample Interval,1e-06
Record Length,100000
Gating,0.0% to 100.0%
Probe Attenuation,0.2
Vertical Units,V
Vertical Offset,-0.812
Vertical Scale,0.02
Vertical Position,-5
,
,
,
Label,
TIME,CH2
-5.01000e-02,-0.720656
-5.00990e-02,-0.720484
-5.00980e-02,-0.720694
-5.00970e-02,-0.720413
-5.00960e-02,-0.720363
-5.00950e-02,-0.720372
-5.00940e-02,-0.720603
-5.00930e-02,-0.720378
-5.00920e-02,-0.720456
-5.00910e-02,-0.720859
-5.00900e-02,-0.720891
-5.00890e-02,-0.720784
-5.00880e-02,-0.720422
-5.00870e-02,-0.720403
-5.00860e-02,-0.720672
-5.00850e-02,-0.720738
-5.00840e-02,-0.720503
-5.00830e-02,-0.720353
-5.00820e-02,-0.720478
-5.00810e-02,-0.720469
-5.00800e-02,-0.720344
-5.00790e-02,-0.720378
-5.00780e-02,-0.720553
-5.00770e-02,-0.720694
-5.00760e-02,-0.720388
-5.00750e-02,-0.720731
-5.00740e-02,-0.720413
-5.00730e-02,-0.720678
-5.00720e-02,-0.720806
-5.00710e-02,-0.721
-5.00700e-02,-0.720584
-5.00690e-02,-0.720622
-5.00680e-02,-0.720738
-5.00670e-02,-0.720969
-5.00660e-02,-0.720616
-5.00650e-02,-0.720519
-5.00640e-02,-0.720659
-5.00630e-02,-0.720544
-5.00620e-02,-0.720659
-5.00610e-02,-0.720588
-5.00600e-02,-0.720759
-5.00590e-02,-0.720747
-5.00580e-02,-0.721131
-5.00570e-02,-0.720825
-5.00560e-02,-0.720731
-5.00550e-02,-0.720563
-5.00540e-02,-0.720666
-5.00530e-02,-0.720988
-5.00520e-02,-0.721197
-5.00510e-02,-0.720588
-5.00500e-02,-0.720844
-5.00490e-02,-0.720878
-5.00480e-02,-0.720809
-5.00470e-02,-0.720669
-5.00460e-02,-0.721084
-5.00450e-02,-0.720909
-5.00440e-02,-0.720656
-5.00430e-02,-0.720709
-5.00420e-02,-0.721034
-5.00410e-02,-0.720588
-5.00400e-02,-0.720909
-5.00390e-02,-0.720806
-5.00380e-02,-0.720844
-5.00370e-02,-0.720997
-5.00360e-02,-0.720963
-5.00350e-02,-0.721147
-5.00340e-02,-0.7211
-5.00330e-02,-0.720816
-5.00320e-02,-0.721053
-5.00310e-02,-0.720666
-5.00300e-02,-0.721106
-5.00290e-02,-0.721097
-5.00280e-02,-0.721088
-5.00270e-02,-0.721219
-5.00260e-02,-0.721166
-5.00250e-02,-0.721191
-5.00240e-02,-0.720916
-5.00230e-02,-0.720781
-5.00220e-02,-0.721138
-5.00210e-02,-0.721125
-5.00200e-02,-0.721178
-5.00190e-02,-0.721138
-5.00180e-02,-0.721
-5.00170e-02,-0.721122
-5.00160e-02,-0.721128
-5.00150e-02,-0.721253
-5.00140e-02,-0.721266
-5.00130e-02,-0.721241
-5.00120e-02,-0.721269
-5.00110e-02,-0.721406
-5.00100e-02,-0.721453
-5.00090e-02,-0.721206
-5.00080e-02,-0.721319
-5.00070e-02,-0.721138
-5.00060e-02,-0.721184
-5.00050e-02,-0.721397
-5.00040e-02,-0.721425
-5.00030e-02,-0.721363
-5.00020e-02,-0.721556
-5.00010e-02,-0.721441
-5.00000e-02,-0.721634
-4.99990e-02,-0.7217
-4.99980e-02,-0.721622
-4.99970e-02,-0.721434
-4.99960e-02,-0.721378
-4.99950e-02,-0.721659
-4.99940e-02,-0.721438
-4.99930e-02,-0.721525
-4.99920e-02,-0.721294
-4.99910e-02,-0.721141
-4.99900e-02,-0.721541
-4.99890e-02,-0.721422
-4.99880e-02,-0.721491
-4.99870e-02,-0.721497
-4.99860e-02,-0.721338
-4.99850e-02,-0.721547
-4.99840e-02,-0.721813
-4.99830e-02,-0.72165
-4.99820e-02,-0.72155
-4.99810e-02,-0.721597
-4.99800e-02,-0.721728
-4.99790e-02,-0.721506
-4.99780e-02,-0.721528
-4.99770e-02,-0.721844
-4.99760e-02,-0.721803
-4.99750e-02,-0.721997
-4.99740e-02,-0.721488
-4.99730e-02,-0.721834
-4.99720e-02,-0.7218
-4.99710e-02,-0.721997
-4.99700e-02,-0.721959
-4.99690e-02,-0.721878
-4.99680e-02,-0.72165
-4.99670e-02,-0.721688
-4.99660e-02,-0.721938
-4.99650e-02,-0.721984
-4.99640e-02,-0.721725
-4.99630e-02,-0.721744
-4.99620e-02,-0.721819
-4.99610e-02,-0.722053
-4.99600e-02,-0.721869
-4.99590e-02,-0.721903
-4.99580e-02,-0.722013
-4.99570e-02,-0.721566
-4.99560e-02,-0.721809
-4.99550e-02,-0.721872
-4.99540e-02,-0.722003
-4.99530e-02,-0.721928
-4.99520e-02,-0.721872
-4.99510e-02,-0.722
-4.99500e-02,-0.72205
-4.99490e-02,-0.722081
-4.99480e-02,-0.722259
-4.99470e-02,-0.721738
-4.99460e-02,-0.722097
-4.99450e-02,-0.721756
-4.99440e-02,-0.722428
-4.99430e-02,-0.721806
-4.99420e-02,-0.721988
-4.99410e-02,-0.721894
-4.99400e-02,-0.721875
-4.99390e-02,-0.72185
-4.99380e-02,-0.721744
-4.99370e-02,-0.722197
-4.99360e-02,-0.722206
-4.99350e-02,-0.722238
-4.99340e-02,-0.722269
-4.99330e-02,-0.722281
-4.99320e-02,-0.722122
-4.99310e-02,-0.722113
-4.99300e-02,-0.722128
-4.99290e-02,-0.722403
-4.99280e-02,-0.722238
-4.99270e-02,-0.722575
-4.99260e-02,-0.722281
-4.99250e-02,-0.722256
-4.99240e-02,-0.722431
-4.99230e-02,-0.721934
-4.99220e-02,-0.722394
-4.99210e-02,-0.722113
-4.99200e-02,-0.722381
-4.99190e-02,-0.722306
-4.99180e-02,-0.722416
-4.99170e-02,-0.722638
-4.99160e-02,-0.722244
-4.99150e-02,-0.7223
-4.99140e-02,-0.722228
-4.99130e-02,-0.722216
-4.99120e-02,-0.722616
-4.99110e-02,-0.722034
-4.99100e-02,-0.722575
-4.99090e-02,-0.7223
-4.99080e-02,-0.722522
-4.99070e-02,-0.722563
-4.99060e-02,-0.722466
-4.99050e-02,-0.722581
-4.99040e-02,-0.722316
-4.99030e-02,-0.722613
-4.99020e-02,-0.722466
-4.99010e-02,-0.722578
-4.99000e-02,-0.722419
-4.98990e-02,-0.722609
-4.98980e-02,-0.722475
-4.98970e-02,-0.722388
-4.98960e-02,-0.722434
-4.98950e-02,-0.722438
-4.98940e-02,-0.722803
-4.98930e-02,-0.722841
-4.98920e-02,-0.722653
-4.98910e-02,-0.722678
-4.98900e-02,-0.7226
-4.98890e-02,-0.722553
-4.98880e-02,-0.722544
-4.98870e-02,-0.722647
-4.98860e-02,-0.722616
-4.98850e-02,-0.722669
-4.98840e-02,-0.722947
-4.98830e-02,-0.722716
-4.98820e-02,-0.72265
-4.98810e-02,-0.722666
-4.98800e-02,-0.722944
-4.98790e-02,-0.722913
-4.98780e-02,-0.722841
-4.98770e-02,-0.722791
-4.98760e-02,-0.722944
-4.98750e-02,-0.722663
-4.98740e-02,-0.722641
-4.98730e-02,-0.72275
-4.98720e-02,-0.722459
-4.98710e-02,-0.722706
-4.98700e-02,-0.722681
-4.98690e-02,-0.722781
-4.98680e-02,-0.722928
-4.98670e-02,-0.722819
-4.98660e-02,-0.723134
-4.98650e-02,-0.722856
-4.98640e-02,-0.722928
-4.98630e-02,-0.722966
-4.98620e-02,-0.722781
-4.98610e-02,-0.72275
-4.98600e-02,-0.722763
-4.98590e-02,-0.722963
-4.98580e-02,-0.723016
-4.98570e-02,-0.722688
-4.98560e-02,-0.722909
-4.98550e-02,-0.722881
-4.98540e-02,-0.722919
-4.98530e-02,-0.722981
-4.98520e-02,-0.722666
-4.98510e-02,-0.723084
-4.98500e-02,-0.722919
-4.98490e-02,-0.72315
-4.98480e-02,-0.722838
-4.98470e-02,-0.723269
-4.98460e-02,-0.722981
-4.98450e-02,-0.722869
-4.98440e-02,-0.722941
-4.98430e-02,-0.723081
-4.98420e-02,-0.723041
-4.98410e-02,-0.723097
-4.98400e-02,-0.723203
-4.98390e-02,-0.723006
-4.98380e-02,-0.722613
-4.98370e-02,-0.722841
-4.98360e-02,-0.723028
-4.98350e-02,-0.723169
-4.98340e-02,-0.723063
-4.98330e-02,-0.722975
-4.98320e-02,-0.723034
-4.98310e-02,-0.722925
-4.98300e-02,-0.722916
-4.98290e-02,-0.722991
-4.98280e-02,-0.723284
-4.98270e-02,-0.723022
-4.98260e-02,-0.723431
-4.98250e-02,-0.723241
-4.98240e-02,-0.723019
-4.98230e-02,-0.723213
-4.98220e-02,-0.722791
-4.98210e-02,-0.723319
-4.98200e-02,-0.722941
-4.98190e-02,-0.723003
-4.98180e-02,-0.723113
-4.98170e-02,-0.723113
-4.98160e-02,-0.722947
-4.98150e-02,-0.723194
-4.98140e-02,-0.723028
-4.98130e-02,-0.723213
-4.98120e-02,-0.723044
-4.98110e-02,-0.722941
-4.98100e-02,-0.723088
-4.98090e-02,-0.72325
-4.98080e-02,-0.723206
-4.98070e-02,-0.723097
-4.98060e-02,-0.722863
-4.98050e-02,-0.723178
-4.98040e-02,-0.722975
-4.98030e-02,-0.722981
-4.98020e-02,-0.723325
-4.98010e-02,-0.723159
-4.98000e-02,-0.723113
-4.97990e-02,-0.723416
-4.97980e-02,-0.72335
-4.97970e-02,-0.723306
-4.97960e-02,-0.723219
-4.97950e-02,-0.723166
-4.97940e-02,-0.723425
-4.97930e-02,-0.723238
-4.97920e-02,-0.723175
-4.97910e-02,-0.723253
-4.97900e-02,-0.723413
-4.97890e-02,-0.723163
-4.97880e-02,-0.722838
-4.97870e-02,-0.723188
-4.97860e-02,-0.723378
-4.97850e-02,-0.722988
-4.97840e-02,-0.723088
-4.97830e-02,-0.723322
-4.97820e-02,-0.72345
-4.97810e-02,-0.723009
-4.97800e-02,-0.723066
-4.97790e-02,-0.723228
-4.97780e-02,-0.723491
-4.97770e-02,-0.7231
-4.97760e-02,-0.723125
-4.97750e-02,-0.72345
-4.97740e-02,-0.72335
-4.97730e-02,-0.723238
-4.97720e-02,-0.723309
-4.97710e-02,-0.723206
-4.97700e-02,-0.723153
-4.97690e-02,-0.723356
-4.97680e-02,-0.723419
-4.97670e-02,-0.723028
-4.97660e-02,-0.723456
-4.97650e-02,-0.723281
-4.97640e-02,-0.7231
-4.97630e-02,-0.723222
-4.97620e-02,-0.723269
-4.97610e-02,-0.723306
-4.97600e-02,-0.723278
-4.97590e-02,-0.723347
-4.97580e-02,-0.722975
-4.97570e-02,-0.723328
-4.97560e-02,-0.723163
-4.97550e-02,-0.723378
-4.97540e-02,-0.723506
-4.97530e-02,-0.723097
-4.97520e-02,-0.723384
-4.97510e-02,-0.723203
-4.97500e-02,-0.723384
-4.97490e-02,-0.7233
-4.97480e-02,-0.723378
-4.97470e-02,-0.723478
-4.97460e-02,-0.723284
-4.97450e-02,-0.723253
-4.97440e-02,-0.7234
-4.97430e-02,-0.723403
-4.97420e-02,-0.723369
-4.97410e-02,-0.723078
-4.97400e-02,-0.723094
-4.97390e-02,-0.723403
-4.97380e-02,-0.723306
-4.97370e-02,-0.723131
-4.97360e-02,-0.723241
-4.97350e-02,-0.723078
-4.97340e-02,-0.723238
-4.97330e-02,-0.723141
-4.97320e-02,-0.723113
-4.97310e-02,-0.723091
-4.97300e-02,-0.723616
-4.97290e-02,-0.723331
-4.97280e-02,-0.723303
-4.97270e-02,-0.723019
-4.97260e-02,-0.723331
-4.97250e-02,-0.723372
-4.97240e-02,-0.723166
-4.97230e-02,-0.723309
-4.97220e-02,-0.723447
-4.97210e-02,-0.723188
-4.97200e-02,-0.723238
-4.97190e-02,-0.723266
-4.97180e-02,-0.72345
-4.97170e-02,-0.723394
-4.97160e-02,-0.723309
-4.97150e-02,-0.723228
-4.97140e-02,-0.723172
-4.97130e-02,-0.723269
-4.97120e-02,-0.723122
-4.97110e-02,-0.723138
-4.97100e-02,-0.723141
-4.97090e-02,-0.723253
-4.97080e-02,-0.723309
-4.97070e-02,-0.723363
-4.97060e-02,-0.723275
-4.97050e-02,-0.723322
-4.97040e-02,-0.723244
-4.97030e-02,-0.723091
-4.97020e-02,-0.723013
-4.97010e-02,-0.723178
-4.97000e-02,-0.723325
-4.96990e-02,-0.723344
-4.96980e-02,-0.723388
-4.96970e-02,-0.723081
-4.96960e-02,-0.723388
-4.96950e-02,-0.723188
-4.96940e-02,-0.723231
-4.96930e-02,-0.723122
-4.96920e-02,-0.723341
-4.96910e-02,-0.723163
-4.96900e-02,-0.723478
-4.96890e-02,-0.722991
-4.96880e-02,-0.723484
-4.96870e-02,-0.723303
-4.96860e-02,-0.723475
-4.96850e-02,-0.723381
-4.96840e-02,-0.723344
-4.96830e-02,-0.723459
-4.96820e-02,-0.723394
-4.96810e-02,-0.722988
-4.96800e-02,-0.723294
-4.96790e-02,-0.723113
-4.96780e-02,-0.723322
-4.96770e-02,-0.7233
-4.96760e-02,-0.723263
-4.96750e-02,-0.723172
-4.96740e-02,-0.723294
-4.96730e-02,-0.723234
-4.96720e-02,-0.723041
-4.96710e-02,-0.723341
-4.96700e-02,-0.723056
-4.96690e-02,-0.723663
-4.96680e-02,-0.723409
-4.96670e-02,-0.723547
-4.96660e-02,-0.723341
-4.96650e-02,-0.723091
-4.96640e-02,-0.723166
-4.96630e-02,-0.723369
-4.96620e-02,-0.723566
-4.96610e-02,-0.723316
-4.96600e-02,-0.723191
-4.96590e-02,-0.723191
-4.96580e-02,-0.723159
-4.96570e-02,-0.723478
-4.96560e-02,-0.723372
-4.96550e-02,-0.723447
-4.96540e-02,-0.723369
-4.96530e-02,-0.723134
-4.96520e-02,-0.723344
-4.96510e-02,-0.723288
-4.96500e-02,-0.723344
-4.96490e-02,-0.7233
-4.96480e-02,-0.723256
-4.96470e-02,-0.723384
-4.96460e-02,-0.723344
-4.96450e-02,-0.722959
-4.96440e-02,-0.723659
-4.96430e-02,-0.723175
-4.96420e-02,-0.7233
-4.96410e-02,-0.723338
-4.96400e-02,-0.723266
-4.96390e-02,-0.723328
-4.96380e-02,-0.723303
-4.96370e-02,-0.723578
-4.96360e-02,-0.723369
-4.96350e-02,-0.723441
-4.96340e-02,-0.723456
-4.96330e-02,-0.723359
-4.96320e-02,-0.723794
-4.96310e-02,-0.723425
-4.96300e-02,-0.723431
-4.96290e-02,-0.723266
-4.96280e-02,-0.723556
-4.96270e-02,-0.723531
-4.96260e-02,-0.723534
-4.96250e-02,-0.72345
-4.96240e-02,-0.723497
-4.96230e-02,-0.723803
-4.96220e-02,-0.723303
-4.96210e-02,-0.723563
-4.96200e-02,-0.723591
-4.96190e-02,-0.723494
-4.96180e-02,-0.723372
-4.96170e-02,-0.723584
-4.96160e-02,-0.723353
-4.96150e-02,-0.723781
-4.96140e-02,-0.723756
-4.96130e-02,-0.723516
-4.96120e-02,-0.723516
-4.96110e-02,-0.723569
-4.96100e-02,-0.723647
-4.96090e-02,-0.723778
-4.96080e-02,-0.723622
-4.96070e-02,-0.723453
-4.96060e-02,-0.723488
-4.96050e-02,-0.723741
-4.96040e-02,-0.723263
-4.96030e-02,-0.723816
-4.96020e-02,-0.723781
-4.96010e-02,-0.723678
-4.96000e-02,-0.723756
-4.95990e-02,-0.723572
-4.95980e-02,-0.723859
-4.95970e-02,-0.723647
-4.95960e-02,-0.723638
-4.95950e-02,-0.723822
-4.95940e-02,-0.723388
-4.95930e-02,-0.723509
-4.95920e-02,-0.723541
-4.95910e-02,-0.723297
-4.95900e-02,-0.723644
-4.95890e-02,-0.723772
-4.95880e-02,-0.723772
-4.95870e-02,-0.723922
-4.95860e-02,-0.723834
-4.95850e-02,-0.723441
-4.95840e-02,-0.723572
-4.95830e-02,-0.723759
-4.95820e-02,-0.723519
-4.95810e-02,-0.724034
-4.95800e-02,-0.723769
-4.95790e-02,-0.723956
-4.95780e-02,-0.723934
-4.95770e-02,-0.723903
-4.95760e-02,-0.723922
-4.95750e-02,-0.723791
-4.95740e-02,-0.723866
-4.95730e-02,-0.723666
-4.95720e-02,-0.723888
-4.95710e-02,-0.723725
-4.95700e-02,-0.723925
-4.95690e-02,-0.724109
-4.95680e-02,-0.723922
-4.95670e-02,-0.723634
-4.95660e-02,-0.724041
-4.95650e-02,-0.723966
-4.95640e-02,-0.723981
-4.95630e-02,-0.723684
-4.95620e-02,-0.724094
-4.95610e-02,-0.724047
-4.95600e-02,-0.723747
-4.95590e-02,-0.723619
-4.95580e-02,-0.723956
-4.95570e-02,-0.723806
-4.95560e-02,-0.724178
-4.95550e-02,-0.723666
-4.95540e-02,-0.723947
-4.95530e-02,-0.724125
-4.95520e-02,-0.724031
-4.95510e-02,-0.72385
-4.95500e-02,-0.723944
-4.95490e-02,-0.724147
-4.95480e-02,-0.724291
-4.95470e-02,-0.723838
-4.95460e-02,-0.724009
-4.95450e-02,-0.724341
-4.95440e-02,-0.724216
-4.95430e-02,-0.724081
-4.95420e-02,-0.724247
-4.95410e-02,-0.724075
-4.95400e-02,-0.724309
-4.95390e-02,-0.724156
-4.95380e-02,-0.724241
-4.95370e-02,-0.724075
-4.95360e-02,-0.724116
-4.95350e-02,-0.724481
-4.95340e-02,-0.724309
-4.95330e-02,-0.724131
-4.95320e-02,-0.724247
-4.95310e-02,-0.724544
-4.95300e-02,-0.724141
-4.95290e-02,-0.724406
-4.95280e-02,-0.724259
-4.95270e-02,-0.724125
-4.95260e-02,-0.724378
-4.95250e-02,-0.724206
-4.95240e-02,-0.724363
-4.95230e-02,-0.724513
-4.95220e-02,-0.724422
-4.95210e-02,-0.724284
-4.95200e-02,-0.724591
-4.95190e-02,-0.724478
-4.95180e-02,-0.724213
-4.95170e-02,-0.72455
-4.95160e-02,-0.7244
-4.95150e-02,-0.724509
-4.95140e-02,-0.724566
-4.95130e-02,-0.724513
-4.95120e-02,-0.724491
-4.95110e-02,-0.724447
-4.95100e-02,-0.724431
-4.95090e-02,-0.724631
-4.95080e-02,-0.724713
-4.95070e-02,-0.724647
-4.95060e-02,-0.724375
-4.95050e-02,-0.724663
-4.95040e-02,-0.724459
-4.95030e-02,-0.724669
-4.95020e-02,-0.724572
-4.95010e-02,-0.724597
-4.95000e-02,-0.724666
-4.94990e-02,-0.725022
-4.94980e-02,-0.724716
-4.94970e-02,-0.724778
-4.94960e-02,-0.724259
-4.94950e-02,-0.724675
-4.94940e-02,-0.724603
-4.94930e-02,-0.724684
-4.94920e-02,-0.724663
-4.94910e-02,-0.724481
-4.94900e-02,-0.724734
-4.94890e-02,-0.724913
-4.94880e-02,-0.724781
-4.94870e-02,-0.724588
-4.94860e-02,-0.7247
-4.94850e-02,-0.724806
-4.94840e-02,-0.724722
-4.94830e-02,-0.724534
-4.94820e-02,-0.724928
-4.94810e-02,-0.724697
-4.94800e-02,-0.724859
-4.94790e-02,-0.724831
-4.94780e-02,-0.724956
-4.94770e-02,-0.724822
-4.94760e-02,-0.724878
-4.94750e-02,-0.725203
-4.94740e-02,-0.725019
-4.94730e-02,-0.725178
-4.94720e-02,-0.725103
-4.94710e-02,-0.724881
-4.94700e-02,-0.725181
-4.94690e-02,-0.725328
-4.94680e-02,-0.725069
-4.94670e-02,-0.725581
-4.94660e-02,-0.725306
-4.94650e-02,-0.724894
-4.94640e-02,-0.725072
-4.94630e-02,-0.725263
-4.94620e-02,-0.724891
-4.94610e-02,-0.725481
-4.94600e-02,-0.7253
-4.94590e-02,-0.724981
-4.94580e-02,-0.725134
-4.94570e-02,-0.725222
-4.94560e-02,-0.725303
-4.94550e-02,-0.725475
-4.94540e-02,-0.725275
-4.94530e-02,-0.725238
-4.94520e-02,-0.725316
-4.94510e-02,-0.725075
-4.94500e-02,-0.725541
-4.94490e-02,-0.725178
-4.94480e-02,-0.725625
-4.94470e-02,-0.725403
-4.94460e-02,-0.725509
-4.94450e-02,-0.725375
-4.94440e-02,-0.725613
-4.94430e-02,-0.725297
-4.94420e-02,-0.725381
-4.94410e-02,-0.725503
-4.94400e-02,-0.725369
-4.94390e-02,-0.725306
-4.94380e-02,-0.725491
-4.94370e-02,-0.725622
-4.94360e-02,-0.725388
-4.94350e-02,-0.725241
-4.94340e-02,-0.7259
-4.94330e-02,-0.725463
-4.94320e-02,-0.72585
-4.94310e-02,-0.7254
-4.94300e-02,-0.725731
-4.94290e-02,-0.725531
-4.94280e-02,-0.72565
-4.94270e-02,-0.725659
-4.94260e-02,-0.725678
-4.94250e-02,-0.725491
-4.94240e-02,-0.725388
-4.94230e-02,-0.725666
-4.94220e-02,-0.725628
-4.94210e-02,-0.725941
-4.94200e-02,-0.725781
-4.94190e-02,-0.725734
-4.94180e-02,-0.725659
-4.94170e-02,-0.725944
-4.94160e-02,-0.725778
-4.94150e-02,-0.725869
-4.94140e-02,-0.725659
-4.94130e-02,-0.725709
-4.94120e-02,-0.725688
-4.94110e-02,-0.725869
-4.94100e-02,-0.725691
-4.94090e-02,-0.726006
-4.94080e-02,-0.72575
-4.94070e-02,-0.725847
-4.94060e-02,-0.725928
-4.94050e-02,-0.726247
-4.94040e-02,-0.7258
-4.94030e-02,-0.726069
-4.94020e-02,-0.725716
-4.94010e-02,-0.725934
-4.94000e-02,-0.726131
-4.93990e-02,-0.725828
-4.93980e-02,-0.725809
-4.93970e-02,-0.726003
-4.93960e-02,-0.72585
-4.93950e-02,-0.726094
-4.93940e-02,-0.726038
-4.93930e-02,-0.725963
-4.93920e-02,-0.726072
-4.93910e-02,-0.726188
-4.93900e-02,-0.725816
-4.93890e-02,-0.725888
-4.93880e-02,-0.726166
-4.93870e-02,-0.725816
-4.93860e-02,-0.726034
-4.93850e-02,-0.725959
-4.93840e-02,-0.725897
-4.93830e-02,-0.7261
-4.93820e-02,-0.726006
-4.93810e-02,-0.726009
-4.93800e-02,-0.726284
-4.93790e-02,-0.726
-4.93780e-02,-0.726072
-4.93770e-02,-0.726213
-4.93760e-02,-0.726216
-4.93750e-02,-0.726425
-4.93740e-02,-0.726325
-4.93730e-02,-0.726291
-4.93720e-02,-0.726191
-4.93710e-02,-0.726172
-4.93700e-02,-0.726397
-4.93690e-02,-0.726038
-4.93680e-02,-0.726456
-4.93670e-02,-0.726141
-4.93660e-02,-0.72625
-4.93650e-02,-0.726141
-4.93640e-02,-0.726241
-4.93630e-02,-0.726247
-4.93620e-02,-0.726169
-4.93610e-02,-0.726213
-4.93600e-02,-0.726391
-4.93590e-02,-0.726344
-4.93580e-02,-0.726494
-4.93570e-02,-0.726125
-4.93560e-02,-0.726291
-4.93550e-02,-0.726413
-4.93540e-02,-0.726156
-4.93530e-02,-0.726297
-4.93520e-02,-0.726141
-4.93510e-02,-0.726
-4.93500e-02,-0.726269
-4.93490e-02,-0.726147
-4.93480e-02,-0.726231
-4.93470e-02,-0.72595
-4.93460e-02,-0.726369
-4.93450e-02,-0.72645
-4.93440e-02,-0.726044
-4.93430e-02,-0.725966
-4.93420e-02,-0.72625
-4.93410e-02,-0.726109
-4.93400e-02,-0.726731
-4.93390e-02,-0.726438
-4.93380e-02,-0.726472
-4.93370e-02,-0.726584
-4.93360e-02,-0.72645
-4.93350e-02,-0.726556
-4.93340e-02,-0.726188
-4.93330e-02,-0.726281
-4.93320e-02,-0.726609
-4.93310e-02,-0.726825
-4.93300e-02,-0.726559
-4.93290e-02,-0.726422
-4.93280e-02,-0.726284
-4.93270e-02,-0.726497
-4.93260e-02,-0.726613
-4.93250e-02,-0.726328
-4.93240e-02,-0.726397
-4.93230e-02,-0.726269
-4.93220e-02,-0.726503
-4.93210e-02,-0.726578
-4.93200e-02,-0.726797
-4.93190e-02,-0.726334
-4.93180e-02,-0.726334
-4.93170e-02,-0.726322
-4.93160e-02,-0.726778
-4.93150e-02,-0.726413
-4.93140e-02,-0.726388
-4.93130e-02,-0.726484
-4.93120e-02,-0.726281
-4.93110e-02,-0.726556
-4.93100e-02,-0.726528
-4.93090e-02,-0.726647
-4.93080e-02,-0.726359
-4.93070e-02,-0.726703
-4.93060e-02,-0.726656
-4.93050e-02,-0.726766
-4.93040e-02,-0.726669
-4.93030e-02,-0.726609
-4.93020e-02,-0.72655
-4.93010e-02,-0.726328
-4.93000e-02,-0.726697
-4.92990e-02,-0.726509
-4.92980e-02,-0.726534
-4.92970e-02,-0.726341
-4.92960e-02,-0.726363
-4.92950e-02,-0.72665
-4.92940e-02,-0.726553
-4.92930e-02,-0.726656
-4.92920e-02,-0.7267
-4.92910e-02,-0.726697
-4.92900e-02,-0.726559
-4.92890e-02,-0.726469
-4.92880e-02,-0.72665
-4.92870e-02,-0.726559
-4.92860e-02,-0.726969
-4.92850e-02,-0.726663
-4.92840e-02,-0.726253
-4.92830e-02,-0.726756
-4.92820e-02,-0.726497
-4.92810e-02,-0.726588
-4.92800e-02,-0.726678
-4.92790e-02,-0.7264
-4.92780e-02,-0.726563
-4.92770e-02,-0.726481
-4.92760e-02,-0.726656
-4.92750e-02,-0.726538
-4.92740e-02,-0.726219
-4.92730e-02,-0.726478
-4.92720e-02,-0.726778
-4.92710e-02,-0.726569
-4.92700e-02,-0.726747
-4.92690e-02,-0.726631
-4.92680e-02,-0.726822
-4.92670e-02,-0.726603
-4.92660e-02,-0.726694
-4.92650e-02,-0.72675
-4.92640e-02,-0.727025
-4.92630e-02,-0.726622
-4.92620e-02,-0.726625
-4.92610e-02,-0.726653
-4.92600e-02,-0.726594
-4.92590e-02,-0.726306
-4.92580e-02,-0.726581
-4.92570e-02,-0.726422
-4.92560e-02,-0.726619
-4.92550e-02,-0.726534
-4.92540e-02,-0.726625
-4.92530e-02,-0.726666
-4.92520e-02,-0.726891
-4.92510e-02,-0.726772
-4.92500e-02,-0.726638
-4.92490e-02,-0.72635
-4.92480e-02,-0.726716
-4.92470e-02,-0.726381
-4.92460e-02,-0.726713
-4.92450e-02,-0.726666
-4.92440e-02,-0.72675
-4.92430e-02,-0.726706
-4.92420e-02,-0.726459
