A246/A264/Beer Law/7 cm Vapor Cell/tek0000CH2.csv

Model,DPO4104
Firmware Version,2.68

Waveform Type,ANALOG
Point Format,Y
Horizontal Units,s
Horizontal Scale,0.01
Horizontal Delay,-0.0001
Sample Interval,1e-06
Record Length,100000
Gating,0.0% to 100.0%
Probe Attenuation,0.2
Vertical Units,V
Vertical Offset,-0.812
Vertical Scale,0.1
Vertical Position,-3.9
,
,
,
Label,
TIME,CH2
-5.01000e-02,-0.529875
-5.00990e-02,-0.528484
-5.00980e-02,-0.529078
-5.00970e-02,-0.528125
-5.00960e-02,-0.529516
-5.00950e-02,-0.529141
-5.00940e-02,-0.529516
-5.00930e-02,-0.528422
-5.00920e-02,-0.527469
-5.00910e-02,-0.527422
-5.00900e-02,-0.529313
-5.00890e-02,-0.529141
-5.00880e-02,-0.528625
-5.00870e-02,-0.527625
-5.00860e-02,-0.530734
-5.00850e-02,-0.528453
-5.00840e-02,-0.527469
-5.00830e-02,-0.529578
-5.00820e-02,-0.528141
-5.00810e-02,-0.529406
-5.00800e-02,-0.528844
-5.00790e-02,-0.526844
-5.00780e-02,-0.528672
-5.00770e-02,-0.529625
-5.00760e-02,-0.529125
-5.00750e-02,-0.529891
-5.00740e-02,-0.528141
-5.00730e-02,-0.529813
-5.00720e-02,-0.529453
-5.00710e-02,-0.529156
-5.00700e-02,-0.529797
-5.00690e-02,-0.529141
-5.00680e-02,-0.528438
-5.00670e-02,-0.52875
-5.00660e-02,-0.528219
-5.00650e-02,-0.529984
-5.00640e-02,-0.529875
-5.00630e-02,-0.529125
-5.00620e-02,-0.528563
-5.00610e-02,-0.529984
-5.00600e-02,-0.52875
-5.00590e-02,-0.527984
-5.00580e-02,-0.529594
-5.00570e-02,-0.530047
-5.00560e-02,-0.528281
-5.00550e-02,-0.527281
-5.00540e-02,-0.529875
-5.00530e-02,-0.527234
-5.00520e-02,-0.530188
-5.00510e-02,-0.528703
-5.00500e-02,-0.527406
-5.00490e-02,-0.528922
-5.00480e-02,-0.529594
-5.00470e-02,-0.528422
-5.00460e-02,-0.528578
-5.00450e-02,-0.529328
-5.00440e-02,-0.528281
-5.00430e-02,-0.527438
-5.00420e-02,-0.528859
-5.00410e-02,-0.528141
-5.00400e-02,-0.529094
-5.00390e-02,-0.530563
-5.00380e-02,-0.528375
-5.00370e-02,-0.527203
-5.00360e-02,-0.529688
-5.00350e-02,-0.530047
-5.00340e-02,-0.528344
-5.00330e-02,-0.5285
-5.00320e-02,-0.529344
-5.00310e-02,-0.528281
-5.00300e-02,-0.527906
-5.00290e-02,-0.528109
-5.00280e-02,-0.528688
-5.00270e-02,-0.528234
-5.00260e-02,-0.530781
-5.00250e-02,-0.528875
-5.00240e-02,-0.529984
-5.00230e-02,-0.52825
-5.00220e-02,-0.530703
-5.00210e-02,-0.528906
-5.00200e-02,-0.528375
-5.00190e-02,-0.5285
-5.00180e-02,-0.529984
-5.00170e-02,-0.528359
-5.00160e-02,-0.527953
-5.00150e-02,-0.529031
-5.00140e-02,-0.528844
-5.00130e-02,-0.528359
-5.00120e-02,-0.529125
-5.00110e-02,-0.529875
-5.00100e-02,-0.530219
-5.00090e-02,-0.528953
-5.00080e-02,-0.527984
-5.00070e-02,-0.528922
-5.00060e-02,-0.529688
-5.00050e-02,-0.528922
-5.00040e-02,-0.528984
-5.00030e-02,-0.528875
-5.00020e-02,-0.529297
-5.00010e-02,-0.53
-5.00000e-02,-0.528781
-4.99990e-02,-0.530406
-4.99980e-02,-0.529453
-4.99970e-02,-0.527938
-4.99960e-02,-0.527625
-4.99950e-02,-0.528938
-4.99940e-02,-0.529125
-4.99930e-02,-0.528125
-4.99920e-02,-0.530984
-4.99910e-02,-0.529625
-4.99900e-02,-0.528625
-4.99890e-02,-0.530203
-4.99880e-02,-0.530063
-4.99870e-02,-0.528703
-4.99860e-02,-0.529234
-4.99850e-02,-0.529047
-4.99840e-02,-0.529156
-4.99830e-02,-0.529406
-4.99820e-02,-0.530453
-4.99810e-02,-0.529188
-4.99800e-02,-0.52975
-4.99790e-02,-0.531047
-4.99780e-02,-0.529781
-4.99770e-02,-0.530703
-4.99760e-02,-0.529047
-4.99750e-02,-0.528922
-4.99740e-02,-0.529656
-4.99730e-02,-0.526938
-4.99720e-02,-0.529453
-4.99710e-02,-0.529594
-4.99700e-02,-0.527781
-4.99690e-02,-0.528891
-4.99680e-02,-0.529219
-4.99670e-02,-0.527781
-4.99660e-02,-0.530844
-4.99650e-02,-0.528641
-4.99640e-02,-0.529922
-4.99630e-02,-0.528891
-4.99620e-02,-0.530203
-4.99610e-02,-0.527953
-4.99600e-02,-0.527844
-4.99590e-02,-0.528531
-4.99580e-02,-0.529531
-4.99570e-02,-0.529875
-4.99560e-02,-0.529578
-4.99550e-02,-0.529734
-4.99540e-02,-0.528266
-4.99530e-02,-0.528563
-4.99520e-02,-0.529031
-4.99510e-02,-0.530641
-4.99500e-02,-0.529641
-4.99490e-02,-0.529031
-4.99480e-02,-0.529984
-4.99470e-02,-0.528859
-4.99460e-02,-0.530391
-4.99450e-02,-0.528125
-4.99440e-02,-0.529219
-4.99430e-02,-0.530781
-4.99420e-02,-0.529094
-4.99410e-02,-0.529188
-4.99400e-02,-0.530047
-4.99390e-02,-0.528219
-4.99380e-02,-0.529531
-4.99370e-02,-0.530328
-4.99360e-02,-0.529656
-4.99350e-02,-0.528484
-4.99340e-02,-0.5315
-4.99330e-02,-0.529547
-4.99320e-02,-0.529453
-4.99310e-02,-0.529688
-4.99300e-02,-0.529422
-4.99290e-02,-0.531031
-4.99280e-02,-0.529
-4.99270e-02,-0.529672
-4.99260e-02,-0.531219
-4.99250e-02,-0.530422
-4.99240e-02,-0.530438
-4.99230e-02,-0.529844
-4.99220e-02,-0.529141
-4.99210e-02,-0.529547
-4.99200e-02,-0.529547
-4.99190e-02,-0.530438
-4.99180e-02,-0.529969
-4.99170e-02,-0.529781
-4.99160e-02,-0.529703
-4.99150e-02,-0.530578
-4.99140e-02,-0.528031
-4.99130e-02,-0.530391
-4.99120e-02,-0.530016
-4.99110e-02,-0.530406
-4.99100e-02,-0.529281
-4.99090e-02,-0.528969
-4.99080e-02,-0.530156
-4.99070e-02,-0.530391
-4.99060e-02,-0.530359
-4.99050e-02,-0.529688
-4.99040e-02,-0.527266
-4.99030e-02,-0.530281
-4.99020e-02,-0.529062
-4.99010e-02,-0.529688
-4.99000e-02,-0.530563
-4.98990e-02,-0.531266
-4.98980e-02,-0.529625
-4.98970e-02,-0.528641
-4.98960e-02,-0.529625
-4.98950e-02,-0.530906
-4.98940e-02,-0.529797
-4.98930e-02,-0.529125
-4.98920e-02,-0.528484
-4.98910e-02,-0.528234
-4.98900e-02,-0.530875
-4.98890e-02,-0.53
-4.98880e-02,-0.529125
-4.98870e-02,-0.530938
-4.98860e-02,-0.529859
-4.98850e-02,-0.531844
-4.98840e-02,-0.529453
-4.98830e-02,-0.530906
-4.98820e-02,-0.531172
-4.98810e-02,-0.528547
-4.98800e-02,-0.530266
-4.98790e-02,-0.530016
-4.98780e-02,-0.529609
-4.98770e-02,-0.528578
-4.98760e-02,-0.531203
-4.98750e-02,-0.529344
-4.98740e-02,-0.530984
-4.98730e-02,-0.529875
-4.98720e-02,-0.529109
-4.98710e-02,-0.531375
-4.98700e-02,-0.530516
-4.98690e-02,-0.530656
-4.98680e-02,-0.530313
-4.98670e-02,-0.528984
-4.98660e-02,-0.531
-4.98650e-02,-0.529531
-4.98640e-02,-0.530453
-4.98630e-02,-0.529656
-4.98620e-02,-0.531
-4.98610e-02,-0.530297
-4.98600e-02,-0.530219
-4.98590e-02,-0.530563
-4.98580e-02,-0.529625
-4.98570e-02,-0.528375
-4.98560e-02,-0.529813
-4.98550e-02,-0.531406
-4.98540e-02,-0.530422
-4.98530e-02,-0.529422
-4.98520e-02,-0.531266
-4.98510e-02,-0.529828
-4.98500e-02,-0.529172
-4.98490e-02,-0.527781
-4.98480e-02,-0.529328
-4.98470e-02,-0.530391
-4.98460e-02,-0.531844
-4.98450e-02,-0.531156
-4.98440e-02,-0.529438
-4.98430e-02,-0.528391
-4.98420e-02,-0.530766
-4.98410e-02,-0.528797
-4.98400e-02,-0.530688
-4.98390e-02,-0.52975
-4.98380e-02,-0.527484
-4.98370e-02,-0.530625
-4.98360e-02,-0.530703
-4.98350e-02,-0.530266
-4.98340e-02,-0.530297
-4.98330e-02,-0.529734
-4.98320e-02,-0.531094
-4.98310e-02,-0.531688
-4.98300e-02,-0.530813
-4.98290e-02,-0.530969
-4.98280e-02,-0.529234
-4.98270e-02,-0.530406
-4.98260e-02,-0.530625
-4.98250e-02,-0.532781
-4.98240e-02,-0.530328
-4.98230e-02,-0.529703
-4.98220e-02,-0.528922
-4.98210e-02,-0.531078
-4.98200e-02,-0.530766
-4.98190e-02,-0.530094
-4.98180e-02,-0.529922
-4.98170e-02,-0.530391
-4.98160e-02,-0.531188
-4.98150e-02,-0.530594
-4.98140e-02,-0.529688
-4.98130e-02,-0.529953
-4.98120e-02,-0.531516
-4.98110e-02,-0.528781
-4.98100e-02,-0.529719
-4.98090e-02,-0.530609
-4.98080e-02,-0.529813
-4.98070e-02,-0.530594
-4.98060e-02,-0.529953
-4.98050e-02,-0.528906
-4.98040e-02,-0.529172
-4.98030e-02,-0.528969
-4.98020e-02,-0.530063
-4.98010e-02,-0.531156
-4.98000e-02,-0.531266
-4.97990e-02,-0.530328
-4.97980e-02,-0.530078
-4.97970e-02,-0.5305
-4.97960e-02,-0.530609
-4.97950e-02,-0.531328
-4.97940e-02,-0.529578
-4.97930e-02,-0.530266
-4.97920e-02,-0.531703
-4.97910e-02,-0.530281
-4.97900e-02,-0.531328
-4.97890e-02,-0.529875
-4.97880e-02,-0.531828
-4.97870e-02,-0.531156
-4.97860e-02,-0.531047
-4.97850e-02,-0.53125
-4.97840e-02,-0.529
-4.97830e-02,-0.530844
-4.97820e-02,-0.52975
-4.97810e-02,-0.529563
-4.97800e-02,-0.531094
-4.97790e-02,-0.531172
-4.97780e-02,-0.529484
-4.97770e-02,-0.531031
-4.97760e-02,-0.529703
-4.97750e-02,-0.529141
-4.97740e-02,-0.530813
-4.97730e-02,-0.529984
-4.97720e-02,-0.532172
-4.97710e-02,-0.531109
-4.97700e-02,-0.5315
-4.97690e-02,-0.530172
-4.97680e-02,-0.530688
-4.97670e-02,-0.529828
-4.97660e-02,-0.531469
-4.97650e-02,-0.532531
-4.97640e-02,-0.531
-4.97630e-02,-0.530031
-4.97620e-02,-0.530563
-4.97610e-02,-0.53025
-4.97600e-02,-0.530203
-4.97590e-02,-0.531484
-4.97580e-02,-0.529094
-4.97570e-02,-0.529938
-4.97560e-02,-0.531703
-4.97550e-02,-0.530219
-4.97540e-02,-0.530938
-4.97530e-02,-0.529422
-4.97520e-02,-0.529656
-4.97510e-02,-0.531406
-4.97500e-02,-0.530203
-4.97490e-02,-0.531078
-4.97480e-02,-0.531359
-4.97470e-02,-0.531484
-4.97460e-02,-0.530313
-4.97450e-02,-0.530859
-4.97440e-02,-0.530266
-4.97430e-02,-0.531703
-4.97420e-02,-0.529516
-4.97410e-02,-0.530906
-4.97400e-02,-0.530016
-4.97390e-02,-0.531406
-4.97380e-02,-0.531734
-4.97370e-02,-0.529188
-4.97360e-02,-0.530672
-4.97350e-02,-0.529609
-4.97340e-02,-0.530922
-4.97330e-02,-0.531047
-4.97320e-02,-0.530859
-4.97310e-02,-0.532578
-4.97300e-02,-0.531547
-4.97290e-02,-0.530984
-4.97280e-02,-0.529031
-4.97270e-02,-0.531469
-4.97260e-02,-0.530625
-4.97250e-02,-0.532141
-4.97240e-02,-0.531859
-4.97230e-02,-0.532797
-4.97220e-02,-0.529781
-4.97210e-02,-0.5295
-4.97200e-02,-0.531969
-4.97190e-02,-0.530484
-4.97180e-02,-0.530703
-4.97170e-02,-0.531375
-4.97160e-02,-0.529984
-4.97150e-02,-0.530297
-4.97140e-02,-0.532031
-4.97130e-02,-0.530219
-4.97120e-02,-0.530047
-4.97110e-02,-0.531438
-4.97100e-02,-0.531781
-4.97090e-02,-0.530781
-4.97080e-02,-0.529094
-4.97070e-02,-0.53175
-4.97060e-02,-0.531375
-4.97050e-02,-0.529891
-4.97040e-02,-0.530797
-4.97030e-02,-0.532078
-4.97020e-02,-0.530234
-4.97010e-02,-0.531406
-4.97000e-02,-0.531781
-4.96990e-02,-0.531078
-4.96980e-02,-0.531484
-4.96970e-02,-0.531453
-4.96960e-02,-0.531281
-4.96950e-02,-0.530891
-4.96940e-02,-0.53125
-4.96930e-02,-0.530359
-4.96920e-02,-0.532266
-4.96910e-02,-0.530891
-4.96900e-02,-0.531859
-4.96890e-02,-0.531125
-4.96880e-02,-0.531266
-4.96870e-02,-0.531375
-4.96860e-02,-0.529922
-4.96850e-02,-0.531188
-4.96840e-02,-0.530766
-4.96830e-02,-0.53175
-4.96820e-02,-0.533234
-4.96810e-02,-0.530813
-4.96800e-02,-0.531828
-4.96790e-02,-0.5325
-4.96780e-02,-0.531688
-4.96770e-02,-0.531422
-4.96760e-02,-0.530266
-4.96750e-02,-0.532047
-4.96740e-02,-0.530844
-4.96730e-02,-0.530266
-4.96720e-02,-0.529734
-4.96710e-02,-0.531188
-4.96700e-02,-0.530156
-4.96690e-02,-0.532328
-4.96680e-02,-0.531156
-4.96670e-02,-0.530547
-4.96660e-02,-0.531172
-4.96650e-02,-0.530813
-4.96640e-02,-0.533266
-4.96630e-02,-0.532094
-4.96620e-02,-0.529625
-4.96610e-02,-0.531484
-4.96600e-02,-0.53175
-4.96590e-02,-0.530813
-4.96580e-02,-0.531016
-4.96570e-02,-0.531016
-4.96560e-02,-0.530016
-4.96550e-02,-0.531031
-4.96540e-02,-0.530234
-4.96530e-02,-0.530281
-4.96520e-02,-0.532297
-4.96510e-02,-0.531297
-4.96500e-02,-0.531266
-4.96490e-02,-0.530969
-4.96480e-02,-0.532484
-4.96470e-02,-0.531672
-4.96460e-02,-0.531297
-4.96450e-02,-0.530859
-4.96440e-02,-0.531047
-4.96430e-02,-0.532172
-4.96420e-02,-0.531266
-4.96410e-02,-0.530797
-4.96400e-02,-0.532938
-4.96390e-02,-0.532703
-4.96380e-02,-0.531469
-4.96370e-02,-0.532953
-4.96360e-02,-0.530875
-4.96350e-02,-0.531234
-4.96340e-02,-0.5325
-4.96330e-02,-0.532766
-4.96320e-02,-0.532656
-4.96310e-02,-0.5315
-4.96300e-02,-0.531672
-4.96290e-02,-0.530469
-4.96280e-02,-0.531344
-4.96270e-02,-0.531203
-4.96260e-02,-0.531859
-4.96250e-02,-0.531359
-4.96240e-02,-0.531828
-4.96230e-02,-0.532859
-4.96220e-02,-0.532469
-4.96210e-02,-0.531
-4.96200e-02,-0.532438
-4.96190e-02,-0.531406
-4.96180e-02,-0.529188
-4.96170e-02,-0.531969
-4.96160e-02,-0.532406
-4.96150e-02,-0.532438
-4.96140e-02,-0.531031
-4.96130e-02,-0.532
-4.96120e-02,-0.531703
-4.96110e-02,-0.532953
-4.96100e-02,-0.530891
-4.96090e-02,-0.532234
-4.96080e-02,-0.530125
-4.96070e-02,-0.531297
-4.96060e-02,-0.532922
-4.96050e-02,-0.531703
-4.96040e-02,-0.531844
-4.96030e-02,-0.531672
-4.96020e-02,-0.533375
-4.96010e-02,-0.532969
-4.96000e-02,-0.530672
-4.95990e-02,-0.532063
-4.95980e-02,-0.531297
-4.95970e-02,-0.531141
-4.95960e-02,-0.531844
-4.95950e-02,-0.531734
-4.95940e-02,-0.532297
-4.95930e-02,-0.530484
-4.95920e-02,-0.533578
-4.95910e-02,-0.531844
-4.95900e-02,-0.532844
-4.95890e-02,-0.533109
-4.95880e-02,-0.532078
-4.95870e-02,-0.531188
-4.95860e-02,-0.53225
-4.95850e-02,-0.530391
-4.95840e-02,-0.532453
-4.95830e-02,-0.531781
-4.95820e-02,-0.530469
-4.95810e-02,-0.530875
-4.95800e-02,-0.533563
-4.95790e-02,-0.531719
-4.95780e-02,-0.533031
-4.95770e-02,-0.531641
-4.95760e-02,-0.53225
-4.95750e-02,-0.532563
-4.95740e-02,-0.533109
-4.95730e-02,-0.530578
-4.95720e-02,-0.530953
-4.95710e-02,-0.532875
-4.95700e-02,-0.532469
-4.95690e-02,-0.531781
-4.95680e-02,-0.530609
-4.95670e-02,-0.531734
-4.95660e-02,-0.530422
-4.95650e-02,-0.53375
-4.95640e-02,-0.533578
-4.95630e-02,-0.533781
-4.95620e-02,-0.531281
-4.95610e-02,-0.531625
-4.95600e-02,-0.533406
-4.95590e-02,-0.532313
-4.95580e-02,-0.531938
-4.95570e-02,-0.530234
-4.95560e-02,-0.531875
-4.95550e-02,-0.532
-4.95540e-02,-0.533969
-4.95530e-02,-0.534125
-4.95520e-02,-0.532703
-4.95510e-02,-0.532297
-4.95500e-02,-0.533781
-4.95490e-02,-0.532625
-4.95480e-02,-0.530703
-4.95470e-02,-0.533313
-4.95460e-02,-0.532891
-4.95450e-02,-0.531
-4.95440e-02,-0.533516
-4.95430e-02,-0.533156
-4.95420e-02,-0.533656
-4.95410e-02,-0.531266
-4.95400e-02,-0.532797
-4.95390e-02,-0.533766
-4.95380e-02,-0.533297
-4.95370e-02,-0.531953
-4.95360e-02,-0.53225
-4.95350e-02,-0.533984
-4.95340e-02,-0.531672
-4.95330e-02,-0.530516
-4.95320e-02,-0.533297
-4.95310e-02,-0.533766
-4.95300e-02,-0.532813
-4.95290e-02,-0.531203
-4.95280e-02,-0.533328
-4.95270e-02,-0.531219
-4.95260e-02,-0.532469
-4.95250e-02,-0.531344
-4.95240e-02,-0.532953
-4.95230e-02,-0.532453
-4.95220e-02,-0.532359
-4.95210e-02,-0.532547
-4.95200e-02,-0.533328
-4.95190e-02,-0.532703
-4.95180e-02,-0.533797
-4.95170e-02,-0.532797
-4.95160e-02,-0.533563
-4.95150e-02,-0.532594
-4.95140e-02,-0.534
-4.95130e-02,-0.535297
-4.95120e-02,-0.532797
-4.95110e-02,-0.532875
-4.95100e-02,-0.53375
-4.95090e-02,-0.532375
-4.95080e-02,-0.532844
-4.95070e-02,-0.533125
-4.95060e-02,-0.534016
-4.95050e-02,-0.533109
-4.95040e-02,-0.532234
-4.95030e-02,-0.532281
-4.95020e-02,-0.532938
-4.95010e-02,-0.532813
-4.95000e-02,-0.533672
-4.94990e-02,-0.533625
-4.94980e-02,-0.533281
-4.94970e-02,-0.531531
-4.94960e-02,-0.533062
-4.94950e-02,-0.533375
-4.94940e-02,-0.533281
-4.94930e-02,-0.532828
-4.94920e-02,-0.534625
-4.94910e-02,-0.532969
-4.94900e-02,-0.533484
-4.94890e-02,-0.531656
-4.94880e-02,-0.532922
-4.94870e-02,-0.532188
-4.94860e-02,-0.533938
-4.94850e-02,-0.532688
-4.94840e-02,-0.532578
-4.94830e-02,-0.534219
-4.94820e-02,-0.533375
-4.94810e-02,-0.532313
-4.94800e-02,-0.531688
-4.94790e-02,-0.532156
-4.94780e-02,-0.531547
-4.94770e-02,-0.531422
-4.94760e-02,-0.532734
-4.94750e-02,-0.533906
-4.94740e-02,-0.533453
-4.94730e-02,-0.533906
-4.94720e-02,-0.534203
-4.94710e-02,-0.532266
-4.94700e-02,-0.532734
-4.94690e-02,-0.533313
-4.94680e-02,-0.532641
-4.94670e-02,-0.533656
-4.94660e-02,-0.531969
-4.94650e-02,-0.533203
-4.94640e-02,-0.531781
-4.94630e-02,-0.532969
-4.94620e-02,-0.532563
-4.94610e-02,-0.532031
-4.94600e-02,-0.532359
-4.94590e-02,-0.531531
-4.94580e-02,-0.533453
-4.94570e-02,-0.533203
-4.94560e-02,-0.532
-4.94550e-02,-0.532344
-4.94540e-02,-0.531703
-4.94530e-02,-0.533734
-4.94520e-02,-0.531656
-4.94510e-02,-0.534984
-4.94500e-02,-0.533828
-4.94490e-02,-0.534313
-4.94480e-02,-0.533234
-4.94470e-02,-0.534281
-4.94460e-02,-0.534391
-4.94450e-02,-0.533656
-4.94440e-02,-0.534406
-4.94430e-02,-0.532234
-4.94420e-02,-0.532484
-4.94410e-02,-0.534516
-4.94400e-02,-0.532203
-4.94390e-02,-0.532766
-4.94380e-02,-0.533
-4.94370e-02,-0.533766
-4.94360e-02,-0.532172
-4.94350e-02,-0.532656
-4.94340e-02,-0.531922
-4.94330e-02,-0.531359
-4.94320e-02,-0.534531
-4.94310e-02,-0.531531
-4.94300e-02,-0.532313
-4.94290e-02,-0.534359
-4.94280e-02,-0.533734
-4.94270e-02,-0.533734
-4.94260e-02,-0.533141
-4.94250e-02,-0.535078
-4.94240e-02,-0.532797
-4.94230e-02,-0.534516
-4.94220e-02,-0.533219
-4.94210e-02,-0.533953
-4.94200e-02,-0.533656
-4.94190e-02,-0.533563
-4.94180e-02,-0.535547
-4.94170e-02,-0.532688
-4.94160e-02,-0.534016
-4.94150e-02,-0.534156
-4.94140e-02,-0.535516
-4.94130e-02,-0.533984
-4.94120e-02,-0.534891
-4.94110e-02,-0.533641
-4.94100e-02,-0.534109
-4.94090e-02,-0.533375
-4.94080e-02,-0.534984
-4.94070e-02,-0.5335
-4.94060e-02,-0.53375
-4.94050e-02,-0.533391
-4.94040e-02,-0.534281
-4.94030e-02,-0.535
-4.94020e-02,-0.534141
-4.94010e-02,-0.533734
-4.94000e-02,-0.534531
-4.93990e-02,-0.534109
-4.93980e-02,-0.534281
-4.93970e-02,-0.533781
-4.93960e-02,-0.534156
-4.93950e-02,-0.532859
-4.93940e-02,-0.534016
-4.93930e-02,-0.534703
-4.93920e-02,-0.534687
-4.93910e-02,-0.535672
-4.93900e-02,-0.533094
-4.93890e-02,-0.533531
-4.93880e-02,-0.533656
-4.93870e-02,-0.534313
-4.93860e-02,-0.534047
-4.93850e-02,-0.534109
-4.93840e-02,-0.534328
-4.93830e-02,-0.534938
-4.93820e-02,-0.533531
-4.93810e-02,-0.53425
-4.93800e-02,-0.532625
-4.93790e-02,-0.534
-4.93780e-02,-0.533328
-4.93770e-02,-0.533328
-4.93760e-02,-0.532938
-4.93750e-02,-0.532953
-4.93740e-02,-0.533984
-4.93730e-02,-0.534109
-4.93720e-02,-0.534453
-4.93710e-02,-0.533875
-4.93700e-02,-0.532656
-4.93690e-02,-0.535016
-4.93680e-02,-0.532797
-4.93670e-02,-0.533234
-4.93660e-02,-0.533984
-4.93650e-02,-0.534891
-4.93640e-02,-0.53525
-4.93630e-02,-0.534422
-4.93620e-02,-0.532328
-4.93610e-02,-0.534
-4.93600e-02,-0.533219
-4.93590e-02,-0.534391
-4.93580e-02,-0.53425
-4.93570e-02,-0.535125
-4.93560e-02,-0.533438
-4.93550e-02,-0.533172
-4.93540e-02,-0.534844
-4.93530e-02,-0.535891
-4.93520e-02,-0.534719
-4.93510e-02,-0.534328
-4.93500e-02,-0.536203
-4.93490e-02,-0.536203
-4.93480e-02,-0.535172
-4.93470e-02,-0.536391
-4.93460e-02,-0.534328
-4.93450e-02,-0.532781
-4.93440e-02,-0.535484
-4.93430e-02,-0.533969
-4.93420e-02,-0.534141
-4.93410e-02,-0.535563
-4.93400e-02,-0.533422
-4.93390e-02,-0.536703
-4.93380e-02,-0.535563
-4.93370e-02,-0.535281
-4.93360e-02,-0.534047
-4.93350e-02,-0.534969
-4.93340e-02,-0.53525
-4.93330e-02,-0.533453
-4.93320e-02,-0.533969
-4.93310e-02,-0.535438
-4.93300e-02,-0.535328
-4.93290e-02,-0.533891
-4.93280e-02,-0.535953
-4.93270e-02,-0.536234
-4.93260e-02,-0.535766
-4.93250e-02,-0.535484
-4.93240e-02,-0.534703
-4.93230e-02,-0.536234
-4.93220e-02,-0.534422
-4.93210e-02,-0.537094
-4.93200e-02,-0.535031
-4.93190e-02,-0.533125
-4.93180e-02,-0.535781
-4.93170e-02,-0.533297
-4.93160e-02,-0.534766
-4.93150e-02,-0.534484
-4.93140e-02,-0.534266
-4.93130e-02,-0.5355
-4.93120e-02,-0.534344
-4.93110e-02,-0.533641
-4.93100e-02,-0.535
-4.93090e-02,-0.535188
-4.93080e-02,-0.534687
-4.93070e-02,-0.534062
-4.93060e-02,-0.534938
-4.93050e-02,-0.536203
-4.93040e-02,-0.534609
-4.93030e-02,-0.535484
-4.93020e-02,-0.535594
-4.93010e-02,-0.534359
-4.93000e-02,-0.533375
-4.92990e-02,-0.533625
-4.92980e-02,-0.534563
-4.92970e-02,-0.532719
-4.92960e-02,-0.534016
-4.92950e-02,-0.534656
-4.92940e-02,-0.534813
-4.92930e-02,-0.534703
-4.92920e-02,-0.535375
-4.92910e-02,-0.535172
-4.92900e-02,-0.536391
-4.92890e-02,-0.534047
-4.92880e-02,-0.534391
-4.92870e-02,-0.535016
-4.92860e-02,-0.536109
-4.92850e-02,-0.533719
-4.92840e-02,-0.536578
-4.92830e-02,-0.537
-4.92820e-02,-0.534188
-4.92810e-02,-0.535563
-4.92800e-02,-0.534656
-4.92790e-02,-0.536406
-4.92780e-02,-0.534859
-4.92770e-02,-0.536391
-4.92760e-02,-0.535797
-4.92750e-02,-0.533984
-4.92740e-02,-0.534
-4.92730e-02,-0.536703
-4.92720e-02,-0.534719
-4.92710e-02,-0.533625
-4.92700e-02,-0.535438
-4.92690e-02,-0.535453
-4.92680e-02,-0.5365
-4.92670e-02,-0.534875
-4.92660e-02,-0.533953
-4.92650e-02,-0.536609
-4.92640e-02,-0.53675
-4.92630e-02,-0.534672
-4.92620e-02,-0.534563
-4.92610e-02,-0.535109
-4.92600e-02,-0.536188
-4.92590e-02,-0.537328
-4.92580e-02,-0.53525
-4.92570e-02,-0.536281
-4.92560e-02,-0.534109
-4.92550e-02,-0.535438
-4.92540e-02,-0.536859
-4.92530e-02,-0.535344
-4.92520e-02,-0.535094
-4.92510e-02,-0.537078
-4.92500e-02,-0.536516
-4.92490e-02,-0.535547
-4.92480e-02,-0.535297
-4.92470e-02,-0.535766
-4.92460e-02,-0.537922
-4.92450e-02,-0.535625
-4.92440e-02,-0.535547
-4.92430e-02,-0.535281
-4.92420e-02,-0.534234
-4.92410e-02,-0.537047
