A246/A264/Exercise 4/Saturation/0.037 + 0.321/tek0000CH2.csv

Model,DPO4104
Firmware Version,2.68

Waveform Type,ANALOG
Point Format,Y
Horizontal Units,s
Horizontal Scale,0.01
Horizontal Delay,-0.0001
Sample Interval,1e-06
Record Length,100000
Gating,0.0% to 100.0%
Probe Attenuation,0.2
Vertical Units,V
Vertical Offset,-0.812
Vertical Scale,0.02
Vertical Position,-5
,
,
,
Label,
TIME,CH2
-5.01000e-02,-0.719806
-5.00990e-02,-0.719772
-5.00980e-02,-0.719947
-5.00970e-02,-0.719734
-5.00960e-02,-0.719581
-5.00950e-02,-0.719813
-5.00940e-02,-0.719978
-5.00930e-02,-0.719784
-5.00920e-02,-0.719922
-5.00910e-02,-0.7196
-5.00900e-02,-0.719756
-5.00890e-02,-0.720031
-5.00880e-02,-0.719803
-5.00870e-02,-0.720031
-5.00860e-02,-0.719881
-5.00850e-02,-0.719922
-5.00840e-02,-0.720047
-5.00830e-02,-0.72
-5.00820e-02,-0.719656
-5.00810e-02,-0.720175
-5.00800e-02,-0.719972
-5.00790e-02,-0.720019
-5.00780e-02,-0.719706
-5.00770e-02,-0.719963
-5.00760e-02,-0.719934
-5.00750e-02,-0.719834
-5.00740e-02,-0.719838
-5.00730e-02,-0.719984
-5.00720e-02,-0.720097
-5.00710e-02,-0.719928
-5.00700e-02,-0.7199
-5.00690e-02,-0.72
-5.00680e-02,-0.720063
-5.00670e-02,-0.720041
-5.00660e-02,-0.720369
-5.00650e-02,-0.719541
-5.00640e-02,-0.719934
-5.00630e-02,-0.720081
-5.00620e-02,-0.719866
-5.00610e-02,-0.719909
-5.00600e-02,-0.7198
-5.00590e-02,-0.719944
-5.00580e-02,-0.719963
-5.00570e-02,-0.720238
-5.00560e-02,-0.720144
-5.00550e-02,-0.720231
-5.00540e-02,-0.720072
-5.00530e-02,-0.720072
-5.00520e-02,-0.720019
-5.00510e-02,-0.7202
-5.00500e-02,-0.720106
-5.00490e-02,-0.719959
-5.00480e-02,-0.720191
-5.00470e-02,-0.720313
-5.00460e-02,-0.720234
-5.00450e-02,-0.720141
-5.00440e-02,-0.720244
-5.00430e-02,-0.7202
-5.00420e-02,-0.720038
-5.00410e-02,-0.720128
-5.00400e-02,-0.720134
-5.00390e-02,-0.720334
-5.00380e-02,-0.720016
-5.00370e-02,-0.720191
-5.00360e-02,-0.720069
-5.00350e-02,-0.720113
-5.00340e-02,-0.720013
-5.00330e-02,-0.720309
-5.00320e-02,-0.720506
-5.00310e-02,-0.720263
-5.00300e-02,-0.720225
-5.00290e-02,-0.720444
-5.00280e-02,-0.720203
-5.00270e-02,-0.720422
-5.00260e-02,-0.719928
-5.00250e-02,-0.7204
-5.00240e-02,-0.720288
-5.00230e-02,-0.720269
-5.00220e-02,-0.720091
-5.00210e-02,-0.720153
-5.00200e-02,-0.720325
-5.00190e-02,-0.720419
-5.00180e-02,-0.7205
-5.00170e-02,-0.720631
-5.00160e-02,-0.720569
-5.00150e-02,-0.720256
-5.00140e-02,-0.720191
-5.00130e-02,-0.720122
-5.00120e-02,-0.720463
-5.00110e-02,-0.720359
-5.00100e-02,-0.720338
-5.00090e-02,-0.720231
-5.00080e-02,-0.720403
-5.00070e-02,-0.720319
-5.00060e-02,-0.720484
-5.00050e-02,-0.720091
-5.00040e-02,-0.720353
-5.00030e-02,-0.720228
-5.00020e-02,-0.7204
-5.00010e-02,-0.720203
-5.00000e-02,-0.720503
-4.99990e-02,-0.72055
-4.99980e-02,-0.720203
-4.99970e-02,-0.720425
-4.99960e-02,-0.720684
-4.99950e-02,-0.720344
-4.99940e-02,-0.720766
-4.99930e-02,-0.720397
-4.99920e-02,-0.720681
-4.99910e-02,-0.720556
-4.99900e-02,-0.720597
-4.99890e-02,-0.720578
-4.99880e-02,-0.720234
-4.99870e-02,-0.720634
-4.99860e-02,-0.720497
-4.99850e-02,-0.720559
-4.99840e-02,-0.720691
-4.99830e-02,-0.720272
-4.99820e-02,-0.720422
-4.99810e-02,-0.720797
-4.99800e-02,-0.720581
-4.99790e-02,-0.720688
-4.99780e-02,-0.720697
-4.99770e-02,-0.720709
-4.99760e-02,-0.720734
-4.99750e-02,-0.720334
-4.99740e-02,-0.721088
-4.99730e-02,-0.720566
-4.99720e-02,-0.720591
-4.99710e-02,-0.720797
-4.99700e-02,-0.721031
-4.99690e-02,-0.720731
-4.99680e-02,-0.720553
-4.99670e-02,-0.720631
-4.99660e-02,-0.720613
-4.99650e-02,-0.720613
-4.99640e-02,-0.720594
-4.99630e-02,-0.720569
-4.99620e-02,-0.720597
-4.99610e-02,-0.720625
-4.99600e-02,-0.721
-4.99590e-02,-0.720784
-4.99580e-02,-0.720647
-4.99570e-02,-0.720791
-4.99560e-02,-0.720703
-4.99550e-02,-0.720572
-4.99540e-02,-0.720616
-4.99530e-02,-0.720775
-4.99520e-02,-0.720663
-4.99510e-02,-0.72075
-4.99500e-02,-0.720631
-4.99490e-02,-0.720813
-4.99480e-02,-0.720603
-4.99470e-02,-0.720819
-4.99460e-02,-0.720828
-4.99450e-02,-0.720969
-4.99440e-02,-0.720741
-4.99430e-02,-0.720678
-4.99420e-02,-0.72075
-4.99410e-02,-0.720925
-4.99400e-02,-0.721031
-4.99390e-02,-0.720988
-4.99380e-02,-0.720553
-4.99370e-02,-0.720934
-4.99360e-02,-0.720756
-4.99350e-02,-0.720784
-4.99340e-02,-0.720769
-4.99330e-02,-0.720731
-4.99320e-02,-0.720659
-4.99310e-02,-0.720956
-4.99300e-02,-0.720844
-4.99290e-02,-0.7207
-4.99280e-02,-0.720972
-4.99270e-02,-0.720834
-4.99260e-02,-0.721119
-4.99250e-02,-0.721075
-4.99240e-02,-0.721259
-4.99230e-02,-0.720875
-4.99220e-02,-0.720856
-4.99210e-02,-0.721109
-4.99200e-02,-0.720809
-4.99190e-02,-0.721209
-4.99180e-02,-0.721006
-4.99170e-02,-0.72085
-4.99160e-02,-0.721272
-4.99150e-02,-0.720966
-4.99140e-02,-0.721069
-4.99130e-02,-0.720738
-4.99120e-02,-0.720834
-4.99110e-02,-0.720963
-4.99100e-02,-0.721088
-4.99090e-02,-0.720953
-4.99080e-02,-0.721028
-4.99070e-02,-0.721194
-4.99060e-02,-0.721353
-4.99050e-02,-0.721131
-4.99040e-02,-0.720725
-4.99030e-02,-0.720766
-4.99020e-02,-0.721128
-4.99010e-02,-0.721413
-4.99000e-02,-0.721169
-4.98990e-02,-0.721269
-4.98980e-02,-0.721134
-4.98970e-02,-0.7209
-4.98960e-02,-0.721238
-4.98950e-02,-0.721125
-4.98940e-02,-0.72125
-4.98930e-02,-0.720997
-4.98920e-02,-0.721059
-4.98910e-02,-0.721356
-4.98900e-02,-0.721172
-4.98890e-02,-0.720956
-4.98880e-02,-0.721528
-4.98870e-02,-0.721247
-4.98860e-02,-0.721291
-4.98850e-02,-0.721025
-4.98840e-02,-0.721247
-4.98830e-02,-0.721041
-4.98820e-02,-0.720947
-4.98810e-02,-0.721144
-4.98800e-02,-0.721047
-4.98790e-02,-0.720872
-4.98780e-02,-0.721416
-4.98770e-02,-0.721141
-4.98760e-02,-0.721456
-4.98750e-02,-0.721028
-4.98740e-02,-0.721281
-4.98730e-02,-0.721238
-4.98720e-02,-0.721231
-4.98710e-02,-0.721034
-4.98700e-02,-0.721197
-4.98690e-02,-0.721253
-4.98680e-02,-0.721322
-4.98670e-02,-0.721072
-4.98660e-02,-0.721369
-4.98650e-02,-0.721216
-4.98640e-02,-0.721263
-4.98630e-02,-0.721484
-4.98620e-02,-0.721184
-4.98610e-02,-0.72155
-4.98600e-02,-0.720959
-4.98590e-02,-0.721644
-4.98580e-02,-0.721653
-4.98570e-02,-0.721341
-4.98560e-02,-0.721306
-4.98550e-02,-0.721072
-4.98540e-02,-0.721481
-4.98530e-02,-0.721266
-4.98520e-02,-0.721475
-4.98510e-02,-0.721234
-4.98500e-02,-0.721306
-4.98490e-02,-0.721284
-4.98480e-02,-0.721306
-4.98470e-02,-0.721175
-4.98460e-02,-0.721616
-4.98450e-02,-0.721584
-4.98440e-02,-0.721534
-4.98430e-02,-0.721319
-4.98420e-02,-0.721381
-4.98410e-02,-0.721581
-4.98400e-02,-0.72135
-4.98390e-02,-0.721506
-4.98380e-02,-0.721128
-4.98370e-02,-0.721513
-4.98360e-02,-0.721372
-4.98350e-02,-0.721578
-4.98340e-02,-0.721181
-4.98330e-02,-0.721534
-4.98320e-02,-0.721603
-4.98310e-02,-0.721791
-4.98300e-02,-0.721431
-4.98290e-02,-0.720953
-4.98280e-02,-0.721709
-4.98270e-02,-0.721569
-4.98260e-02,-0.721309
-4.98250e-02,-0.721522
-4.98240e-02,-0.721356
-4.98230e-02,-0.721434
-4.98220e-02,-0.721472
-4.98210e-02,-0.721431
-4.98200e-02,-0.721397
-4.98190e-02,-0.721706
-4.98180e-02,-0.721456
-4.98170e-02,-0.721444
-4.98160e-02,-0.721838
-4.98150e-02,-0.721616
-4.98140e-02,-0.72135
-4.98130e-02,-0.721488
-4.98120e-02,-0.721522
-4.98110e-02,-0.721481
-4.98100e-02,-0.721603
-4.98090e-02,-0.721653
-4.98080e-02,-0.721419
-4.98070e-02,-0.721641
-4.98060e-02,-0.721572
-4.98050e-02,-0.721797
-4.98040e-02,-0.721722
-4.98030e-02,-0.721531
-4.98020e-02,-0.721716
-4.98010e-02,-0.721591
-4.98000e-02,-0.721316
-4.97990e-02,-0.721609
-4.97980e-02,-0.72145
-4.97970e-02,-0.721866
-4.97960e-02,-0.721625
-4.97950e-02,-0.721438
-4.97940e-02,-0.721522
-4.97930e-02,-0.721566
-4.97920e-02,-0.721388
-4.97910e-02,-0.721678
-4.97900e-02,-0.721709
-4.97890e-02,-0.721688
-4.97880e-02,-0.722078
-4.97870e-02,-0.721694
-4.97860e-02,-0.72155
-4.97850e-02,-0.721938
-4.97840e-02,-0.721688
-4.97830e-02,-0.721528
-4.97820e-02,-0.721519
-4.97810e-02,-0.72165
-4.97800e-02,-0.721844
-4.97790e-02,-0.721966
-4.97780e-02,-0.721944
-4.97770e-02,-0.721616
-4.97760e-02,-0.721847
-4.97750e-02,-0.721706
-4.97740e-02,-0.722078
-4.97730e-02,-0.721859
-4.97720e-02,-0.722059
-4.97710e-02,-0.721734
-4.97700e-02,-0.721788
-4.97690e-02,-0.721738
-4.97680e-02,-0.722013
-4.97670e-02,-0.721966
-4.97660e-02,-0.721897
-4.97650e-02,-0.722013
-4.97640e-02,-0.721678
-4.97630e-02,-0.721716
-4.97620e-02,-0.722181
-4.97610e-02,-0.721984
-4.97600e-02,-0.721934
-4.97590e-02,-0.721888
-4.97580e-02,-0.721903
-4.97570e-02,-0.721959
-4.97560e-02,-0.721581
-4.97550e-02,-0.721869
-4.97540e-02,-0.721738
-4.97530e-02,-0.721784
-4.97520e-02,-0.722063
-4.97510e-02,-0.721791
-4.97500e-02,-0.722166
-4.97490e-02,-0.721844
-4.97480e-02,-0.722009
-4.97470e-02,-0.722075
-4.97460e-02,-0.721863
-4.97450e-02,-0.72195
-4.97440e-02,-0.7219
-4.97430e-02,-0.721794
-4.97420e-02,-0.721791
-4.97410e-02,-0.7222
-4.97400e-02,-0.7223
-4.97390e-02,-0.721978
-4.97380e-02,-0.721709
-4.97370e-02,-0.722172
-4.97360e-02,-0.722234
-4.97350e-02,-0.721925
-4.97340e-02,-0.721716
-4.97330e-02,-0.722294
-4.97320e-02,-0.722022
-4.97310e-02,-0.722119
-4.97300e-02,-0.722153
-4.97290e-02,-0.721916
-4.97280e-02,-0.721869
-4.97270e-02,-0.722047
-4.97260e-02,-0.722078
-4.97250e-02,-0.7218
-4.97240e-02,-0.721684
-4.97230e-02,-0.721959
-4.97220e-02,-0.721863
-4.97210e-02,-0.721975
-4.97200e-02,-0.721988
-4.97190e-02,-0.721934
-4.97180e-02,-0.722109
-4.97170e-02,-0.721966
-4.97160e-02,-0.722084
-4.97150e-02,-0.722147
-4.97140e-02,-0.72225
-4.97130e-02,-0.722138
-4.97120e-02,-0.722172
-4.97110e-02,-0.722234
-4.97100e-02,-0.721922
-4.97090e-02,-0.721909
-4.97080e-02,-0.722481
-4.97070e-02,-0.722166
-4.97060e-02,-0.722075
-4.97050e-02,-0.722194
-4.97040e-02,-0.721881
-4.97030e-02,-0.721978
-4.97020e-02,-0.722384
-4.97010e-02,-0.722256
-4.97000e-02,-0.722206
-4.96990e-02,-0.722334
-4.96980e-02,-0.722309
-4.96970e-02,-0.722628
-4.96960e-02,-0.722416
-4.96950e-02,-0.722272
-4.96940e-02,-0.722353
-4.96930e-02,-0.722328
-4.96920e-02,-0.722328
-4.96910e-02,-0.722416
-4.96900e-02,-0.722403
-4.96890e-02,-0.722031
-4.96880e-02,-0.722197
-4.96870e-02,-0.722238
-4.96860e-02,-0.722378
-4.96850e-02,-0.722403
-4.96840e-02,-0.722397
-4.96830e-02,-0.722509
-4.96820e-02,-0.722356
-4.96810e-02,-0.722128
-4.96800e-02,-0.722263
-4.96790e-02,-0.722419
-4.96780e-02,-0.722197
-4.96770e-02,-0.722203
-4.96760e-02,-0.722475
-4.96750e-02,-0.722753
-4.96740e-02,-0.722591
-4.96730e-02,-0.722403
-4.96720e-02,-0.722313
-4.96710e-02,-0.722563
-4.96700e-02,-0.722494
-4.96690e-02,-0.722644
-4.96680e-02,-0.722413
-4.96670e-02,-0.722422
-4.96660e-02,-0.722447
-4.96650e-02,-0.722297
-4.96640e-02,-0.722781
-4.96630e-02,-0.722497
-4.96620e-02,-0.722594
-4.96610e-02,-0.722619
-4.96600e-02,-0.722519
-4.96590e-02,-0.722778
-4.96580e-02,-0.722678
-4.96570e-02,-0.722781
-4.96560e-02,-0.722328
-4.96550e-02,-0.722406
-4.96540e-02,-0.722691
-4.96530e-02,-0.722606
-4.96520e-02,-0.72225
-4.96510e-02,-0.722816
-4.96500e-02,-0.722581
-4.96490e-02,-0.722406
-4.96480e-02,-0.722369
-4.96470e-02,-0.722922
-4.96460e-02,-0.722738
-4.96450e-02,-0.722803
-4.96440e-02,-0.722663
-4.96430e-02,-0.722584
-4.96420e-02,-0.722509
-4.96410e-02,-0.722694
-4.96400e-02,-0.722788
-4.96390e-02,-0.722784
-4.96380e-02,-0.722753
-4.96370e-02,-0.722806
-4.96360e-02,-0.72285
-4.96350e-02,-0.722556
-4.96340e-02,-0.722572
-4.96330e-02,-0.722616
-4.96320e-02,-0.722963
-4.96310e-02,-0.722872
-4.96300e-02,-0.722841
-4.96290e-02,-0.722763
-4.96280e-02,-0.722706
-4.96270e-02,-0.722788
-4.96260e-02,-0.722581
-4.96250e-02,-0.722953
-4.96240e-02,-0.722647
-4.96230e-02,-0.722831
-4.96220e-02,-0.722828
-4.96210e-02,-0.722847
-4.96200e-02,-0.722856
-4.96190e-02,-0.722775
-4.96180e-02,-0.723372
-4.96170e-02,-0.722991
-4.96160e-02,-0.722641
-4.96150e-02,-0.722906
-4.96140e-02,-0.72285
-4.96130e-02,-0.722894
-4.96120e-02,-0.722959
-4.96110e-02,-0.722906
-4.96100e-02,-0.722806
-4.96090e-02,-0.722847
-4.96080e-02,-0.723025
-4.96070e-02,-0.722784
-4.96060e-02,-0.722853
-4.96050e-02,-0.723044
-4.96040e-02,-0.722753
-4.96030e-02,-0.722872
-4.96020e-02,-0.722972
-4.96010e-02,-0.722659
-4.96000e-02,-0.722981
-4.95990e-02,-0.723138
-4.95980e-02,-0.722975
-4.95970e-02,-0.722925
-4.95960e-02,-0.722872
-4.95950e-02,-0.723147
-4.95940e-02,-0.723053
-4.95930e-02,-0.723084
-4.95920e-02,-0.722828
-4.95910e-02,-0.722831
-4.95900e-02,-0.72275
-4.95890e-02,-0.7228
-4.95880e-02,-0.722916
-4.95870e-02,-0.722928
-4.95860e-02,-0.7229
-4.95850e-02,-0.723022
-4.95840e-02,-0.722981
-4.95830e-02,-0.723078
-4.95820e-02,-0.723206
-4.95810e-02,-0.722966
-4.95800e-02,-0.723244
-4.95790e-02,-0.723444
-4.95780e-02,-0.723194
-4.95770e-02,-0.723191
-4.95760e-02,-0.723188
-4.95750e-02,-0.723016
-4.95740e-02,-0.723288
-4.95730e-02,-0.723166
-4.95720e-02,-0.723359
-4.95710e-02,-0.723216
-4.95700e-02,-0.723019
-4.95690e-02,-0.723159
-4.95680e-02,-0.723263
-4.95670e-02,-0.723331
-4.95660e-02,-0.723106
-4.95650e-02,-0.723191
-4.95640e-02,-0.723013
-4.95630e-02,-0.723141
-4.95620e-02,-0.723463
-4.95610e-02,-0.723053
-4.95600e-02,-0.723281
-4.95590e-02,-0.723206
-4.95580e-02,-0.723069
-4.95570e-02,-0.723075
-4.95560e-02,-0.723131
-4.95550e-02,-0.723447
-4.95540e-02,-0.723209
-4.95530e-02,-0.723391
-4.95520e-02,-0.723169
-4.95510e-02,-0.723613
-4.95500e-02,-0.723181
-4.95490e-02,-0.723391
-4.95480e-02,-0.723088
-4.95470e-02,-0.723541
-4.95460e-02,-0.723556
-4.95450e-02,-0.723488
-4.95440e-02,-0.723509
-4.95430e-02,-0.723434
-4.95420e-02,-0.723559
-4.95410e-02,-0.723341
-4.95400e-02,-0.723456
-4.95390e-02,-0.723488
-4.95380e-02,-0.723341
-4.95370e-02,-0.723538
-4.95360e-02,-0.723256
-4.95350e-02,-0.723428
-4.95340e-02,-0.7234
-4.95330e-02,-0.723381
-4.95320e-02,-0.723381
-4.95310e-02,-0.723441
-4.95300e-02,-0.7234
-4.95290e-02,-0.723331
-4.95280e-02,-0.723759
-4.95270e-02,-0.723238
-4.95260e-02,-0.723313
-4.95250e-02,-0.723669
-4.95240e-02,-0.723409
-4.95230e-02,-0.723506
-4.95220e-02,-0.723416
-4.95210e-02,-0.723403
-4.95200e-02,-0.723297
-4.95190e-02,-0.723625
-4.95180e-02,-0.723572
-4.95170e-02,-0.723584
-4.95160e-02,-0.723628
-4.95150e-02,-0.723447
-4.95140e-02,-0.723681
-4.95130e-02,-0.723572
-4.95120e-02,-0.723734
-4.95110e-02,-0.723653
-4.95100e-02,-0.723575
-4.95090e-02,-0.723716
-4.95080e-02,-0.723531
-4.95070e-02,-0.7235
-4.95060e-02,-0.723794
-4.95050e-02,-0.723434
-4.95040e-02,-0.723728
-4.95030e-02,-0.723416
-4.95020e-02,-0.724016
-4.95010e-02,-0.723744
-4.95000e-02,-0.723666
-4.94990e-02,-0.723841
-4.94980e-02,-0.723722
-4.94970e-02,-0.723409
-4.94960e-02,-0.723684
-4.94950e-02,-0.723763
-4.94940e-02,-0.723766
-4.94930e-02,-0.724128
-4.94920e-02,-0.723713
-4.94910e-02,-0.723619
-4.94900e-02,-0.723666
-4.94890e-02,-0.723738
-4.94880e-02,-0.723906
-4.94870e-02,-0.723694
-4.94860e-02,-0.723884
-4.94850e-02,-0.723575
-4.94840e-02,-0.723694
-4.94830e-02,-0.724044
-4.94820e-02,-0.723741
-4.94810e-02,-0.723853
-4.94800e-02,-0.7237
-4.94790e-02,-0.72395
-4.94780e-02,-0.723875
-4.94770e-02,-0.723969
-4.94760e-02,-0.724231
-4.94750e-02,-0.723666
-4.94740e-02,-0.724109
-4.94730e-02,-0.723888
-4.94720e-02,-0.723869
-4.94710e-02,-0.723959
-4.94700e-02,-0.723825
-4.94690e-02,-0.723972
-4.94680e-02,-0.723972
-4.94670e-02,-0.724175
-4.94660e-02,-0.724013
-4.94650e-02,-0.724081
-4.94640e-02,-0.723894
-4.94630e-02,-0.723891
-4.94620e-02,-0.723822
-4.94610e-02,-0.724
-4.94600e-02,-0.723784
-4.94590e-02,-0.724181
-4.94580e-02,-0.724122
-4.94570e-02,-0.724134
-4.94560e-02,-0.724066
-4.94550e-02,-0.723834
-4.94540e-02,-0.724119
-4.94530e-02,-0.724003
-4.94520e-02,-0.724181
-4.94510e-02,-0.724006
-4.94500e-02,-0.723863
-4.94490e-02,-0.724166
-4.94480e-02,-0.724041
-4.94470e-02,-0.724084
-4.94460e-02,-0.724394
-4.94450e-02,-0.724219
-4.94440e-02,-0.724059
-4.94430e-02,-0.723928
-4.94420e-02,-0.723916
-4.94410e-02,-0.724522
-4.94400e-02,-0.72415
-4.94390e-02,-0.724019
-4.94380e-02,-0.724066
-4.94370e-02,-0.723872
-4.94360e-02,-0.724138
-4.94350e-02,-0.724319
-4.94340e-02,-0.724081
-4.94330e-02,-0.724147
-4.94320e-02,-0.724147
-4.94310e-02,-0.723881
-4.94300e-02,-0.724128
-4.94290e-02,-0.724197
-4.94280e-02,-0.724097
-4.94270e-02,-0.724013
-4.94260e-02,-0.724309
-4.94250e-02,-0.724278
-4.94240e-02,-0.724116
-4.94230e-02,-0.724159
-4.94220e-02,-0.724297
-4.94210e-02,-0.724388
-4.94200e-02,-0.724416
-4.94190e-02,-0.72415
-4.94180e-02,-0.724141
-4.94170e-02,-0.724219
-4.94160e-02,-0.724
-4.94150e-02,-0.724088
-4.94140e-02,-0.7244
-4.94130e-02,-0.724081
-4.94120e-02,-0.724094
-4.94110e-02,-0.724228
-4.94100e-02,-0.7243
-4.94090e-02,-0.724044
-4.94080e-02,-0.724606
-4.94070e-02,-0.724172
-4.94060e-02,-0.724344
-4.94050e-02,-0.724197
-4.94040e-02,-0.724519
-4.94030e-02,-0.724459
-4.94020e-02,-0.72455
-4.94010e-02,-0.724425
-4.94000e-02,-0.724244
-4.93990e-02,-0.724238
-4.93980e-02,-0.724481
-4.93970e-02,-0.72445
-4.93960e-02,-0.724506
-4.93950e-02,-0.724516
-4.93940e-02,-0.724347
-4.93930e-02,-0.724175
-4.93920e-02,-0.724513
-4.93910e-02,-0.724341
-4.93900e-02,-0.72445
-4.93890e-02,-0.724509
-4.93880e-02,-0.724156
-4.93870e-02,-0.724328
-4.93860e-02,-0.724769
-4.93850e-02,-0.72415
-4.93840e-02,-0.724384
-4.93830e-02,-0.724638
-4.93820e-02,-0.724438
-4.93810e-02,-0.724716
-4.93800e-02,-0.724434
-4.93790e-02,-0.724428
-4.93780e-02,-0.7244
-4.93770e-02,-0.724531
-4.93760e-02,-0.724622
-4.93750e-02,-0.724784
-4.93740e-02,-0.724603
-4.93730e-02,-0.724522
-4.93720e-02,-0.724394
-4.93710e-02,-0.724419
-4.93700e-02,-0.724378
-4.93690e-02,-0.724738
-4.93680e-02,-0.7246
-4.93670e-02,-0.725031
-4.93660e-02,-0.724375
-4.93650e-02,-0.724753
-4.93640e-02,-0.724438
-4.93630e-02,-0.724809
-4.93620e-02,-0.724725
-4.93610e-02,-0.724706
-4.93600e-02,-0.72475
-4.93590e-02,-0.724613
-4.93580e-02,-0.724534
-4.93570e-02,-0.724497
-4.93560e-02,-0.724506
-4.93550e-02,-0.724656
-4.93540e-02,-0.725153
-4.93530e-02,-0.724834
-4.93520e-02,-0.724591
-4.93510e-02,-0.724781
-4.93500e-02,-0.724791
-4.93490e-02,-0.724466
-4.93480e-02,-0.724797
-4.93470e-02,-0.724756
-4.93460e-02,-0.724863
-4.93450e-02,-0.724747
-4.93440e-02,-0.724881
-4.93430e-02,-0.724778
-4.93420e-02,-0.724891
-4.93410e-02,-0.724631
-4.93400e-02,-0.724806
-4.93390e-02,-0.724628
-4.93380e-02,-0.725119
-4.93370e-02,-0.724684
-4.93360e-02,-0.725147
-4.93350e-02,-0.724988
-4.93340e-02,-0.724734
-4.93330e-02,-0.724791
-4.93320e-02,-0.724825
-4.93310e-02,-0.724922
-4.93300e-02,-0.724872
-4.93290e-02,-0.724919
-4.93280e-02,-0.724844
-4.93270e-02,-0.725091
-4.93260e-02,-0.724906
-4.93250e-02,-0.724913
-4.93240e-02,-0.724975
-4.93230e-02,-0.724922
-4.93220e-02,-0.724931
-4.93210e-02,-0.724934
-4.93200e-02,-0.724859
-4.93190e-02,-0.724847
-4.93180e-02,-0.724884
-4.93170e-02,-0.724994
-4.93160e-02,-0.725306
-4.93150e-02,-0.724991
-4.93140e-02,-0.725028
-4.93130e-02,-0.725084
-4.93120e-02,-0.725019
-4.93110e-02,-0.724684
-4.93100e-02,-0.724819
-4.93090e-02,-0.724763
-4.93080e-02,-0.724972
-4.93070e-02,-0.725038
-4.93060e-02,-0.725134
-4.93050e-02,-0.724891
-4.93040e-02,-0.725138
-4.93030e-02,-0.725028
-4.93020e-02,-0.724984
-4.93010e-02,-0.724953
-4.93000e-02,-0.724994
-4.92990e-02,-0.725203
-4.92980e-02,-0.725013
-4.92970e-02,-0.725106
-4.92960e-02,-0.725078
-4.92950e-02,-0.725509
-4.92940e-02,-0.725222
-4.92930e-02,-0.725025
-4.92920e-02,-0.725234
-4.92910e-02,-0.725122
-4.92900e-02,-0.725103
-4.92890e-02,-0.725069
-4.92880e-02,-0.725263
-4.92870e-02,-0.725378
-4.92860e-02,-0.725353
-4.92850e-02,-0.725447
-4.92840e-02,-0.725109
-4.92830e-02,-0.725388
-4.92820e-02,-0.724956
-4.92810e-02,-0.725225
-4.92800e-02,-0.725259
-4.92790e-02,-0.725416
-4.92780e-02,-0.725041
-4.92770e-02,-0.725597
-4.92760e-02,-0.725444
-4.92750e-02,-0.725338
-4.92740e-02,-0.725156
-4.92730e-02,-0.725125
-4.92720e-02,-0.725109
-4.92710e-02,-0.725603
-4.92700e-02,-0.725388
-4.92690e-02,-0.725313
-4.92680e-02,-0.725425
-4.92670e-02,-0.725306
-4.92660e-02,-0.725584
-4.92650e-02,-0.725703
-4.92640e-02,-0.725156
-4.92630e-02,-0.725438
-4.92620e-02,-0.725388
-4.92610e-02,-0.725291
-4.92600e-02,-0.725375
-4.92590e-02,-0.725228
-4.92580e-02,-0.725756
-4.92570e-02,-0.725491
-4.92560e-02,-0.725269
-4.92550e-02,-0.725428
-4.92540e-02,-0.725591
-4.92530e-02,-0.725566
-4.92520e-02,-0.725581
-4.92510e-02,-0.725528
-4.92500e-02,-0.725609
-4.92490e-02,-0.725413
-4.92480e-02,-0.725531
-4.92470e-02,-0.725569
-4.92460e-02,-0.725641
-4.92450e-02,-0.725669
-4.92440e-02,-0.725475
-4.92430e-02,-0.725672
-4.92420e-02,-0.725494
